1,0BDE24681A08B6B72748AA1BC8A10BE7
2,E9D86653B8B64046875B88EFC2607111
3,8BF504A2DFD94D3FB000BF49719AAA9B
4,A3BDDA114A27319BA9BE2BFEAF348E8B
5,F1594D359481D3069D9D806D2D501682
6,4C21B8D3AFE2DB018412199EFE80DFAB
7,1766DF6DEE8AF002FEAC38177AE4CD49
8,4455B28ACC85731A184353FA7C75FA86
9,CF72DC38A57DE4A517B4FE23C0B2462A
10,C88C91AB920728433259DA21DF5815DB
11,9DE07EB42B4AA5A46AB4C66A17D1E432
12,9CE27314187FEB6ED94B02126F2C8122
13,E89F453D50A9FFE22DF4560F9659BC87
14,BB88C2C11889AF9C42ADF97A308225A2
15,5F3BF133BA4A70D99AD877BF9B217B0A
16,79F8BC483D5BD960CCF3169E6A42793C
17,C5C387AD27C255587105FDDC437D7F09
18,DD6A3C01E68EA266E1F553B236BBBB1C
19,B7856DD328B940C70DDB6E5BF8988372
20,292D3E892682FC711CBC1024A944D474
21,96549A049045E238E54F2B88836C4DF5
22,E7E6F9F97F18C35E0CC1AC3CCBBB4D08
23,2F64CA17B630824503901B523C949AE6
24,73C839CE30F75638FE591C7F07C4C468
25,6149FC16EC648D995CE08CF8C095C6C2
26,20A76FBF85436E6218C8E1D6FAA8BBAA
27,27B43729F435E8910497CBF8654DC7AA
28,B90ED0E0447B0981F2E3C49D370C514C
29,C617C18C8270F35E970788CFA4B976B0
30,D90CB340C3357F8A4D216B23C1F104E1
