1,-1110.0;611.0;-1110.0;611.0
2,-1110.0;611.0;-1109.0;611.0
3,-1110.0;612.0;-1110.0;611.0
4,-1110.0;611.0;-1110.0;610.0
5,-1109.0;611.0;-1110.0;610.0
6,-1110.0;611.0;-1110.0;612.0
7,-1110.0;612.0;-1110.0;612.0
8,-1110.0;610.0;-1110.0;611.0
9,-1110.0;611.0;-1111.0;610.0
10,-1111.0;610.0;-1110.0;610.0
11,-1110.0;610.0;-1110.0;610.0
12,-1110.0;610.0;-1109.0;612.0
13,-1109.0;612.0;-1110.0;611.0
14,-1111.0;610.0;-1110.0;611.0
15,-1111.0;610.0;-1110.0;609.0
16,-1109.0;611.0;-1108.0;610.0
17,-1109.0;611.0;-1110.0;611.0
18,-1110.0;612.0;-1111.0;610.0
19,-1110.0;611.0;-1111.0;611.0
20,-1110.0;610.0;-1109.0;611.0
21,-1110.0;611.0;-1109.0;612.0
22,-1111.0;610.0;-1111.0;610.0
23,-1111.0;610.0;-1110.0;612.0
24,-1109.0;612.0;-1108.0;613.0
25,-1110.0;612.0;-1109.0;613.0
26,-1110.0;611.0;-1109.0;613.0
27,-1110.0;611.0;-1107.0;609.0
28,-1109.0;611.0;-1109.0;612.0
29,-1109.0;612.0;-1110.0;612.0
30,-1111.0;611.0;-1110.0;611.0
31,-1110.0;611.0;-1108.0;612.0
32,-1111.0;611.0;-1111.0;611.0
33,-1108.0;611.0;-1109.0;611.0
34,-1109.0;611.0;-1109.0;611.0
35,-1108.0;610.0;-1110.0;611.0
36,-1110.0;611.0;-1108.0;611.0
37,-1110.0;610.0;-1111.0;610.0
38,-1107.0;609.0;-1110.0;610.0
39,-1107.0;609.0;-1109.0;611.0
40,-1110.0;611.0;-1108.0;610.0
41,-1109.0;611.0;-1107.0;610.0
42,-1108.0;611.0;-1110.0;610.0
43,-1113.0;610.0;-1113.0;610.0
44,-1110.0;610.0;-1111.0;611.0
45,-1108.0;611.0;-1110.0;611.0
46,-1107.0;609.0;-1110.0;611.0
47,-1111.0;610.0;-1111.0;611.0
48,-1107.0;609.0;-1108.0;610.0
49,-1111.0;611.0;-1110.0;610.0
50,-1107.0;609.0;-1109.0;610.0
51,-1110.0;612.0;-1113.0;610.0
52,-1109.0;612.0;-1109.0;612.0
53,-1111.0;611.0;-1111.0;610.0
54,-1108.0;611.0;-1111.0;611.0
55,-1108.0;610.0;-1108.0;610.0
56,-1107.0;609.0;-1107.0;611.0
57,-1110.0;610.0;-1108.0;611.0
58,-1111.0;610.0;-1107.0;609.0
59,-1108.0;609.0;-1110.0;611.0
60,-1110.0;612.0;-1110.0;610.0
61,-1109.0;611.0;-1111.0;610.0
62,-1110.0;611.0;-1110.0;609.0
63,-1107.0;609.0;-1111.0;610.0
64,-1111.0;610.0;-1109.0;611.0
65,-1107.0;609.0;-1107.0;609.0
66,-1108.0;611.0;-1107.0;610.0
67,-1108.0;610.0;-1111.0;611.0
68,-1107.0;609.0;-1108.0;611.0
69,-1108.0;611.0;-1110.0;612.0
70,-1110.0;610.0;-1110.0;609.0
71,-1110.0;610.0;-1110.0;608.0
72,-1110.0;610.0;-1109.0;610.0
73,-1111.0;611.0;-1109.0;611.0
74,-1107.0;609.0;-1107.0;610.0
75,-1110.0;609.0;-1110.0;609.0
76,-1110.0;611.0;-1109.0;610.0
77,-1108.0;611.0;-1109.0;612.0
78,-1110.0;611.0;-1113.0;610.0
79,-1111.0;610.0;-1108.0;610.0
80,-1107.0;609.0;-1110.0;608.0
81,-1107.0;609.0;-1110.0;609.0
82,-1111.0;610.0;-1111.0;609.0
83,-1110.0;611.0;-1107.0;611.0
84,-1109.0;611.0;-1109.0;610.0
85,-1109.0;610.0;-1110.0;610.0
86,-1110.0;610.0;-1102.0;611.0
87,-1109.0;611.0;-1107.0;611.0
88,-1110.0;610.0;-1107.0;609.0
89,-1108.0;610.0;-1108.0;609.0
90,-1108.0;609.0;-1111.0;610.0
91,-1110.0;610.0;-1110.0;612.0
92,-1110.0;611.0;-1106.0;611.0
93,-1110.0;611.0;-1108.0;613.0
94,-1111.0;611.0;-1110.0;609.0
95,-1111.0;611.0;-1110.0;612.0
96,-1110.0;609.0;-1109.0;611.0
97,-1111.0;610.0;-1108.0;611.0
98,-1111.0;611.0;-1107.0;609.0
99,-1109.0;611.0;-1108.0;609.0
100,-1110.0;612.0;-1109.0;611.0
101,-1108.0;611.0;-1111.0;610.0
102,-1111.0;611.0;-1108.0;610.0
103,-1107.0;609.0;-1109.0;612.0
104,-1108.0;611.0;-1110.0;609.0
105,-1111.0;610.0;-1113.0;610.0
106,-1108.0;611.0;-1108.0;611.0
107,-1110.0;612.0;-1111.0;611.0
108,-1109.0;611.0;-1110.0;609.0
109,-1112.0;611.0;-1112.0;611.0
110,-1107.0;609.0;-1106.0;609.0
111,-1110.0;611.0;-1111.0;609.0
112,-1111.0;611.0;-1111.0;609.0
113,-1109.0;610.0;-1110.0;608.0
114,-1110.0;612.0;-1109.0;612.0
115,-1108.0;611.0;-1108.0;610.0
116,-1107.0;609.0;-1109.0;609.0
117,-1111.0;611.0;-1107.0;610.0
118,-1108.0;610.0;-1107.0;610.0
119,-1110.0;609.0;-1110.0;610.0
120,-1111.0;610.0;-1109.0;613.0
121,-1107.0;609.0;-1111.0;611.0
122,-1108.0;611.0;-1107.0;609.0
123,-1110.0;611.0;-1106.0;614.0
124,-1107.0;609.0;-1110.0;612.0
125,-1111.0;610.0;-1113.0;608.0
126,-1110.0;610.0;-1111.0;609.0
127,-1110.0;610.0;-1108.0;609.0
128,-1107.0;609.0;-1105.0;611.0
129,-1107.0;609.0;-1108.0;609.0
130,-1110.0;612.0;-1108.0;610.0
131,-1109.0;613.0;-1109.0;612.0
132,-1109.0;612.0;-1107.0;609.0
133,-1111.0;611.0;-1108.0;609.0
134,-1111.0;610.0;-1110.0;608.0
135,-1110.0;611.0;-1109.0;609.0
136,-1108.0;611.0;-1106.0;611.0
137,-1110.0;612.0;-1107.0;609.0
138,-1107.0;609.0;-1106.0;610.0
139,-1109.0;611.0;-1107.0;609.0
140,-1111.0;611.0;-1113.0;610.0
141,-1109.0;613.0;-1110.0;611.0
142,-1109.0;611.0;-1110.0;612.0
143,-1110.0;611.0;-1108.0;609.0
144,-1107.0;609.0;-1109.0;613.0
145,-1110.0;611.0;-1114.0;613.0
146,-1111.0;609.0;-1109.0;610.0
147,-1109.0;611.0;-1110.0;608.0
148,-1109.0;611.0;-1111.0;611.0
149,-1107.0;609.0;-1108.0;613.0
150,-1108.0;611.0;-1109.0;610.0
151,-1111.0;611.0;-1109.0;612.0
152,-1111.0;610.0;-1106.0;610.0
153,-1111.0;611.0;-1109.0;610.0
154,-1109.0;610.0;-1109.0;611.0
155,-1110.0;610.0;-1108.0;612.0
156,-1110.0;611.0;-1112.0;610.0
157,-1109.0;611.0;-1108.0;611.0
158,-1111.0;611.0;-1108.0;611.0
159,-1109.0;612.0;-1108.0;612.0
160,-1110.0;610.0;-1107.0;611.0
161,-1108.0;610.0;-1108.0;611.0
162,-1110.0;611.0;-1110.0;608.0
163,-1110.0;610.0;-1108.0;610.0
164,-1107.0;609.0;-1111.0;609.0
165,-1110.0;612.0;-1108.0;613.0
166,-1107.0;610.0;-1108.0;611.0
167,-1110.0;612.0;-1108.0;611.0
168,-1111.0;610.0;-1107.0;611.0
169,-1108.0;610.0;-1107.0;609.0
170,-1110.0;611.0;-1107.0;613.0
