1,-1110.0;611.0;-1110.0;611.0;1,1
1,-1110.0;611.0;-1110.0;611.0;2,1
1,-1110.0;611.0;-1110.0;611.0;3,1
1,-1110.0;611.0;-1110.0;611.0;4,1
1,-1110.0;611.0;-1110.0;611.0;5,1
1,-1110.0;611.0;-1110.0;611.0;6,1
1,-1110.0;611.0;-1110.0;611.0;7,1
1,-1110.0;611.0;-1110.0;611.0;8,1
1,-1110.0;611.0;-1110.0;611.0;9,1
1,-1110.0;611.0;-1110.0;611.0;10,1
1,-1110.0;611.0;-1110.0;611.0;11,1
1,-1110.0;611.0;-1110.0;611.0;12,1
1,-1110.0;611.0;-1110.0;611.0;13,1
1,-1110.0;611.0;-1110.0;611.0;14,1
1,-1110.0;611.0;-1110.0;611.0;15,1
1,-1110.0;611.0;-1110.0;611.0;16,1
1,-1110.0;611.0;-1110.0;611.0;17,1
1,-1110.0;611.0;-1110.0;611.0;18,1
1,-1110.0;611.0;-1110.0;611.0;19,1
1,-1110.0;611.0;-1110.0;611.0;20,1
1,-1110.0;611.0;-1110.0;611.0;21,1
1,-1110.0;611.0;-1110.0;611.0;22,1
1,-1110.0;611.0;-1110.0;611.0;23,1
1,-1110.0;611.0;-1110.0;611.0;24,1
1,-1110.0;611.0;-1110.0;611.0;25,1
1,-1110.0;611.0;-1110.0;611.0;26,1
1,-1110.0;611.0;-1110.0;611.0;27,1
1,-1110.0;611.0;-1110.0;611.0;28,1
1,-1110.0;611.0;-1110.0;611.0;29,1
1,-1110.0;611.0;-1110.0;611.0;30,1
1,-1110.0;611.0;-1110.0;611.0;31,1
1,-1110.0;611.0;-1110.0;611.0;32,1
1,-1110.0;611.0;-1110.0;611.0;33,1
1,-1110.0;611.0;-1110.0;611.0;34,1
1,-1110.0;611.0;-1110.0;611.0;35,1
1,-1110.0;611.0;-1110.0;611.0;36,1
1,-1110.0;611.0;-1110.0;611.0;37,1
1,-1110.0;611.0;-1110.0;611.0;38,1
1,-1110.0;611.0;-1110.0;611.0;39,1
1,-1110.0;611.0;-1110.0;611.0;40,1
1,-1110.0;611.0;-1110.0;611.0;41,1
1,-1110.0;611.0;-1110.0;611.0;42,1
1,-1110.0;611.0;-1110.0;611.0;43,1
1,-1110.0;611.0;-1110.0;611.0;44,1
1,-1110.0;611.0;-1110.0;611.0;45,1
1,-1110.0;611.0;-1110.0;611.0;46,1
1,-1110.0;611.0;-1110.0;611.0;47,1
1,-1110.0;611.0;-1110.0;611.0;48,1
1,-1110.0;611.0;-1110.0;611.0;49,1
1,-1110.0;611.0;-1110.0;611.0;50,1
1,-1110.0;611.0;-1110.0;611.0;51,1
1,-1110.0;611.0;-1110.0;611.0;52,1
1,-1110.0;611.0;-1110.0;611.0;53,1
1,-1110.0;611.0;-1110.0;611.0;54,1
1,-1110.0;611.0;-1110.0;611.0;55,1
1,-1110.0;611.0;-1110.0;611.0;56,1
1,-1110.0;611.0;-1110.0;611.0;57,1
1,-1110.0;611.0;-1110.0;611.0;58,1
1,-1110.0;611.0;-1110.0;611.0;59,1
1,-1110.0;611.0;-1110.0;611.0;60,1
1,-1110.0;611.0;-1110.0;611.0;61,1
1,-1110.0;611.0;-1110.0;611.0;62,1
1,-1110.0;611.0;-1110.0;611.0;63,1
1,-1110.0;611.0;-1110.0;611.0;64,1
1,-1110.0;611.0;-1110.0;611.0;65,1
1,-1110.0;611.0;-1110.0;611.0;66,1
1,-1110.0;611.0;-1110.0;611.0;67,1
1,-1110.0;611.0;-1110.0;611.0;68,1
1,-1110.0;611.0;-1110.0;611.0;69,1
1,-1110.0;611.0;-1110.0;611.0;70,1
1,-1110.0;611.0;-1110.0;611.0;71,1
1,-1110.0;611.0;-1110.0;611.0;72,1
1,-1110.0;611.0;-1110.0;611.0;73,1
1,-1110.0;611.0;-1110.0;611.0;74,1
1,-1110.0;611.0;-1110.0;611.0;75,1
1,-1110.0;611.0;-1110.0;611.0;76,1
1,-1110.0;611.0;-1110.0;611.0;77,1
1,-1110.0;611.0;-1110.0;611.0;78,1
1,-1110.0;611.0;-1110.0;611.0;79,1
1,-1110.0;611.0;-1110.0;611.0;80,1
1,-1110.0;611.0;-1110.0;611.0;81,1
1,-1110.0;611.0;-1110.0;611.0;82,1
1,-1110.0;611.0;-1110.0;611.0;83,1
1,-1110.0;611.0;-1110.0;611.0;84,1
1,-1110.0;611.0;-1110.0;611.0;85,1
1,-1110.0;611.0;-1110.0;611.0;86,1
1,-1110.0;611.0;-1110.0;611.0;87,1
1,-1110.0;611.0;-1110.0;611.0;88,1
1,-1110.0;611.0;-1110.0;611.0;89,1
1,-1110.0;611.0;-1110.0;611.0;90,1
1,-1110.0;611.0;-1110.0;611.0;91,1
1,-1110.0;611.0;-1110.0;611.0;92,1
1,-1110.0;611.0;-1110.0;611.0;93,1
1,-1110.0;611.0;-1110.0;611.0;94,1
1,-1110.0;611.0;-1110.0;611.0;95,1
1,-1110.0;611.0;-1110.0;611.0;96,1
1,-1110.0;611.0;-1110.0;611.0;97,1
1,-1110.0;611.0;-1110.0;611.0;98,1
1,-1110.0;611.0;-1110.0;611.0;99,1
1,-1110.0;611.0;-1110.0;611.0;100,1
1,-1110.0;611.0;-1110.0;611.0;101,1
1,-1110.0;611.0;-1110.0;611.0;102,1
1,-1110.0;611.0;-1110.0;611.0;103,1
1,-1110.0;611.0;-1110.0;611.0;104,1
1,-1110.0;611.0;-1110.0;611.0;105,1
1,-1110.0;611.0;-1110.0;611.0;106,1
1,-1110.0;611.0;-1110.0;611.0;107,1
1,-1110.0;611.0;-1110.0;611.0;108,1
1,-1110.0;611.0;-1110.0;611.0;109,1
1,-1110.0;611.0;-1110.0;611.0;110,1
1,-1110.0;611.0;-1110.0;611.0;111,1
1,-1110.0;611.0;-1110.0;611.0;112,1
1,-1110.0;611.0;-1110.0;611.0;113,1
1,-1110.0;611.0;-1110.0;611.0;114,1
1,-1110.0;611.0;-1110.0;611.0;115,1
1,-1110.0;611.0;-1110.0;611.0;116,1
1,-1110.0;611.0;-1110.0;611.0;117,1
1,-1110.0;611.0;-1110.0;611.0;118,1
1,-1110.0;611.0;-1110.0;611.0;119,1
1,-1110.0;611.0;-1110.0;611.0;120,1
1,-1110.0;611.0;-1110.0;611.0;121,1
1,-1110.0;611.0;-1110.0;611.0;122,1
1,-1110.0;611.0;-1110.0;611.0;123,1
1,-1110.0;611.0;-1110.0;611.0;124,1
1,-1110.0;611.0;-1110.0;611.0;125,1
1,-1110.0;611.0;-1110.0;611.0;126,1
1,-1110.0;611.0;-1110.0;611.0;127,1
1,-1110.0;611.0;-1110.0;611.0;128,1
1,-1110.0;611.0;-1110.0;611.0;129,1
1,-1110.0;611.0;-1110.0;611.0;130,1
1,-1110.0;611.0;-1110.0;611.0;131,1
1,-1110.0;611.0;-1110.0;611.0;132,1
1,-1110.0;611.0;-1110.0;611.0;133,1
1,-1110.0;611.0;-1110.0;611.0;134,1
1,-1110.0;611.0;-1110.0;611.0;135,1
1,-1110.0;611.0;-1110.0;611.0;136,1
1,-1110.0;611.0;-1110.0;611.0;137,1
1,-1110.0;611.0;-1110.0;611.0;138,1
1,-1110.0;611.0;-1110.0;611.0;139,1
1,-1110.0;611.0;-1110.0;611.0;140,1
1,-1110.0;611.0;-1110.0;611.0;141,1
1,-1110.0;611.0;-1110.0;611.0;142,1
1,-1110.0;611.0;-1110.0;611.0;143,1
1,-1110.0;611.0;-1110.0;611.0;144,1
1,-1110.0;611.0;-1110.0;611.0;145,1
1,-1110.0;611.0;-1110.0;611.0;146,1
1,-1110.0;611.0;-1110.0;611.0;147,1
1,-1110.0;611.0;-1110.0;611.0;148,1
1,-1110.0;611.0;-1110.0;611.0;149,1
1,-1110.0;611.0;-1110.0;611.0;150,1
1,-1110.0;611.0;-1110.0;611.0;151,1
1,-1110.0;611.0;-1110.0;611.0;152,1
1,-1110.0;611.0;-1110.0;611.0;153,1
1,-1110.0;611.0;-1110.0;611.0;154,1
1,-1110.0;611.0;-1110.0;611.0;155,1
1,-1110.0;611.0;-1110.0;611.0;156,1
1,-1110.0;611.0;-1110.0;611.0;157,1
1,-1110.0;611.0;-1110.0;611.0;158,1
1,-1110.0;611.0;-1110.0;611.0;159,1
1,-1110.0;611.0;-1110.0;611.0;160,1
1,-1110.0;611.0;-1110.0;611.0;161,1
1,-1110.0;611.0;-1110.0;611.0;162,1
1,-1110.0;611.0;-1110.0;611.0;163,1
1,-1110.0;611.0;-1110.0;611.0;164,1
1,-1110.0;611.0;-1110.0;611.0;165,1
1,-1110.0;611.0;-1110.0;611.0;166,1
1,-1110.0;611.0;-1110.0;611.0;167,1
1,-1110.0;611.0;-1110.0;611.0;168,1
1,-1110.0;611.0;-1110.0;611.0;169,1
1,-1110.0;611.0;-1110.0;611.0;170,1
1,-1110.0;611.0;-1110.0;611.0;171,1
1,-1110.0;611.0;-1110.0;611.0;172,1
1,-1110.0;611.0;-1110.0;611.0;173,1
1,-1110.0;611.0;-1110.0;611.0;174,1
1,-1110.0;611.0;-1110.0;611.0;175,1
1,-1110.0;611.0;-1110.0;611.0;176,1
1,-1110.0;611.0;-1110.0;611.0;177,1
1,-1110.0;611.0;-1110.0;611.0;178,1
1,-1110.0;611.0;-1110.0;611.0;179,1
1,-1110.0;611.0;-1110.0;611.0;180,1
1,-1110.0;611.0;-1110.0;611.0;181,1
1,-1110.0;611.0;-1110.0;611.0;182,1
1,-1110.0;611.0;-1110.0;611.0;183,1
1,-1110.0;611.0;-1110.0;611.0;184,1
1,-1110.0;611.0;-1110.0;611.0;185,1
1,-1110.0;611.0;-1110.0;611.0;186,1
1,-1110.0;611.0;-1110.0;611.0;187,1
1,-1110.0;611.0;-1110.0;611.0;188,1
1,-1110.0;611.0;-1110.0;611.0;189,1
1,-1110.0;611.0;-1110.0;611.0;190,1
1,-1110.0;611.0;-1110.0;611.0;191,1
1,-1110.0;611.0;-1110.0;611.0;192,1
1,-1110.0;611.0;-1110.0;611.0;193,1
1,-1110.0;611.0;-1110.0;611.0;194,1
1,-1110.0;611.0;-1110.0;611.0;195,1
1,-1110.0;611.0;-1110.0;611.0;196,1
1,-1110.0;611.0;-1110.0;611.0;197,1
1,-1110.0;611.0;-1110.0;611.0;198,1
1,-1110.0;611.0;-1110.0;611.0;199,1
1,-1110.0;611.0;-1110.0;611.0;200,1
1,-1110.0;611.0;-1110.0;611.0;201,1
1,-1110.0;611.0;-1110.0;611.0;202,1
1,-1110.0;611.0;-1110.0;611.0;203,1
1,-1110.0;611.0;-1110.0;611.0;204,1
1,-1110.0;611.0;-1110.0;611.0;205,1
1,-1110.0;611.0;-1110.0;611.0;206,1
1,-1110.0;611.0;-1110.0;611.0;207,1
1,-1110.0;611.0;-1110.0;611.0;208,1
1,-1110.0;611.0;-1110.0;611.0;209,1
1,-1110.0;611.0;-1110.0;611.0;210,1
1,-1110.0;611.0;-1110.0;611.0;211,1
1,-1110.0;611.0;-1110.0;611.0;212,1
1,-1110.0;611.0;-1110.0;611.0;213,1
1,-1110.0;611.0;-1110.0;611.0;214,1
1,-1110.0;611.0;-1110.0;611.0;215,1
1,-1110.0;611.0;-1110.0;611.0;216,1
1,-1110.0;611.0;-1110.0;611.0;217,1
1,-1110.0;611.0;-1110.0;611.0;218,1
1,-1110.0;611.0;-1110.0;611.0;219,1
1,-1110.0;611.0;-1110.0;611.0;220,1
1,-1110.0;611.0;-1110.0;611.0;221,1
1,-1110.0;611.0;-1110.0;611.0;222,1
1,-1110.0;611.0;-1110.0;611.0;223,1
1,-1110.0;611.0;-1110.0;611.0;224,1
1,-1110.0;611.0;-1110.0;611.0;225,1
1,-1110.0;611.0;-1110.0;611.0;226,1
1,-1110.0;611.0;-1110.0;611.0;227,1
1,-1110.0;611.0;-1110.0;611.0;228,1
1,-1110.0;611.0;-1110.0;611.0;229,1
1,-1110.0;611.0;-1110.0;611.0;230,1
1,-1110.0;611.0;-1110.0;611.0;231,1
1,-1110.0;611.0;-1110.0;611.0;232,1
1,-1110.0;611.0;-1110.0;611.0;233,1
1,-1110.0;611.0;-1110.0;611.0;234,1
1,-1110.0;611.0;-1110.0;611.0;235,1
1,-1110.0;611.0;-1110.0;611.0;236,1
1,-1110.0;611.0;-1110.0;611.0;237,1
1,-1110.0;611.0;-1110.0;611.0;238,1
1,-1110.0;611.0;-1110.0;611.0;239,1
1,-1110.0;611.0;-1110.0;611.0;240,1
1,-1110.0;611.0;-1110.0;611.0;241,1
1,-1110.0;611.0;-1110.0;611.0;242,1
1,-1110.0;611.0;-1110.0;611.0;243,0.153846154
2,-1110.0;611.0;-1109.0;611.0;1,1
2,-1110.0;611.0;-1109.0;611.0;2,1
2,-1110.0;611.0;-1109.0;611.0;3,1
2,-1110.0;611.0;-1109.0;611.0;4,1
2,-1110.0;611.0;-1109.0;611.0;5,1
2,-1110.0;611.0;-1109.0;611.0;6,0.84615384615
3,-1110.0;612.0;-1110.0;611.0;1,1
3,-1110.0;612.0;-1110.0;611.0;2,1
3,-1110.0;612.0;-1110.0;611.0;3,1
3,-1110.0;612.0;-1110.0;611.0;4,0.30769230769
4,-1110.0;611.0;-1110.0;610.0;1,1
4,-1110.0;611.0;-1110.0;610.0;2,1
4,-1110.0;611.0;-1110.0;610.0;3,1
4,-1110.0;611.0;-1110.0;610.0;4,1
4,-1110.0;611.0;-1110.0;610.0;5,1
4,-1110.0;611.0;-1110.0;610.0;6,1
4,-1110.0;611.0;-1110.0;610.0;7,1
4,-1110.0;611.0;-1110.0;610.0;8,1
4,-1110.0;611.0;-1110.0;610.0;9,1
4,-1110.0;611.0;-1110.0;610.0;10,1
4,-1110.0;611.0;-1110.0;610.0;11,1
4,-1110.0;611.0;-1110.0;610.0;12,1
4,-1110.0;611.0;-1110.0;610.0;13,1
4,-1110.0;611.0;-1110.0;610.0;14,1
4,-1110.0;611.0;-1110.0;610.0;15,1
4,-1110.0;611.0;-1110.0;610.0;16,1
4,-1110.0;611.0;-1110.0;610.0;17,1
4,-1110.0;611.0;-1110.0;610.0;18,1
4,-1110.0;611.0;-1110.0;610.0;19,1
4,-1110.0;611.0;-1110.0;610.0;20,1
4,-1110.0;611.0;-1110.0;610.0;21,1
4,-1110.0;611.0;-1110.0;610.0;22,1
4,-1110.0;611.0;-1110.0;610.0;23,0.8461538462
5,-1109.0;611.0;-1110.0;610.0;1,0.692307692308
6,-1110.0;611.0;-1110.0;612.0;1,1
6,-1110.0;611.0;-1110.0;612.0;2,1
6,-1110.0;611.0;-1110.0;612.0;3,1
6,-1110.0;611.0;-1110.0;612.0;4,1
6,-1110.0;611.0;-1110.0;612.0;5,1
6,-1110.0;611.0;-1110.0;612.0;6,1
6,-1110.0;611.0;-1110.0;612.0;7,1
6,-1110.0;611.0;-1110.0;612.0;8,0.61538461538
7,-1110.0;612.0;-1110.0;612.0;1,1.0
8,-1110.0;610.0;-1110.0;611.0;1,1
8,-1110.0;610.0;-1110.0;611.0;2,1
8,-1110.0;610.0;-1110.0;611.0;3,1
8,-1110.0;610.0;-1110.0;611.0;4,1
8,-1110.0;610.0;-1110.0;611.0;5,1
8,-1110.0;610.0;-1110.0;611.0;6,1
8,-1110.0;610.0;-1110.0;611.0;7,1
8,-1110.0;610.0;-1110.0;611.0;8,1
8,-1110.0;610.0;-1110.0;611.0;9,1
8,-1110.0;610.0;-1110.0;611.0;10,1
8,-1110.0;610.0;-1110.0;611.0;11,1
8,-1110.0;610.0;-1110.0;611.0;12,1
8,-1110.0;610.0;-1110.0;611.0;13,1
8,-1110.0;610.0;-1110.0;611.0;14,1
8,-1110.0;610.0;-1110.0;611.0;15,1
8,-1110.0;610.0;-1110.0;611.0;16,1
8,-1110.0;610.0;-1110.0;611.0;17,1
8,-1110.0;610.0;-1110.0;611.0;18,1
8,-1110.0;610.0;-1110.0;611.0;19,1
8,-1110.0;610.0;-1110.0;611.0;20,1
8,-1110.0;610.0;-1110.0;611.0;21,1
8,-1110.0;610.0;-1110.0;611.0;22,1
8,-1110.0;610.0;-1110.0;611.0;23,0.3076923077
9,-1110.0;611.0;-1111.0;610.0;1,1
9,-1110.0;611.0;-1111.0;610.0;2,1
9,-1110.0;611.0;-1111.0;610.0;3,1
9,-1110.0;611.0;-1111.0;610.0;4,1
9,-1110.0;611.0;-1111.0;610.0;5,1
9,-1110.0;611.0;-1111.0;610.0;6,1
9,-1110.0;611.0;-1111.0;610.0;7,1
9,-1110.0;611.0;-1111.0;610.0;8,1
9,-1110.0;611.0;-1111.0;610.0;9,1
9,-1110.0;611.0;-1111.0;610.0;10,1
9,-1110.0;611.0;-1111.0;610.0;11,1
9,-1110.0;611.0;-1111.0;610.0;12,1
9,-1110.0;611.0;-1111.0;610.0;13,1
9,-1110.0;611.0;-1111.0;610.0;14,1
9,-1110.0;611.0;-1111.0;610.0;15,0.2307692308
10,-1111.0;610.0;-1110.0;610.0;1,1
10,-1111.0;610.0;-1110.0;610.0;2,1
10,-1111.0;610.0;-1110.0;610.0;3,1
10,-1111.0;610.0;-1110.0;610.0;4,1
10,-1111.0;610.0;-1110.0;610.0;5,1
10,-1111.0;610.0;-1110.0;610.0;6,0.69230769231
11,-1110.0;610.0;-1110.0;610.0;1,1
11,-1110.0;610.0;-1110.0;610.0;2,1
11,-1110.0;610.0;-1110.0;610.0;3,1
11,-1110.0;610.0;-1110.0;610.0;4,1
11,-1110.0;610.0;-1110.0;610.0;5,1
11,-1110.0;610.0;-1110.0;610.0;6,1
11,-1110.0;610.0;-1110.0;610.0;7,1
11,-1110.0;610.0;-1110.0;610.0;8,1
11,-1110.0;610.0;-1110.0;610.0;9,1
11,-1110.0;610.0;-1110.0;610.0;10,1
11,-1110.0;610.0;-1110.0;610.0;11,1
11,-1110.0;610.0;-1110.0;610.0;12,1
11,-1110.0;610.0;-1110.0;610.0;13,1
11,-1110.0;610.0;-1110.0;610.0;14,1
11,-1110.0;610.0;-1110.0;610.0;15,1
11,-1110.0;610.0;-1110.0;610.0;16,1
11,-1110.0;610.0;-1110.0;610.0;17,0.6153846154
12,-1110.0;610.0;-1109.0;612.0;1,0.230769230769
13,-1109.0;612.0;-1110.0;611.0;1,0.153846153846
14,-1111.0;610.0;-1110.0;611.0;1,1
14,-1111.0;610.0;-1110.0;611.0;2,1
14,-1111.0;610.0;-1110.0;611.0;3,1
14,-1111.0;610.0;-1110.0;611.0;4,1
14,-1111.0;610.0;-1110.0;611.0;5,1
14,-1111.0;610.0;-1110.0;611.0;6,1
14,-1111.0;610.0;-1110.0;611.0;7,1
14,-1111.0;610.0;-1110.0;611.0;8,1
14,-1111.0;610.0;-1110.0;611.0;9,1
14,-1111.0;610.0;-1110.0;611.0;10,1
14,-1111.0;610.0;-1110.0;611.0;11,1
14,-1111.0;610.0;-1110.0;611.0;12,1
14,-1111.0;610.0;-1110.0;611.0;13,1
14,-1111.0;610.0;-1110.0;611.0;14,0.8461538462
15,-1111.0;610.0;-1110.0;609.0;1,0.0769230769231
16,-1109.0;611.0;-1108.0;610.0;1,0.0769230769231
17,-1109.0;611.0;-1110.0;611.0;1,1
17,-1109.0;611.0;-1110.0;611.0;2,1
17,-1109.0;611.0;-1110.0;611.0;3,1
17,-1109.0;611.0;-1110.0;611.0;4,0.30769230769
18,-1110.0;612.0;-1111.0;610.0;1,0.230769230769
19,-1110.0;611.0;-1111.0;611.0;1,1
19,-1110.0;611.0;-1111.0;611.0;2,1
19,-1110.0;611.0;-1111.0;611.0;3,1
19,-1110.0;611.0;-1111.0;611.0;4,1
19,-1110.0;611.0;-1111.0;611.0;5,1
19,-1110.0;611.0;-1111.0;611.0;6,1
19,-1110.0;611.0;-1111.0;611.0;7,1
19,-1110.0;611.0;-1111.0;611.0;8,1
19,-1110.0;611.0;-1111.0;611.0;9,1
19,-1110.0;611.0;-1111.0;611.0;10,1
19,-1110.0;611.0;-1111.0;611.0;11,1
19,-1110.0;611.0;-1111.0;611.0;12,1
19,-1110.0;611.0;-1111.0;611.0;13,1
19,-1110.0;611.0;-1111.0;611.0;14,1
19,-1110.0;611.0;-1111.0;611.0;15,1
19,-1110.0;611.0;-1111.0;611.0;16,1
19,-1110.0;611.0;-1111.0;611.0;17,0.5384615385
20,-1110.0;610.0;-1109.0;611.0;1,0.923076923077
21,-1110.0;611.0;-1109.0;612.0;1,0.769230769231
22,-1111.0;610.0;-1111.0;610.0;1,1
22,-1111.0;610.0;-1111.0;610.0;2,1
22,-1111.0;610.0;-1111.0;610.0;3,1
22,-1111.0;610.0;-1111.0;610.0;4,1
22,-1111.0;610.0;-1111.0;610.0;5,1
22,-1111.0;610.0;-1111.0;610.0;6,1
22,-1111.0;610.0;-1111.0;610.0;7,1
22,-1111.0;610.0;-1111.0;610.0;8,0.76923076923
23,-1111.0;610.0;-1110.0;612.0;1,0.461538461538
24,-1109.0;612.0;-1108.0;613.0;1,0.0769230769231
25,-1110.0;612.0;-1109.0;613.0;1,0.0769230769231
26,-1110.0;611.0;-1109.0;613.0;1,0.538461538462
27,-1110.0;611.0;-1107.0;609.0;1,1
27,-1110.0;611.0;-1107.0;609.0;2,0.46153846154
28,-1109.0;611.0;-1109.0;612.0;1,0.0769230769231
29,-1109.0;612.0;-1110.0;612.0;1,0.153846153846
30,-1111.0;611.0;-1110.0;611.0;1,1
30,-1111.0;611.0;-1110.0;611.0;2,1
30,-1111.0;611.0;-1110.0;611.0;3,1
30,-1111.0;611.0;-1110.0;611.0;4,1
30,-1111.0;611.0;-1110.0;611.0;5,1
30,-1111.0;611.0;-1110.0;611.0;6,1
30,-1111.0;611.0;-1110.0;611.0;7,1
30,-1111.0;611.0;-1110.0;611.0;8,1
30,-1111.0;611.0;-1110.0;611.0;9,1
30,-1111.0;611.0;-1110.0;611.0;10,1
30,-1111.0;611.0;-1110.0;611.0;11,1
30,-1111.0;611.0;-1110.0;611.0;12,1
30,-1111.0;611.0;-1110.0;611.0;13,1
30,-1111.0;611.0;-1110.0;611.0;14, 1
31,-1110.0;611.0;-1108.0;612.0;1,0.0769230769231
32,-1111.0;611.0;-1111.0;611.0;1,1
32,-1111.0;611.0;-1111.0;611.0;2, 1
33,-1108.0;611.0;-1109.0;611.0;1,0.230769230769
34,-1109.0;611.0;-1109.0;611.0;1,1
34,-1109.0;611.0;-1109.0;611.0;2,0.53846153846
35,-1108.0;610.0;-1110.0;611.0;1,0.307692307692
36,-1110.0;611.0;-1108.0;611.0;1,1
36,-1110.0;611.0;-1108.0;611.0;2,1
36,-1110.0;611.0;-1108.0;611.0;3,0.84615384615
37,-1110.0;610.0;-1111.0;610.0;1,1
37,-1110.0;610.0;-1111.0;610.0;2,1
37,-1110.0;610.0;-1111.0;610.0;3,1
37,-1110.0;610.0;-1111.0;610.0;4,1
37,-1110.0;610.0;-1111.0;610.0;5,1
37,-1110.0;610.0;-1111.0;610.0;6,1
37,-1110.0;610.0;-1111.0;610.0;7,0.38461538462
38,-1107.0;609.0;-1110.0;610.0;1,0.769230769231
39,-1107.0;609.0;-1109.0;611.0;1,0.615384615385
40,-1110.0;611.0;-1108.0;610.0;1,0.923076923077
41,-1109.0;611.0;-1107.0;610.0;1,0.153846153846
42,-1108.0;611.0;-1110.0;610.0;1,0.384615384615
43,-1113.0;610.0;-1113.0;610.0;1,0.0769230769231
44,-1110.0;610.0;-1111.0;611.0;1,1
44,-1110.0;610.0;-1111.0;611.0;2,1
44,-1110.0;610.0;-1111.0;611.0;3,0.53846153846
45,-1108.0;611.0;-1110.0;611.0;1,1
45,-1108.0;611.0;-1110.0;611.0;2,1
45,-1108.0;611.0;-1110.0;611.0;3,0.61538461538
46,-1107.0;609.0;-1110.0;611.0;1,1
46,-1107.0;609.0;-1110.0;611.0;2,1
46,-1107.0;609.0;-1110.0;611.0;3,0.38461538462
47,-1111.0;610.0;-1111.0;611.0;1,1
47,-1111.0;610.0;-1111.0;611.0;2,1
47,-1111.0;610.0;-1111.0;611.0;3,0.84615384615
48,-1107.0;609.0;-1108.0;610.0;1,0.307692307692
49,-1111.0;611.0;-1110.0;610.0;1,1
49,-1111.0;611.0;-1110.0;610.0;2,1
49,-1111.0;611.0;-1110.0;610.0;3,1
49,-1111.0;611.0;-1110.0;610.0;4,0.30769230769
50,-1107.0;609.0;-1109.0;610.0;1,0.153846153846
51,-1110.0;612.0;-1113.0;610.0;1,0.153846153846
52,-1109.0;612.0;-1109.0;612.0;1,0.230769230769
53,-1111.0;611.0;-1111.0;610.0;1,1
53,-1111.0;611.0;-1111.0;610.0;2,1
53,-1111.0;611.0;-1111.0;610.0;3,1
53,-1111.0;611.0;-1111.0;610.0;4,0.07692307692
54,-1108.0;611.0;-1111.0;611.0;1,0.153846153846
55,-1108.0;610.0;-1108.0;610.0;1,0.230769230769
56,-1107.0;609.0;-1107.0;611.0;1,0.153846153846
57,-1110.0;610.0;-1108.0;611.0;1,0.153846153846
58,-1111.0;610.0;-1107.0;609.0;1,0.461538461538
59,-1108.0;609.0;-1110.0;611.0;1,0.153846153846
60,-1110.0;612.0;-1110.0;610.0;1,0.230769230769
61,-1109.0;611.0;-1111.0;610.0;1,0.384615384615
62,-1110.0;611.0;-1110.0;609.0;1,0.307692307692
63,-1107.0;609.0;-1111.0;610.0;1,0.230769230769
64,-1111.0;610.0;-1109.0;611.0;1,0.384615384615
65,-1107.0;609.0;-1107.0;609.0;1,0.0769230769231
66,-1108.0;611.0;-1107.0;610.0;1,0.0769230769231
67,-1108.0;610.0;-1111.0;611.0;1,0.0769230769231
68,-1107.0;609.0;-1108.0;611.0;1,0.307692307692
69,-1108.0;611.0;-1110.0;612.0;1,0.0769230769231
70,-1110.0;610.0;-1110.0;609.0;1,0.615384615385
71,-1110.0;610.0;-1110.0;608.0;1,0.0769230769231
72,-1110.0;610.0;-1109.0;610.0;1,0.769230769231
73,-1111.0;611.0;-1109.0;611.0;1,0.384615384615
74,-1107.0;609.0;-1107.0;610.0;1,0.0769230769231
75,-1110.0;609.0;-1110.0;609.0;1,0.0769230769231
76,-1110.0;611.0;-1109.0;610.0;1,0.153846153846
77,-1108.0;611.0;-1109.0;612.0;1,0.0769230769231
78,-1110.0;611.0;-1113.0;610.0;1,0.307692307692
79,-1111.0;610.0;-1108.0;610.0;1,0.0769230769231
80,-1107.0;609.0;-1110.0;608.0;1,0.0769230769231
81,-1107.0;609.0;-1110.0;609.0;1,0.153846153846
82,-1111.0;610.0;-1111.0;609.0;1,0.0769230769231
83,-1110.0;611.0;-1107.0;611.0;1,0.230769230769
84,-1109.0;611.0;-1109.0;610.0;1,0.230769230769
85,-1109.0;610.0;-1110.0;610.0;1,0.0769230769231
86,-1110.0;610.0;-1102.0;611.0;1,0.0769230769231
87,-1109.0;611.0;-1107.0;611.0;1,0.0769230769231
88,-1110.0;610.0;-1107.0;609.0;1,0.230769230769
89,-1108.0;610.0;-1108.0;609.0;1,0.0769230769231
90,-1108.0;609.0;-1111.0;610.0;1,0.0769230769231
91,-1110.0;610.0;-1110.0;612.0;1,0.538461538462
92,-1110.0;611.0;-1106.0;611.0;1,0.0769230769231
93,-1110.0;611.0;-1108.0;613.0;1,0.0769230769231
94,-1111.0;611.0;-1110.0;609.0;1,0.153846153846
95,-1111.0;611.0;-1110.0;612.0;1,0.538461538462
96,-1110.0;609.0;-1109.0;611.0;1,0.0769230769231
97,-1111.0;610.0;-1108.0;611.0;1,0.461538461538
98,-1111.0;611.0;-1107.0;609.0;1,0.153846153846
99,-1109.0;611.0;-1108.0;609.0;1,0.0769230769231
100,-1110.0;612.0;-1109.0;611.0;1,0.230769230769
101,-1108.0;611.0;-1111.0;610.0;1,0.384615384615
102,-1111.0;611.0;-1108.0;610.0;1,0.153846153846
103,-1107.0;609.0;-1109.0;612.0;1,0.153846153846
104,-1108.0;611.0;-1110.0;609.0;1,0.0769230769231
105,-1111.0;610.0;-1113.0;610.0;1,0.0769230769231
106,-1108.0;611.0;-1108.0;611.0;1,0.230769230769
107,-1110.0;612.0;-1111.0;611.0;1,0.230769230769
108,-1109.0;611.0;-1110.0;609.0;1,0.230769230769
109,-1112.0;611.0;-1112.0;611.0;1,0.384615384615
110,-1107.0;609.0;-1106.0;609.0;1,0.230769230769
111,-1110.0;611.0;-1111.0;609.0;1,0.307692307692
112,-1111.0;611.0;-1111.0;609.0;1,0.153846153846
113,-1109.0;610.0;-1110.0;608.0;1,0.0769230769231
114,-1110.0;612.0;-1109.0;612.0;1,0.307692307692
115,-1108.0;611.0;-1108.0;610.0;1,0.0769230769231
116,-1107.0;609.0;-1109.0;609.0;1,0.0769230769231
117,-1111.0;611.0;-1107.0;610.0;1,0.153846153846
118,-1108.0;610.0;-1107.0;610.0;1,0.0769230769231
119,-1110.0;609.0;-1110.0;610.0;1,0.0769230769231
120,-1111.0;610.0;-1109.0;613.0;1,0.153846153846
121,-1107.0;609.0;-1111.0;611.0;1,0.0769230769231
122,-1108.0;611.0;-1107.0;609.0;1,0.0769230769231
123,-1110.0;611.0;-1106.0;614.0;1,0.0769230769231
124,-1107.0;609.0;-1110.0;612.0;1,0.153846153846
125,-1111.0;610.0;-1113.0;608.0;1,0.0769230769231
126,-1110.0;610.0;-1111.0;609.0;1,0.307692307692
127,-1110.0;610.0;-1108.0;609.0;1,0.0769230769231
128,-1107.0;609.0;-1105.0;611.0;1,0.0769230769231
129,-1107.0;609.0;-1108.0;609.0;1,0.0769230769231
130,-1110.0;612.0;-1108.0;610.0;1,0.0769230769231
131,-1109.0;613.0;-1109.0;612.0;1,0.153846153846
132,-1109.0;612.0;-1107.0;609.0;1,0.153846153846
133,-1111.0;611.0;-1108.0;609.0;1,0.153846153846
134,-1111.0;610.0;-1110.0;608.0;1,0.230769230769
135,-1110.0;611.0;-1109.0;609.0;1,0.153846153846
136,-1108.0;611.0;-1106.0;611.0;1,0.153846153846
137,-1110.0;612.0;-1107.0;609.0;1,0.153846153846
138,-1107.0;609.0;-1106.0;610.0;1,0.153846153846
139,-1109.0;611.0;-1107.0;609.0;1,0.153846153846
140,-1111.0;611.0;-1113.0;610.0;1,0.153846153846
141,-1109.0;613.0;-1110.0;611.0;1,0.153846153846
142,-1109.0;611.0;-1110.0;612.0;1,0.153846153846
143,-1110.0;611.0;-1108.0;609.0;1,0.0769230769231
144,-1107.0;609.0;-1109.0;613.0;1,0.0769230769231
145,-1110.0;611.0;-1114.0;613.0;1,0.0769230769231
146,-1111.0;609.0;-1109.0;610.0;1,0.0769230769231
147,-1109.0;611.0;-1110.0;608.0;1,0.0769230769231
148,-1109.0;611.0;-1111.0;611.0;1,0.230769230769
149,-1107.0;609.0;-1108.0;613.0;1,0.0769230769231
150,-1108.0;611.0;-1109.0;610.0;1,0.0769230769231
151,-1111.0;611.0;-1109.0;612.0;1,0.153846153846
152,-1111.0;610.0;-1106.0;610.0;1,0.0769230769231
153,-1111.0;611.0;-1109.0;610.0;1,0.0769230769231
154,-1109.0;610.0;-1109.0;611.0;1,0.0769230769231
155,-1110.0;610.0;-1108.0;612.0;1,0.0769230769231
156,-1110.0;611.0;-1112.0;610.0;1,0.153846153846
157,-1109.0;611.0;-1108.0;611.0;1,0.230769230769
158,-1111.0;611.0;-1108.0;611.0;1,0.230769230769
159,-1109.0;612.0;-1108.0;612.0;1,0.0769230769231
160,-1110.0;610.0;-1107.0;611.0;1,0.0769230769231
161,-1108.0;610.0;-1108.0;611.0;1,0.230769230769
162,-1110.0;611.0;-1110.0;608.0;1,0.0769230769231
163,-1110.0;610.0;-1108.0;610.0;1,0.153846153846
164,-1107.0;609.0;-1111.0;609.0;1,0.230769230769
165,-1110.0;612.0;-1108.0;613.0;1,0.153846153846
166,-1107.0;610.0;-1108.0;611.0;1,0.153846153846
167,-1110.0;612.0;-1108.0;611.0;1,0.0769230769231
168,-1111.0;610.0;-1107.0;611.0;1,0.153846153846
169,-1108.0;610.0;-1107.0;609.0;1,0.153846153846
170,-1110.0;611.0;-1107.0;613.0;1,0.153846153846
