B3F5EED48959DD8A2BE31E218A170C5D,D90CB340C3357F8A4D216B23C1F104E1,VTS,1,,2013-01-23 00:02:00,2013-01-23 00:11:00,1,540,1.99,-73.988548,40.721432,-74.004295,40.737549
B3F5EED48959DD8A2BE31E218A170C5D,D90CB340C3357F8A4D216B23C1F104E1,VTS,1,,2013-01-23 00:13:00,2013-01-23 00:19:00,1,360,.72,-74.002151,40.737698,-73.998405,40.740273
B3F5EED48959DD8A2BE31E218A170C5D,D90CB340C3357F8A4D216B23C1F104E1,VTS,1,,2013-01-23 00:27:00,2013-01-23 00:42:00,2,900,3.41,-74.006821,40.744068,-74.009727,40.705109
86FB2580B0BB1765619DC30C17071155,9CE27314187FEB6ED94B02126F2C8122,CMT,1,N,2013-01-23 00:30:28,2013-01-23 00:35:03,2,274,1.10,-73.98658,40.768291,-73.980713,40.782333
BEFAAC1B4501C29C0B7A7B358B3564DD,20A76FBF85436E6218C8E1D6FAA8BBAA,VTS,1,,2013-01-23 00:36:00,2013-01-23 01:07:00,1,1860,10.00,-74.011551,40.708012,-73.909653,40.778759
6FC04F89BE153CF9F982ECCB52431760,0BDE24681A08B6B72748AA1BC8A10BE7,CMT,5,N,2013-01-23 00:44:55,2013-01-23 00:57:40,2,764,.00,-73.982925,40.757549,-74.032837,40.74691
C49E9852F88C785A94E8E57705C90B5C,F1594D359481D3069D9D806D2D501682,CMT,1,N,2013-01-23 00:48:36,2013-01-23 01:02:22,1,826,4.50,-74.008537,40.732754,-73.960075,40.761944
B3F5EED48959DD8A2BE31E218A170C5D,D90CB340C3357F8A4D216B23C1F104E1,VTS,1,,2013-01-23 00:55:00,2013-01-23 01:08:00,1,780,4.09,-74.016121,40.71497,-73.9851,40.757172
6FC04F89BE153CF9F982ECCB52431760,0BDE24681A08B6B72748AA1BC8A10BE7,CMT,1,N,2013-01-23 01:31:45,2013-01-23 01:52:11,2,1226,6.30,-74.00634,40.733353,-73.962334,40.65731
B3F5EED48959DD8A2BE31E218A170C5D,D90CB340C3357F8A4D216B23C1F104E1,VTS,1,,2013-01-23 01:50:00,2013-01-23 01:59:00,1,540,2.55,-74.006599,40.744228,-73.974106,40.753967
6FC04F89BE153CF9F982ECCB52431760,0BDE24681A08B6B72748AA1BC8A10BE7,CMT,5,N,2013-01-23 01:57:22,2013-01-23 01:57:42,1,19,.00,-73.962387,40.657356,-73.962379,40.657368
B3F5EED48959DD8A2BE31E218A170C5D,D90CB340C3357F8A4D216B23C1F104E1,VTS,1,,2013-01-23 02:02:00,2013-01-23 02:08:00,1,360,1.22,-73.9757,40.755402,-73.972672,40.743484
4CF38C0C5DE00C68B5AFFF44857FE359,73C839CE30F75638FE591C7F07C4C468,CMT,1,N,2013-01-23 04:39:37,2013-01-23 04:50:08,1,631,3.50,-73.970482,40.764286,-73.921692,40.76112
0DA4DCB0E5C0987E4F27F4DFF345AABB,A3BDDA114A27319BA9BE2BFEAF348E8B,CMT,1,N,2013-01-23 04:49:06,2013-01-23 05:02:18,2,792,7.70,-73.950272,40.775692,-73.870377,40.773663
4CF38C0C5DE00C68B5AFFF44857FE359,73C839CE30F75638FE591C7F07C4C468,CMT,1,N,2013-01-23 04:57:26,2013-01-23 05:00:04,1,158,.80,-73.935661,40.761158,-73.939835,40.75148
3246AA03B718062309B61CEFEDA6C60A,79F8BC483D5BD960CCF3169E6A42793C,VTS,1,,2013-01-23 04:58:00,2013-01-23 05:15:00,1,1020,9.52,-73.983391,40.729996,-73.885246,40.770782
4CF38C0C5DE00C68B5AFFF44857FE359,73C839CE30F75638FE591C7F07C4C468,CMT,1,N,2013-01-23 05:13:49,2013-01-23 05:22:50,1,540,6.90,-73.987587,40.765469,-73.939438,40.84864
0DA4DCB0E5C0987E4F27F4DFF345AABB,A3BDDA114A27319BA9BE2BFEAF348E8B,CMT,1,N,2013-01-23 05:16:20,2013-01-23 05:23:29,1,428,1.60,-73.98642,40.718178,-74.009247,40.712749
0DA4DCB0E5C0987E4F27F4DFF345AABB,A3BDDA114A27319BA9BE2BFEAF348E8B,CMT,1,N,2013-01-23 05:28:55,2013-01-23 05:48:32,1,1176,11.60,-73.997475,40.736504,-73.861397,40.768208
3246AA03B718062309B61CEFEDA6C60A,79F8BC483D5BD960CCF3169E6A42793C,VTS,1,,2013-01-23 05:30:00,2013-01-23 05:35:00,1,300,1.03,-73.986534,40.722534,-73.99395,40.732201
4CF38C0C5DE00C68B5AFFF44857FE359,73C839CE30F75638FE591C7F07C4C468,CMT,1,N,2013-01-23 05:35:18,2013-01-23 05:42:17,1,418,1.80,-73.971512,40.797653,-73.982109,40.773922
64AA3412C7E29AA863D269B2A345A039,DD6A3C01E68EA266E1F553B236BBBB1C,CMT,1,N,2013-01-23 05:48:30,2013-01-23 05:53:28,1,297,1.50,-73.995003,40.744629,-73.980843,40.758167
4CF38C0C5DE00C68B5AFFF44857FE359,73C839CE30F75638FE591C7F07C4C468,CMT,1,N,2013-01-23 05:53:38,2013-01-23 06:05:42,1,723,3.60,-73.989075,40.777882,-73.941658,40.784531
64AA3412C7E29AA863D269B2A345A039,DD6A3C01E68EA266E1F553B236BBBB1C,CMT,1,N,2013-01-23 06:00:59,2013-01-23 06:04:05,1,185,.80,-73.992371,40.749821,-73.986107,40.742363
83D30B1DDEB63761051E96590CE912D9,B7856DD328B940C70DDB6E5BF8988372,CMT,1,N,2013-01-23 06:01:17,2013-01-23 06:16:07,1,889,5.30,-73.907333,40.741985,-73.960732,40.778042
3246AA03B718062309B61CEFEDA6C60A,79F8BC483D5BD960CCF3169E6A42793C,VTS,1,,2013-01-23 06:03:00,2013-01-23 06:05:00,1,120,.70,-73.985252,40.759907,-73.9907,40.754147
4CF38C0C5DE00C68B5AFFF44857FE359,73C839CE30F75638FE591C7F07C4C468,CMT,2,N,2013-01-23 06:06:10,2013-01-23 06:25:54,1,1184,17.50,-73.938026,40.787811,-73.783264,40.646351
0DA4DCB0E5C0987E4F27F4DFF345AABB,A3BDDA114A27319BA9BE2BFEAF348E8B,CMT,1,N,2013-01-23 06:09:24,2013-01-23 06:21:14,1,710,3.00,-73.979622,40.733273,-73.985687,40.762177
3246AA03B718062309B61CEFEDA6C60A,79F8BC483D5BD960CCF3169E6A42793C,VTS,1,,2013-01-23 06:16:00,2013-01-23 06:29:00,1,780,4.93,-74.004211,40.738113,-73.967224,40.798264
64AA3412C7E29AA863D269B2A345A039,DD6A3C01E68EA266E1F553B236BBBB1C,CMT,1,N,2013-01-23 06:17:03,2013-01-23 06:24:20,1,436,2.00,-74.005356,40.736885,-73.983269,40.752979
83D30B1DDEB63761051E96590CE912D9,B7856DD328B940C70DDB6E5BF8988372,CMT,1,N,2013-01-23 06:20:20,2013-01-23 06:25:22,1,302,1.10,-73.951012,40.782562,-73.949074,40.770958
C569C8910159E5BD1DDF4861EE8D7FF2,B90ED0E0447B0981F2E3C49D370C514C,CMT,1,N,2013-01-23 06:22:57,2013-01-23 06:25:28,1,150,1.10,-74.004929,40.737362,-73.99382,40.747684
0DA4DCB0E5C0987E4F27F4DFF345AABB,A3BDDA114A27319BA9BE2BFEAF348E8B,CMT,1,N,2013-01-23 06:24:52,2013-01-23 06:34:44,1,592,2.20,-73.992744,40.75827,-73.979202,40.737076
64AA3412C7E29AA863D269B2A345A039,DD6A3C01E68EA266E1F553B236BBBB1C,CMT,1,N,2013-01-23 06:25:00,2013-01-23 06:34:37,1,576,2.40,-73.982628,40.752682,-73.982002,40.775242
83D30B1DDEB63761051E96590CE912D9,B7856DD328B940C70DDB6E5BF8988372,CMT,1,N,2013-01-23 06:28:23,2013-01-23 06:36:44,1,500,2.30,-73.946907,40.771713,-73.975586,40.757877
C569C8910159E5BD1DDF4861EE8D7FF2,B90ED0E0447B0981F2E3C49D370C514C,CMT,1,N,2013-01-23 06:29:36,2013-01-23 06:32:49,1,193,1.00,-73.988571,40.748409,-73.976624,40.753391
3246AA03B718062309B61CEFEDA6C60A,79F8BC483D5BD960CCF3169E6A42793C,VTS,1,,2013-01-23 06:34:00,2013-01-23 06:41:00,1,420,1.44,-73.981544,40.773621,-73.980629,40.760571
64AA3412C7E29AA863D269B2A345A039,DD6A3C01E68EA266E1F553B236BBBB1C,CMT,1,N,2013-01-23 06:35:34,2013-01-23 06:46:09,1,634,5.70,-73.982002,40.775242,-73.94281,40.840645
0DA4DCB0E5C0987E4F27F4DFF345AABB,A3BDDA114A27319BA9BE2BFEAF348E8B,CMT,1,N,2013-01-23 06:38:56,2013-01-23 06:47:07,1,490,3.00,-73.977882,40.729424,-73.956909,40.764851
90444DF112C5770C8C82DE2A7930C69B,4455B28ACC85731A184353FA7C75FA86,CMT,1,Y,2013-01-23 06:43:14,2013-01-23 06:47:25,1,251,1.10,-74.006416,40.714199,-74.013687,40.702335
83D30B1DDEB63761051E96590CE912D9,B7856DD328B940C70DDB6E5BF8988372,CMT,1,N,2013-01-23 06:43:32,2013-01-23 06:51:34,1,482,2.20,-73.989624,40.739086,-73.969971,40.762527
3246AA03B718062309B61CEFEDA6C60A,79F8BC483D5BD960CCF3169E6A42793C,VTS,1,,2013-01-23 06:46:00,2013-01-23 06:49:00,1,180,.62,-73.98761,40.759602,-73.980484,40.760296
C569C8910159E5BD1DDF4861EE8D7FF2,B90ED0E0447B0981F2E3C49D370C514C,CMT,1,N,2013-01-23 06:46:23,2013-01-23 06:53:40,1,436,1.50,-73.972069,40.745785,-73.972702,40.761532
3246AA03B718062309B61CEFEDA6C60A,79F8BC483D5BD960CCF3169E6A42793C,VTS,1,,2013-01-23 06:50:00,2013-01-23 06:59:00,1,540,.77,-73.980743,40.760445,-73.987053,40.754585
CD98CA13911488D180A72A1039A44B85,CF72DC38A57DE4A517B4FE23C0B2462A,VTS,1,,2013-01-23 06:50:00,2013-01-23 06:59:00,2,540,1.52,-73.940094,40.809479,-73.956291,40.818253
64AA3412C7E29AA863D269B2A345A039,DD6A3C01E68EA266E1F553B236BBBB1C,CMT,1,N,2013-01-23 06:53:51,2013-01-23 07:19:05,1,1514,9.10,-73.948647,40.829227,-74.013596,40.713821
FE546F9EEE639C4A85F489A99D125B89,4C21B8D3AFE2DB018412199EFE80DFAB,CMT,1,N,2013-01-23 06:54:58,2013-01-23 07:05:50,1,651,4.60,-73.971329,40.750938,-74.004745,40.707146
C569C8910159E5BD1DDF4861EE8D7FF2,B90ED0E0447B0981F2E3C49D370C514C,CMT,1,N,2013-01-23 06:55:28,2013-01-23 06:59:07,1,219,.70,-73.969009,40.760971,-73.977776,40.757259
83D30B1DDEB63761051E96590CE912D9,B7856DD328B940C70DDB6E5BF8988372,CMT,1,N,2013-01-23 06:57:30,2013-01-23 07:05:03,1,452,1.30,-73.96167,40.768448,-73.975304,40.760685
589A1D907871256955793D7BF5A5FF72,1766DF6DEE8AF002FEAC38177AE4CD49,CMT,1,N,2013-01-23 07:00:52,2013-01-23 07:06:25,1,333,1.10,-73.976913,40.779938,-73.989456,40.772942
3246AA03B718062309B61CEFEDA6C60A,79F8BC483D5BD960CCF3169E6A42793C,VTS,1,,2013-01-23 07:02:00,2013-01-23 07:12:00,1,600,2.03,-73.993919,40.754101,-73.990036,40.774853
0DA4DCB0E5C0987E4F27F4DFF345AABB,A3BDDA114A27319BA9BE2BFEAF348E8B,CMT,1,Y,2013-01-23 07:05:33,2013-01-23 07:10:15,1,281,1.20,-73.950966,40.777885,-73.952057,40.766579
CD98CA13911488D180A72A1039A44B85,CF72DC38A57DE4A517B4FE23C0B2462A,VTS,1,,2013-01-23 07:08:00,2013-01-23 07:20:00,1,720,2.45,-73.974945,40.792843,-73.981133,40.762264
90444DF112C5770C8C82DE2A7930C69B,4455B28ACC85731A184353FA7C75FA86,CMT,1,N,2013-01-23 07:08:15,2013-01-23 07:18:18,1,602,2.50,-73.987328,40.733273,-74.007851,40.706242
31D5AAB6D05087D01621FCB2586F367C,C88C91AB920728433259DA21DF5815DB,CMT,1,N,2013-01-23 07:11:53,2013-01-23 07:22:20,1,627,2.80,-73.988876,40.741257,-73.961479,40.773571
C569C8910159E5BD1DDF4861EE8D7FF2,B90ED0E0447B0981F2E3C49D370C514C,CMT,1,N,2013-01-23 07:11:55,2013-01-23 07:17:27,1,332,1.00,-73.989632,40.757366,-73.974907,40.756134
589A1D907871256955793D7BF5A5FF72,1766DF6DEE8AF002FEAC38177AE4CD49,CMT,1,N,2013-01-23 07:12:10,2013-01-23 07:22:35,1,624,2.20,-73.975647,40.782066,-73.962753,40.766903
83D30B1DDEB63761051E96590CE912D9,B7856DD328B940C70DDB6E5BF8988372,CMT,1,N,2013-01-23 07:12:26,2013-01-23 07:21:17,1,531,1.30,-73.972237,40.746544,-73.98185,40.757629
0DA4DCB0E5C0987E4F27F4DFF345AABB,A3BDDA114A27319BA9BE2BFEAF348E8B,CMT,1,N,2013-01-23 07:15:46,2013-01-23 07:31:01,1,915,2.90,-73.94873,40.777668,-73.982384,40.763206
3246AA03B718062309B61CEFEDA6C60A,79F8BC483D5BD960CCF3169E6A42793C,VTS,1,,2013-01-23 07:16:00,2013-01-23 07:21:00,1,300,1.62,-73.988441,40.764248,-73.994942,40.746361
F6B0E6F93A25D74EB79D804A085C8832,96549A049045E238E54F2B88836C4DF5,CMT,1,N,2013-01-23 07:17:50,2013-01-23 07:21:31,1,221,.80,-73.920273,40.746868,-73.927536,40.752583
FE546F9EEE639C4A85F489A99D125B89,4C21B8D3AFE2DB018412199EFE80DFAB,CMT,1,N,2013-01-23 07:18:25,2013-01-23 07:25:15,1,409,1.00,-73.998032,40.729248,-73.982697,40.723309
64AA3412C7E29AA863D269B2A345A039,DD6A3C01E68EA266E1F553B236BBBB1C,CMT,1,N,2013-01-23 07:21:14,2013-01-23 07:25:59,1,285,.90,-74.015404,40.715103,-74.004791,40.716167
3246AA03B718062309B61CEFEDA6C60A,79F8BC483D5BD960CCF3169E6A42793C,VTS,1,,2013-01-23 07:22:00,2013-01-23 07:29:00,1,420,1.76,-73.988441,40.764248,-73.978607,40.759411
2F7430A075A7A4F9D4DA93F3BF4C49E0,C617C18C8270F35E970788CFA4B976B0,VTS,1,,2013-01-23 07:23:00,2013-01-23 07:48:00,1,1500,7.01,-73.947784,40.724808,-73.973869,40.762772
589A1D907871256955793D7BF5A5FF72,1766DF6DEE8AF002FEAC38177AE4CD49,CMT,1,N,2013-01-23 07:25:37,2013-01-23 07:36:25,1,647,2.30,-73.95694,40.77565,-73.983093,40.760155
31D5AAB6D05087D01621FCB2586F367C,C88C91AB920728433259DA21DF5815DB,CMT,1,N,2013-01-23 07:26:34,2013-01-23 07:35:33,1,538,1.70,-73.959381,40.774387,-73.970215,40.789925
64AA3412C7E29AA863D269B2A345A039,DD6A3C01E68EA266E1F553B236BBBB1C,CMT,1,N,2013-01-23 07:27:31,2013-01-23 07:55:17,1,1665,10.50,-74.004021,40.714882,-73.940079,40.840961
739540B8D61BB50FBAF51509EECEEA75,292D3E892682FC711CBC1024A944D474,CMT,1,N,2013-01-23 07:27:33,2013-01-23 07:43:38,1,964,3.60,-74.000412,40.717564,-73.972534,40.761944
FE546F9EEE639C4A85F489A99D125B89,4C21B8D3AFE2DB018412199EFE80DFAB,CMT,1,N,2013-01-23 07:27:46,2013-01-23 07:32:18,1,272,.70,-73.981186,40.727455,-73.990875,40.729408
F6B0E6F93A25D74EB79D804A085C8832,96549A049045E238E54F2B88836C4DF5,CMT,1,N,2013-01-23 07:27:54,2013-01-23 07:42:42,1,887,4.00,-73.924759,40.761765,-73.955055,40.764984
90444DF112C5770C8C82DE2A7930C69B,4455B28ACC85731A184353FA7C75FA86,CMT,1,N,2013-01-23 07:28:06,2013-01-23 07:31:48,1,221,.70,-74.001366,40.725327,-73.993958,40.732723
FE546F9EEE639C4A85F489A99D125B89,4C21B8D3AFE2DB018412199EFE80DFAB,CMT,1,N,2013-01-23 07:33:15,2013-01-23 07:42:58,1,582,2.20,-73.990837,40.730686,-73.985039,40.756245
0DA4DCB0E5C0987E4F27F4DFF345AABB,A3BDDA114A27319BA9BE2BFEAF348E8B,CMT,1,N,2013-01-23 07:33:27,2013-01-23 07:41:07,2,460,1.10,-73.983109,40.766014,-73.974991,40.755863
3246AA03B718062309B61CEFEDA6C60A,79F8BC483D5BD960CCF3169E6A42793C,VTS,1,,2013-01-23 07:35:00,2013-01-23 07:47:00,1,720,3.44,-73.986481,40.750183,-74.009804,40.711235
CD98CA13911488D180A72A1039A44B85,CF72DC38A57DE4A517B4FE23C0B2462A,VTS,1,,2013-01-23 07:36:00,2013-01-23 08:04:00,2,1680,9.18,-73.97242,40.755905,-73.942413,40.841743
90444DF112C5770C8C82DE2A7930C69B,4455B28ACC85731A184353FA7C75FA86,CMT,1,N,2013-01-23 07:36:22,2013-01-23 07:51:32,1,910,2.50,-73.988258,40.730442,-74.010201,40.721214
83D30B1DDEB63761051E96590CE912D9,B7856DD328B940C70DDB6E5BF8988372,CMT,1,N,2013-01-23 07:40:49,2013-01-23 07:52:22,1,692,1.80,-73.946655,40.776714,-73.964752,40.771538
C569C8910159E5BD1DDF4861EE8D7FF2,B90ED0E0447B0981F2E3C49D370C514C,CMT,1,N,2013-01-23 07:41:18,2013-01-23 07:54:24,1,785,2.60,-73.981232,40.741524,-73.956741,40.771156
31D5AAB6D05087D01621FCB2586F367C,C88C91AB920728433259DA21DF5815DB,CMT,1,N,2013-01-23 07:41:50,2013-01-23 08:06:32,1,1481,6.40,-73.972122,40.786682,-74.009499,40.71328
589A1D907871256955793D7BF5A5FF72,1766DF6DEE8AF002FEAC38177AE4CD49,CMT,1,N,2013-01-23 07:43:31,2013-01-23 07:56:24,1,772,3.80,-73.991516,40.765182,-73.954788,40.805908
FE546F9EEE639C4A85F489A99D125B89,4C21B8D3AFE2DB018412199EFE80DFAB,CMT,1,N,2013-01-23 07:46:21,2013-01-23 07:52:41,1,379,.90,-73.992859,40.751884,-73.982079,40.75732
F6B0E6F93A25D74EB79D804A085C8832,96549A049045E238E54F2B88836C4DF5,CMT,1,N,2013-01-23 07:47:32,2013-01-23 07:53:26,1,354,.60,-73.954079,40.770584,-73.946014,40.773327
3246AA03B718062309B61CEFEDA6C60A,79F8BC483D5BD960CCF3169E6A42793C,VTS,1,,2013-01-23 07:51:00,2013-01-23 07:58:00,1,420,2.00,-74.009727,40.712696,-73.986717,40.701561
0DA4DCB0E5C0987E4F27F4DFF345AABB,A3BDDA114A27319BA9BE2BFEAF348E8B,CMT,1,N,2013-01-23 07:51:45,2013-01-23 07:57:16,1,330,.80,-73.962685,40.758202,-73.971153,40.76022
739540B8D61BB50FBAF51509EECEEA75,292D3E892682FC711CBC1024A944D474,CMT,1,N,2013-01-23 07:51:59,2013-01-23 08:09:00,1,1020,3.40,-73.958656,40.781235,-73.990288,40.740662
2F7430A075A7A4F9D4DA93F3BF4C49E0,C617C18C8270F35E970788CFA4B976B0,VTS,1,,2013-01-23 07:52:00,2013-01-23 08:00:00,1,480,1.34,-73.980537,40.765717,-73.990662,40.771343
90444DF112C5770C8C82DE2A7930C69B,4455B28ACC85731A184353FA7C75FA86,CMT,1,Y,2013-01-23 07:52:13,2013-01-23 07:56:08,1,234,.70,-74.009857,40.721195,-74.014069,40.713783
83D30B1DDEB63761051E96590CE912D9,B7856DD328B940C70DDB6E5BF8988372,CMT,1,N,2013-01-23 07:55:25,2013-01-23 08:08:47,1,802,2.30,-73.96357,40.775238,-73.988556,40.758572
C569C8910159E5BD1DDF4861EE8D7FF2,B90ED0E0447B0981F2E3C49D370C514C,CMT,1,N,2013-01-23 07:56:04,2013-01-23 08:08:14,1,729,2.10,-73.956818,40.770782,-73.979576,40.755215
FE546F9EEE639C4A85F489A99D125B89,4C21B8D3AFE2DB018412199EFE80DFAB,CMT,1,N,2013-01-23 07:58:16,2013-01-23 08:11:07,1,771,2.00,-73.991348,40.751286,-73.980927,40.750172
589A1D907871256955793D7BF5A5FF72,1766DF6DEE8AF002FEAC38177AE4CD49,CMT,1,N,2013-01-23 08:02:06,2013-01-23 08:10:44,1,517,1.50,-73.962997,40.794106,-73.980392,40.785549
90444DF112C5770C8C82DE2A7930C69B,4455B28ACC85731A184353FA7C75FA86,CMT,1,N,2013-01-23 08:06:26,2013-01-23 08:12:18,2,351,1.00,-74.005409,40.718147,-74.011604,40.707951
2F7430A075A7A4F9D4DA93F3BF4C49E0,C617C18C8270F35E970788CFA4B976B0,VTS,1,,2013-01-23 08:07:00,2013-01-23 08:15:00,1,480,2.74,-73.980537,40.765717,-73.965393,40.805847
F6B0E6F93A25D74EB79D804A085C8832,96549A049045E238E54F2B88836C4DF5,CMT,1,N,2013-01-23 08:07:14,2013-01-23 08:14:36,1,441,1.10,-73.962395,40.778851,-73.969978,40.765419
31D5AAB6D05087D01621FCB2586F367C,C88C91AB920728433259DA21DF5815DB,CMT,1,N,2013-01-23 08:07:58,2013-01-23 08:12:33,1,274,.50,-74.00914,40.713482,-74.009872,40.720291
83D30B1DDEB63761051E96590CE912D9,B7856DD328B940C70DDB6E5BF8988372,CMT,1,N,2013-01-23 08:09:25,2013-01-23 08:22:14,1,768,1.60,-73.989204,40.758175,-73.96814,40.761036
C569C8910159E5BD1DDF4861EE8D7FF2,B90ED0E0447B0981F2E3C49D370C514C,CMT,1,N,2013-01-23 08:09:53,2013-01-23 08:13:39,1,226,1.30,-73.98037,40.754078,-73.991974,40.738018
64AA3412C7E29AA863D269B2A345A039,DD6A3C01E68EA266E1F553B236BBBB1C,CMT,1,N,2013-01-23 08:10:58,2013-01-23 08:23:11,1,733,2.10,-73.969246,40.800507,-73.979683,40.774158
3246AA03B718062309B61CEFEDA6C60A,79F8BC483D5BD960CCF3169E6A42793C,VTS,1,,2013-01-23 08:11:00,2013-01-23 08:28:00,1,1020,2.50,-73.984001,40.729633,-74.00721,40.751495
589A1D907871256955793D7BF5A5FF72,1766DF6DEE8AF002FEAC38177AE4CD49,CMT,1,N,2013-01-23 08:11:20,2013-01-23 08:26:41,1,920,3.10,-73.980347,40.785542,-73.974861,40.753647
FE546F9EEE639C4A85F489A99D125B89,4C21B8D3AFE2DB018412199EFE80DFAB,CMT,1,N,2013-01-23 08:12:03,2013-01-23 08:23:54,1,710,1.90,-73.980583,40.748409,-74.005226,40.749924
739540B8D61BB50FBAF51509EECEEA75,292D3E892682FC711CBC1024A944D474,CMT,1,N,2013-01-23 08:12:19,2013-01-23 08:21:46,1,566,1.70,-73.995354,40.739361,-73.982323,40.759968
CD98CA13911488D180A72A1039A44B85,CF72DC38A57DE4A517B4FE23C0B2462A,VTS,1,,2013-01-23 08:14:00,2013-01-23 08:20:00,1,360,.89,-73.953644,40.822155,-73.960861,40.812294
0DA4DCB0E5C0987E4F27F4DFF345AABB,A3BDDA114A27319BA9BE2BFEAF348E8B,CMT,1,N,2013-01-23 08:16:08,2013-01-23 08:21:08,1,300,.80,-73.951462,40.774181,-73.955551,40.764534
31D5AAB6D05087D01621FCB2586F367C,C88C91AB920728433259DA21DF5815DB,CMT,1,N,2013-01-23 08:16:37,2013-01-23 08:27:21,1,643,2.90,-74.010117,40.734661,-73.984871,40.768597
C569C8910159E5BD1DDF4861EE8D7FF2,B90ED0E0447B0981F2E3C49D370C514C,CMT,1,N,2013-01-23 08:16:42,2013-01-23 08:21:32,1,289,1.10,-73.995819,40.732845,-73.989464,40.742298
6445A77D0238C473F7DD8B94A6955EA3,E7E6F9F97F18C35E0CC1AC3CCBBB4D08,VTS,1,,2013-01-23 08:18:00,2013-01-23 08:26:00,1,480,1.00,-73.961967,40.762947,-73.971054,40.751732
2F7430A075A7A4F9D4DA93F3BF4C49E0,C617C18C8270F35E970788CFA4B976B0,VTS,1,,2013-01-23 08:18:00,2013-01-23 08:33:00,1,900,3.33,-73.963661,40.808086,-73.942657,40.841343
F6B0E6F93A25D74EB79D804A085C8832,96549A049045E238E54F2B88836C4DF5,CMT,1,N,2013-01-23 08:18:43,2013-01-23 08:24:30,1,346,.90,-73.964951,40.763241,-73.970673,40.751995
90444DF112C5770C8C82DE2A7930C69B,4455B28ACC85731A184353FA7C75FA86,CMT,1,N,2013-01-23 08:22:08,2013-01-23 08:41:02,1,1134,5.60,-74.002548,40.708755,-73.971184,40.757477
CD98CA13911488D180A72A1039A44B85,CF72DC38A57DE4A517B4FE23C0B2462A,VTS,1,,2013-01-23 08:24:00,2013-01-23 08:40:00,2,960,3.28,-73.967178,40.80368,-73.981339,40.779308
C569C8910159E5BD1DDF4861EE8D7FF2,B90ED0E0447B0981F2E3C49D370C514C,CMT,1,N,2013-01-23 08:25:07,2013-01-23 08:36:29,1,681,2.00,-73.995926,40.732979,-74.013191,40.717243
64AA3412C7E29AA863D269B2A345A039,DD6A3C01E68EA266E1F553B236BBBB1C,CMT,1,N,2013-01-23 08:25:19,2013-01-23 08:35:58,1,638,1.80,-73.978172,40.773506,-73.954781,40.769611
FE546F9EEE639C4A85F489A99D125B89,4C21B8D3AFE2DB018412199EFE80DFAB,CMT,1,N,2013-01-23 08:25:25,2013-01-23 08:33:17,1,472,1.40,-74.005615,40.749126,-73.98555,40.738602
4CF38C0C5DE00C68B5AFFF44857FE359,73C839CE30F75638FE591C7F07C4C468,CMT,1,N,2013-01-23 08:25:39,2013-01-23 09:14:19,1,2920,12.90,-73.776764,40.645386,-73.973747,40.679012
739540B8D61BB50FBAF51509EECEEA75,292D3E892682FC711CBC1024A944D474,CMT,1,N,2013-01-23 08:26:27,2013-01-23 08:34:41,1,493,1.40,-73.983284,40.766914,-73.980537,40.753296
F6B0E6F93A25D74EB79D804A085C8832,96549A049045E238E54F2B88836C4DF5,CMT,1,N,2013-01-23 08:28:03,2013-01-23 08:42:37,1,873,4.40,-73.972916,40.748421,-74.00589,40.704636
31D5AAB6D05087D01621FCB2586F367C,C88C91AB920728433259DA21DF5815DB,CMT,1,N,2013-01-23 08:28:15,2013-01-23 08:37:29,1,554,1.10,-73.984695,40.768456,-73.995972,40.76852
0DA4DCB0E5C0987E4F27F4DFF345AABB,A3BDDA114A27319BA9BE2BFEAF348E8B,CMT,1,N,2013-01-23 08:28:53,2013-01-23 08:41:27,1,754,7.60,-73.948174,40.778507,-73.873138,40.774391
6445A77D0238C473F7DD8B94A6955EA3,E7E6F9F97F18C35E0CC1AC3CCBBB4D08,VTS,1,,2013-01-23 08:29:00,2013-01-23 08:44:00,1,900,2.11,-73.969925,40.753181,-73.989685,40.730309
589A1D907871256955793D7BF5A5FF72,1766DF6DEE8AF002FEAC38177AE4CD49,CMT,1,N,2013-01-23 08:29:04,2013-01-23 08:37:56,1,531,.90,-73.97216,40.753963,-73.979042,40.762413
83D30B1DDEB63761051E96590CE912D9,B7856DD328B940C70DDB6E5BF8988372,CMT,1,N,2013-01-23 08:29:29,2013-01-23 08:41:49,1,740,2.00,-73.959953,40.770798,-73.982368,40.765148
FE546F9EEE639C4A85F489A99D125B89,4C21B8D3AFE2DB018412199EFE80DFAB,CMT,1,N,2013-01-23 08:34:35,2013-01-23 08:43:47,1,552,1.40,-73.985603,40.738541,-73.973969,40.750774
3246AA03B718062309B61CEFEDA6C60A,79F8BC483D5BD960CCF3169E6A42793C,VTS,1,,2013-01-23 08:35:00,2013-01-23 09:02:00,1,1620,4.19,-74.002907,40.743153,-73.955803,40.777931
739540B8D61BB50FBAF51509EECEEA75,292D3E892682FC711CBC1024A944D474,CMT,1,N,2013-01-23 08:36:05,2013-01-23 08:51:27,1,922,2.70,-73.978294,40.752167,-74.00679,40.72871
64AA3412C7E29AA863D269B2A345A039,DD6A3C01E68EA266E1F553B236BBBB1C,CMT,1,N,2013-01-23 08:36:49,2013-01-23 08:45:02,1,492,1.40,-73.95443,40.769958,-73.964729,40.755737
2F7430A075A7A4F9D4DA93F3BF4C49E0,C617C18C8270F35E970788CFA4B976B0,VTS,1,,2013-01-23 08:38:00,2013-01-23 08:43:00,1,300,.77,-73.94841,40.829529,-73.955124,40.820271
80B79425F9C2AB66A8E999D0554D5BE7,9DE07EB42B4AA5A46AB4C66A17D1E432,VTS,1,,2013-01-23 08:41:00,2013-01-23 08:53:00,1,720,2.07,-74.002838,40.728622,-73.985504,40.752789
C569C8910159E5BD1DDF4861EE8D7FF2,B90ED0E0447B0981F2E3C49D370C514C,CMT,1,N,2013-01-23 08:42:54,2013-01-23 08:57:11,1,857,2.60,-74.015808,40.711304,-73.991417,40.729988
83D30B1DDEB63761051E96590CE912D9,B7856DD328B940C70DDB6E5BF8988372,CMT,1,N,2013-01-23 08:43:32,2013-01-23 08:51:48,1,495,1.10,-73.983261,40.766479,-73.98806,40.753899
F6B0E6F93A25D74EB79D804A085C8832,96549A049045E238E54F2B88836C4DF5,CMT,1,N,2013-01-23 08:43:47,2013-01-23 09:04:57,1,1269,2.70,-74.006447,40.704235,-73.993469,40.733364
589A1D907871256955793D7BF5A5FF72,1766DF6DEE8AF002FEAC38177AE4CD49,CMT,1,N,2013-01-23 08:43:51,2013-01-23 08:58:11,1,860,2.80,-73.982002,40.766521,-73.963181,40.799408
6445A77D0238C473F7DD8B94A6955EA3,E7E6F9F97F18C35E0CC1AC3CCBBB4D08,VTS,1,,2013-01-23 08:45:00,2013-01-23 08:49:00,1,240,.42,-73.991318,40.731033,-73.995918,40.732937
FE546F9EEE639C4A85F489A99D125B89,4C21B8D3AFE2DB018412199EFE80DFAB,CMT,1,N,2013-01-23 08:45:22,2013-01-23 08:59:09,1,827,.60,-73.973923,40.750759,-73.976631,40.754795
64AA3412C7E29AA863D269B2A345A039,DD6A3C01E68EA266E1F553B236BBBB1C,CMT,1,N,2013-01-23 08:46:15,2013-01-23 08:59:05,1,769,1.20,-73.96521,40.75592,-73.981216,40.754025
CD98CA13911488D180A72A1039A44B85,CF72DC38A57DE4A517B4FE23C0B2462A,VTS,1,,2013-01-23 08:47:00,2013-01-23 09:17:00,2,1800,3.71,-73.97464,40.790642,-73.975975,40.751629
2F7430A075A7A4F9D4DA93F3BF4C49E0,C617C18C8270F35E970788CFA4B976B0,VTS,1,,2013-01-23 08:50:00,2013-01-23 08:53:00,1,180,.40,-73.955284,40.820164,-73.952438,40.817352
31D5AAB6D05087D01621FCB2586F367C,C88C91AB920728433259DA21DF5815DB,CMT,1,N,2013-01-23 08:52:27,2013-01-23 08:56:08,1,220,.70,-73.995712,40.764507,-73.98494,40.76149
6445A77D0238C473F7DD8B94A6955EA3,E7E6F9F97F18C35E0CC1AC3CCBBB4D08,VTS,1,,2013-01-23 08:53:00,2013-01-23 08:57:00,1,240,.65,-73.994621,40.740376,-73.989159,40.745537
739540B8D61BB50FBAF51509EECEEA75,292D3E892682FC711CBC1024A944D474,CMT,1,N,2013-01-23 08:53:44,2013-01-23 08:59:47,1,362,1.10,-74.006882,40.731842,-73.992561,40.738846
80B79425F9C2AB66A8E999D0554D5BE7,9DE07EB42B4AA5A46AB4C66A17D1E432,VTS,1,,2013-01-23 08:54:00,2013-01-23 09:11:00,1,1020,2.10,-73.983765,40.755165,-73.959114,40.763885
83D30B1DDEB63761051E96590CE912D9,B7856DD328B940C70DDB6E5BF8988372,CMT,1,N,2013-01-23 08:54:30,2013-01-23 09:13:34,1,1143,1.70,-73.99173,40.749966,-73.972794,40.757481
90444DF112C5770C8C82DE2A7930C69B,4455B28ACC85731A184353FA7C75FA86,CMT,2,N,2013-01-23 08:54:32,2013-01-23 09:37:42,1,2589,18.20,-73.981812,40.752293,-73.78965,40.647022
31D5AAB6D05087D01621FCB2586F367C,C88C91AB920728433259DA21DF5815DB,CMT,1,N,2013-01-23 08:56:49,2013-01-23 09:00:53,1,243,.50,-73.984573,40.761299,-73.974846,40.759018
2F7430A075A7A4F9D4DA93F3BF4C49E0,C617C18C8270F35E970788CFA4B976B0,VTS,1,,2013-01-23 08:57:00,2013-01-23 09:00:00,1,180,.58,-73.957336,40.812027,-73.96244,40.804993
C569C8910159E5BD1DDF4861EE8D7FF2,B90ED0E0447B0981F2E3C49D370C514C,CMT,1,N,2013-01-23 08:58:55,2013-01-23 09:15:14,1,978,1.90,-73.990173,40.731873,-74.005508,40.750004
6445A77D0238C473F7DD8B94A6955EA3,E7E6F9F97F18C35E0CC1AC3CCBBB4D08,VTS,1,,2013-01-23 09:00:00,2013-01-23 09:09:00,1,540,.97,-73.983551,40.747173,-73.993851,40.746304
589A1D907871256955793D7BF5A5FF72,1766DF6DEE8AF002FEAC38177AE4CD49,CMT,1,N,2013-01-23 09:00:20,2013-01-23 09:26:24,1,1564,4.30,-73.969894,40.799942,-73.975456,40.754414
FE546F9EEE639C4A85F489A99D125B89,4C21B8D3AFE2DB018412199EFE80DFAB,CMT,1,N,2013-01-23 09:00:36,2013-01-23 09:06:15,1,339,.60,-73.978401,40.756805,-73.971878,40.763134
739540B8D61BB50FBAF51509EECEEA75,292D3E892682FC711CBC1024A944D474,CMT,1,Y,2013-01-23 09:02:44,2013-01-23 09:11:48,1,543,2.10,-73.995888,40.733128,-74.013992,40.713993
3246AA03B718062309B61CEFEDA6C60A,79F8BC483D5BD960CCF3169E6A42793C,VTS,1,,2013-01-23 09:03:00,2013-01-23 09:08:00,1,300,.89,-73.955124,40.77766,-73.956947,40.768185
2F7430A075A7A4F9D4DA93F3BF4C49E0,C617C18C8270F35E970788CFA4B976B0,VTS,2,,2013-01-23 09:07:00,2013-01-23 09:37:00,1,1800,20.07,-73.961861,40.795715,-73.776505,40.645275
64AA3412C7E29AA863D269B2A345A039,DD6A3C01E68EA266E1F553B236BBBB1C,CMT,1,N,2013-01-23 09:07:39,2013-01-23 09:20:02,3,742,1.00,-73.987511,40.758244,-73.981255,40.765427
F6B0E6F93A25D74EB79D804A085C8832,96549A049045E238E54F2B88836C4DF5,CMT,1,N,2013-01-23 09:08:36,2013-01-23 09:27:52,1,1156,3.80,-73.997261,40.736881,-73.954407,40.765854
6445A77D0238C473F7DD8B94A6955EA3,E7E6F9F97F18C35E0CC1AC3CCBBB4D08,VTS,1,,2013-01-23 09:10:00,2013-01-23 09:30:00,1,1200,2.64,-73.99295,40.745483,-73.99511,40.769718
31D5AAB6D05087D01621FCB2586F367C,C88C91AB920728433259DA21DF5815DB,CMT,1,N,2013-01-23 09:10:59,2013-01-23 09:26:30,1,930,1.20,-73.962051,40.759396,-73.975983,40.753647
3246AA03B718062309B61CEFEDA6C60A,79F8BC483D5BD960CCF3169E6A42793C,VTS,1,,2013-01-23 09:11:00,2013-01-23 09:21:00,1,600,3.16,-73.953316,40.76754,-73.981499,40.741413
FE546F9EEE639C4A85F489A99D125B89,4C21B8D3AFE2DB018412199EFE80DFAB,CMT,1,N,2013-01-23 09:12:45,2013-01-23 09:32:11,1,1166,2.30,-73.960625,40.772881,-73.985809,40.753151
C569C8910159E5BD1DDF4861EE8D7FF2,B90ED0E0447B0981F2E3C49D370C514C,CMT,1,N,2013-01-23 09:17:46,2013-01-23 09:27:06,1,559,1.00,-74.005913,40.748413,-73.990601,40.744629
80B79425F9C2AB66A8E999D0554D5BE7,9DE07EB42B4AA5A46AB4C66A17D1E432,VTS,1,,2013-01-23 09:20:00,2013-01-23 09:32:00,1,720,2.76,-73.944527,40.779499,-73.970055,40.753426
739540B8D61BB50FBAF51509EECEEA75,292D3E892682FC711CBC1024A944D474,CMT,1,N,2013-01-23 09:20:06,2013-01-23 09:37:36,1,1049,2.90,-74.008904,40.718327,-73.983002,40.738739
83D30B1DDEB63761051E96590CE912D9,B7856DD328B940C70DDB6E5BF8988372,CMT,1,N,2013-01-23 09:22:40,2013-01-23 09:31:26,1,526,1.30,-73.959167,40.763481,-73.979919,40.772713
CD98CA13911488D180A72A1039A44B85,CF72DC38A57DE4A517B4FE23C0B2462A,VTS,1,,2013-01-23 09:24:00,2013-01-23 09:25:00,2,60,.00,-73.973007,40.746643,-73.972672,40.746418
3246AA03B718062309B61CEFEDA6C60A,79F8BC483D5BD960CCF3169E6A42793C,VTS,1,,2013-01-23 09:27:00,2013-01-23 09:46:00,1,1140,2.50,-73.985405,40.744495,-73.961464,40.774326
64AA3412C7E29AA863D269B2A345A039,DD6A3C01E68EA266E1F553B236BBBB1C,CMT,1,N,2013-01-23 09:28:10,2013-01-23 09:40:13,1,722,1.30,-73.972404,40.754555,-73.975296,40.765415
F6B0E6F93A25D74EB79D804A085C8832,96549A049045E238E54F2B88836C4DF5,CMT,1,N,2013-01-23 09:30:36,2013-01-23 10:01:06,1,1829,4.80,-73.953865,40.766998,-74.007431,40.741821
31D5AAB6D05087D01621FCB2586F367C,C88C91AB920728433259DA21DF5815DB,CMT,1,N,2013-01-23 09:34:26,2013-01-23 09:46:39,1,732,.80,-73.973824,40.746906,-73.985046,40.750885
C569C8910159E5BD1DDF4861EE8D7FF2,B90ED0E0447B0981F2E3C49D370C514C,CMT,1,N,2013-01-23 09:34:36,2013-01-23 09:37:50,1,194,.60,-73.997849,40.736217,-73.991592,40.741646
589A1D907871256955793D7BF5A5FF72,1766DF6DEE8AF002FEAC38177AE4CD49,CMT,1,N,2013-01-23 09:34:57,2013-01-23 09:42:31,1,453,.90,-73.983192,40.741848,-73.974594,40.748547
80B79425F9C2AB66A8E999D0554D5BE7,9DE07EB42B4AA5A46AB4C66A17D1E432,VTS,1,,2013-01-23 09:35:00,2013-01-23 09:46:00,1,660,1.69,-73.972198,40.753799,-73.989342,40.741211
FE546F9EEE639C4A85F489A99D125B89,4C21B8D3AFE2DB018412199EFE80DFAB,CMT,1,N,2013-01-23 09:35:26,2013-01-23 09:42:03,1,397,1.30,-73.989731,40.752045,-73.992889,40.737511
83D30B1DDEB63761051E96590CE912D9,B7856DD328B940C70DDB6E5BF8988372,CMT,1,N,2013-01-23 09:35:58,2013-01-23 09:41:35,1,336,.90,-73.982231,40.768841,-73.988968,40.777645
739540B8D61BB50FBAF51509EECEEA75,292D3E892682FC711CBC1024A944D474,CMT,1,N,2013-01-23 09:38:52,2013-01-23 09:52:12,1,799,1.70,-73.981239,40.738056,-74.003464,40.749355
CD98CA13911488D180A72A1039A44B85,CF72DC38A57DE4A517B4FE23C0B2462A,VTS,1,,2013-01-23 09:41:00,2013-01-23 09:45:00,2,240,.81,-73.969856,40.756008,-73.962265,40.764015
0DA4DCB0E5C0987E4F27F4DFF345AABB,A3BDDA114A27319BA9BE2BFEAF348E8B,CMT,1,N,2013-01-23 09:41:34,2013-01-23 09:55:12,1,817,8.30,-73.863892,40.769829,-73.78688,40.726418
83D30B1DDEB63761051E96590CE912D9,B7856DD328B940C70DDB6E5BF8988372,CMT,1,N,2013-01-23 09:42:03,2013-01-23 09:44:16,1,133,.50,-73.988976,40.777733,-73.982414,40.77779
C569C8910159E5BD1DDF4861EE8D7FF2,B90ED0E0447B0981F2E3C49D370C514C,CMT,1,N,2013-01-23 09:42:36,2013-01-23 09:49:48,1,432,1.20,-73.997635,40.735226,-73.985695,40.743889
64AA3412C7E29AA863D269B2A345A039,DD6A3C01E68EA266E1F553B236BBBB1C,CMT,1,N,2013-01-23 09:42:57,2013-01-23 09:51:39,1,521,2.10,-73.971169,40.763988,-73.952362,40.790478
6445A77D0238C473F7DD8B94A6955EA3,E7E6F9F97F18C35E0CC1AC3CCBBB4D08,VTS,1,,2013-01-23 09:43:00,2013-01-23 09:53:00,1,600,1.49,-73.994057,40.751198,-74.005623,40.737518
589A1D907871256955793D7BF5A5FF72,1766DF6DEE8AF002FEAC38177AE4CD49,CMT,1,N,2013-01-23 09:44:02,2013-01-23 10:07:41,1,1418,3.60,-73.974197,40.748837,-74.007149,40.718262
FE546F9EEE639C4A85F489A99D125B89,4C21B8D3AFE2DB018412199EFE80DFAB,CMT,1,N,2013-01-23 09:45:24,2013-01-23 09:57:49,1,744,2.10,-73.99556,40.739113,-74.008553,40.716587
CD98CA13911488D180A72A1039A44B85,CF72DC38A57DE4A517B4FE23C0B2462A,VTS,1,,2013-01-23 09:48:00,2013-01-23 10:15:00,2,1620,2.56,-73.965469,40.764576,-73.990913,40.739769
C569C8910159E5BD1DDF4861EE8D7FF2,B90ED0E0447B0981F2E3C49D370C514C,CMT,1,N,2013-01-23 09:51:36,2013-01-23 09:57:52,1,376,.70,-73.985291,40.743614,-73.977638,40.751747
31D5AAB6D05087D01621FCB2586F367C,C88C91AB920728433259DA21DF5815DB,CMT,1,N,2013-01-23 09:52:02,2013-01-23 10:03:46,1,704,1.30,-73.990532,40.755226,-73.985626,40.747883
80B79425F9C2AB66A8E999D0554D5BE7,9DE07EB42B4AA5A46AB4C66A17D1E432,VTS,1,,2013-01-23 09:53:00,2013-01-23 10:01:00,1,480,1.13,-74.001503,40.736076,-73.996948,40.743832
64AA3412C7E29AA863D269B2A345A039,DD6A3C01E68EA266E1F553B236BBBB1C,CMT,1,N,2013-01-23 09:58:47,2013-01-23 10:15:14,1,987,1.90,-73.95652,40.781647,-73.973824,40.757591
C569C8910159E5BD1DDF4861EE8D7FF2,B90ED0E0447B0981F2E3C49D370C514C,CMT,1,N,2013-01-23 09:59:31,2013-01-23 10:14:50,1,919,2.30,-73.976959,40.751865,-73.99794,40.734474
3246AA03B718062309B61CEFEDA6C60A,79F8BC483D5BD960CCF3169E6A42793C,VTS,1,,2013-01-23 10:00:00,2013-01-23 10:05:00,1,300,.46,-73.98233,40.767883,-73.983055,40.764656
6445A77D0238C473F7DD8B94A6955EA3,E7E6F9F97F18C35E0CC1AC3CCBBB4D08,VTS,1,,2013-01-23 10:00:00,2013-01-23 10:14:00,1,840,1.63,-73.993973,40.751335,-73.976349,40.764378
739540B8D61BB50FBAF51509EECEEA75,292D3E892682FC711CBC1024A944D474,CMT,1,N,2013-01-23 10:00:56,2013-01-23 10:14:48,1,832,1.90,-73.993721,40.762161,-73.983475,40.74633
83D30B1DDEB63761051E96590CE912D9,B7856DD328B940C70DDB6E5BF8988372,CMT,1,N,2013-01-23 10:02:38,2013-01-23 10:16:22,1,824,4.40,-73.973663,40.794647,-74.003334,40.749695
0DA4DCB0E5C0987E4F27F4DFF345AABB,A3BDDA114A27319BA9BE2BFEAF348E8B,CMT,1,N,2013-01-23 10:09:36,2013-01-23 10:44:27,1,2090,16.70,-73.862595,40.769016,-74.014847,40.713783
3246AA03B718062309B61CEFEDA6C60A,79F8BC483D5BD960CCF3169E6A42793C,VTS,1,,2013-01-23 10:11:00,2013-01-23 10:17:00,1,360,.62,-73.985275,40.76371,-73.976639,40.76144
31D5AAB6D05087D01621FCB2586F367C,C88C91AB920728433259DA21DF5815DB,CMT,1,N,2013-01-23 10:11:25,2013-01-23 10:23:58,1,752,1.00,-73.984589,40.748173,-73.998985,40.753479
2F7430A075A7A4F9D4DA93F3BF4C49E0,C617C18C8270F35E970788CFA4B976B0,VTS,1,,2013-01-23 10:14:00,2013-01-23 10:52:00,1,2280,10.57,-73.885338,40.773079,-73.985634,40.757977
CD98CA13911488D180A72A1039A44B85,CF72DC38A57DE4A517B4FE23C0B2462A,VTS,1,,2013-01-23 10:18:00,2013-01-23 10:23:00,1,300,.62,-73.996292,40.737141,-74.006073,40.741222
6445A77D0238C473F7DD8B94A6955EA3,E7E6F9F97F18C35E0CC1AC3CCBBB4D08,VTS,1,,2013-01-23 10:18:00,2013-01-23 10:25:00,1,420,1.12,-73.975052,40.761719,-73.986382,40.7519
3246AA03B718062309B61CEFEDA6C60A,79F8BC483D5BD960CCF3169E6A42793C,VTS,1,,2013-01-23 10:22:00,2013-01-23 10:31:00,1,540,.79,-73.973595,40.758183,-73.979729,40.763496
C569C8910159E5BD1DDF4861EE8D7FF2,B90ED0E0447B0981F2E3C49D370C514C,CMT,1,N,2013-01-23 10:22:59,2013-01-23 10:28:39,1,339,1.10,-73.987732,40.732437,-74.00174,40.735443
589A1D907871256955793D7BF5A5FF72,1766DF6DEE8AF002FEAC38177AE4CD49,CMT,1,N,2013-01-23 10:25:43,2013-01-23 10:51:03,1,1520,10.00,-74.015251,40.714153,-73.957153,40.783718
739540B8D61BB50FBAF51509EECEEA75,292D3E892682FC711CBC1024A944D474,CMT,1,N,2013-01-23 10:26:56,2013-01-23 10:34:41,1,464,.80,-73.998123,40.740372,-73.991165,40.732922
64AA3412C7E29AA863D269B2A345A039,DD6A3C01E68EA266E1F553B236BBBB1C,CMT,1,N,2013-01-23 10:27:35,2013-01-23 10:40:28,1,772,3.00,-73.962959,40.755432,-73.982033,40.745171
80B79425F9C2AB66A8E999D0554D5BE7,9DE07EB42B4AA5A46AB4C66A17D1E432,VTS,1,,2013-01-23 10:34:00,2013-01-23 10:48:00,1,840,3.20,-73.992462,40.724201,-73.976006,40.760517
C569C8910159E5BD1DDF4861EE8D7FF2,B90ED0E0447B0981F2E3C49D370C514C,CMT,1,N,2013-01-23 10:34:50,2013-01-23 10:55:11,1,1220,3.10,-74.005959,40.725502,-73.986542,40.689037
31D5AAB6D05087D01621FCB2586F367C,C88C91AB920728433259DA21DF5815DB,CMT,1,N,2013-01-23 10:35:28,2013-01-23 10:42:14,1,406,.40,-73.994377,40.760063,-73.99276,40.757114
739540B8D61BB50FBAF51509EECEEA75,292D3E892682FC711CBC1024A944D474,CMT,1,N,2013-01-23 10:40:06,2013-01-23 10:49:54,1,588,1.50,-73.984047,40.729317,-74.006767,40.730415
83D30B1DDEB63761051E96590CE912D9,B7856DD328B940C70DDB6E5BF8988372,CMT,1,N,2013-01-23 10:40:35,2013-01-23 10:44:29,2,233,.60,-73.984161,40.754974,-73.981026,40.762905
F6B0E6F93A25D74EB79D804A085C8832,96549A049045E238E54F2B88836C4DF5,CMT,1,N,2013-01-23 10:41:52,2013-01-23 10:49:22,1,450,.90,-73.994789,40.740261,-73.989891,40.753269
6445A77D0238C473F7DD8B94A6955EA3,E7E6F9F97F18C35E0CC1AC3CCBBB4D08,VTS,1,,2013-01-23 10:42:00,2013-01-23 10:45:00,1,180,.31,-73.982063,40.751781,-73.984596,40.748554
6445A77D0238C473F7DD8B94A6955EA3,E7E6F9F97F18C35E0CC1AC3CCBBB4D08,VTS,1,,2013-01-23 10:47:00,2013-01-23 11:01:00,1,840,1.51,-73.988907,40.749771,-74.000107,40.762402
FE546F9EEE639C4A85F489A99D125B89,4C21B8D3AFE2DB018412199EFE80DFAB,CMT,1,N,2013-01-23 10:47:37,2013-01-23 10:53:04,1,326,1.20,-73.980324,40.775684,-73.990997,40.760807
0DA4DCB0E5C0987E4F27F4DFF345AABB,A3BDDA114A27319BA9BE2BFEAF348E8B,CMT,1,N,2013-01-23 10:47:41,2013-01-23 10:51:40,2,239,.60,-74.014557,40.71711,-74.008118,40.716778
83D30B1DDEB63761051E96590CE912D9,B7856DD328B940C70DDB6E5BF8988372,CMT,1,N,2013-01-23 10:48:18,2013-01-23 10:56:58,1,519,1.60,-73.980675,40.760513,-73.958595,40.764088
64AA3412C7E29AA863D269B2A345A039,DD6A3C01E68EA266E1F553B236BBBB1C,CMT,1,N,2013-01-23 10:48:30,2013-01-23 10:53:42,2,312,.40,-73.987091,40.7439,-73.988937,40.748379
3246AA03B718062309B61CEFEDA6C60A,79F8BC483D5BD960CCF3169E6A42793C,VTS,1,,2013-01-23 10:50:00,2013-01-23 11:00:00,1,600,1.60,-73.98616,40.761475,-73.985924,40.744106
F6B0E6F93A25D74EB79D804A085C8832,96549A049045E238E54F2B88836C4DF5,CMT,1,N,2013-01-23 10:51:07,2013-01-23 10:55:01,1,234,.60,-73.989304,40.755165,-73.978493,40.763214
739540B8D61BB50FBAF51509EECEEA75,292D3E892682FC711CBC1024A944D474,CMT,1,N,2013-01-23 10:52:01,2013-01-23 10:55:40,1,219,1.20,-74.006691,40.731503,-74.007866,40.746479
2F7430A075A7A4F9D4DA93F3BF4C49E0,C617C18C8270F35E970788CFA4B976B0,VTS,1,,2013-01-23 10:53:00,2013-01-23 11:01:00,1,480,.99,-73.98687,40.758057,-73.997833,40.765343
CD98CA13911488D180A72A1039A44B85,CF72DC38A57DE4A517B4FE23C0B2462A,VTS,1,,2013-01-23 10:56:00,2013-01-23 11:08:00,2,720,1.24,-73.988586,40.745232,-74.002525,40.750057
739540B8D61BB50FBAF51509EECEEA75,292D3E892682FC711CBC1024A944D474,CMT,1,N,2013-01-23 10:56:34,2013-01-23 11:00:17,1,222,1.20,-74.007744,40.746895,-73.995567,40.756477
90444DF112C5770C8C82DE2A7930C69B,4455B28ACC85731A184353FA7C75FA86,CMT,1,N,2013-01-23 10:56:37,2013-01-23 11:14:48,1,1090,8.80,-73.872818,40.77422,-73.9543,40.78109
64AA3412C7E29AA863D269B2A345A039,DD6A3C01E68EA266E1F553B236BBBB1C,CMT,1,N,2013-01-23 10:56:54,2013-01-23 11:01:43,3,289,1.00,-73.98912,40.75135,-73.981636,40.76244
0DA4DCB0E5C0987E4F27F4DFF345AABB,A3BDDA114A27319BA9BE2BFEAF348E8B,CMT,1,N,2013-01-23 10:57:36,2013-01-23 11:20:17,1,1360,11.60,-74.007324,40.71603,-73.870987,40.774147
80B79425F9C2AB66A8E999D0554D5BE7,9DE07EB42B4AA5A46AB4C66A17D1E432,VTS,1,,2013-01-23 10:58:00,2013-01-23 11:13:00,1,900,2.75,-73.985504,40.759426,-73.961662,40.780312
83D30B1DDEB63761051E96590CE912D9,B7856DD328B940C70DDB6E5BF8988372,CMT,1,N,2013-01-23 10:58:30,2013-01-23 11:08:57,1,626,1.00,-73.958328,40.764561,-73.965355,40.772675
FE546F9EEE639C4A85F489A99D125B89,4C21B8D3AFE2DB018412199EFE80DFAB,CMT,1,N,2013-01-23 10:58:48,2013-01-23 11:23:12,1,1463,4.30,-73.985405,40.775341,-73.993736,40.728127
C569C8910159E5BD1DDF4861EE8D7FF2,B90ED0E0447B0981F2E3C49D370C514C,CMT,1,N,2013-01-23 11:01:03,2013-01-23 11:07:25,1,382,2.10,-73.989044,40.691387,-74.008072,40.711967
31D5AAB6D05087D01621FCB2586F367C,C88C91AB920728433259DA21DF5815DB,CMT,1,N,2013-01-23 11:02:31,2013-01-23 11:21:37,1,1145,3.70,-73.999626,40.761955,-73.957314,40.782883
3246AA03B718062309B61CEFEDA6C60A,79F8BC483D5BD960CCF3169E6A42793C,VTS,1,,2013-01-23 11:04:00,2013-01-23 11:12:00,1,480,.81,-73.979767,40.74334,-73.972908,40.753197
F6B0E6F93A25D74EB79D804A085C8832,96549A049045E238E54F2B88836C4DF5,CMT,1,N,2013-01-23 11:04:14,2013-01-23 11:09:17,1,303,.80,-73.989914,40.767326,-73.977242,40.764259
739540B8D61BB50FBAF51509EECEEA75,292D3E892682FC711CBC1024A944D474,CMT,1,Y,2013-01-23 11:07:30,2013-01-23 11:14:49,1,439,.70,-73.989502,40.752831,-73.979774,40.75132
3246AA03B718062309B61CEFEDA6C60A,79F8BC483D5BD960CCF3169E6A42793C,VTS,1,,2013-01-23 11:13:00,2013-01-23 11:17:00,1,240,.59,-73.972221,40.75399,-73.972137,40.759357
F6B0E6F93A25D74EB79D804A085C8832,96549A049045E238E54F2B88836C4DF5,CMT,1,N,2013-01-23 11:13:56,2013-01-23 11:18:22,1,266,.60,-73.97242,40.762608,-73.975349,40.75528
6445A77D0238C473F7DD8B94A6955EA3,E7E6F9F97F18C35E0CC1AC3CCBBB4D08,VTS,1,,2013-01-23 11:14:00,2013-01-23 11:20:00,1,360,.85,-73.990334,40.756371,-73.983643,40.76556
CD98CA13911488D180A72A1039A44B85,CF72DC38A57DE4A517B4FE23C0B2462A,VTS,1,,2013-01-23 11:14:00,2013-01-23 11:22:00,2,480,1.27,-74.006844,40.748726,-73.996208,40.760822
80B79425F9C2AB66A8E999D0554D5BE7,9DE07EB42B4AA5A46AB4C66A17D1E432,VTS,1,,2013-01-23 11:16:00,2013-01-23 11:24:00,1,480,1.33,-73.964661,40.775761,-73.976768,40.764164
2F7430A075A7A4F9D4DA93F3BF4C49E0,C617C18C8270F35E970788CFA4B976B0,VTS,1,,2013-01-23 11:16:00,2013-01-23 11:29:00,1,780,1.33,-73.986977,40.755615,-73.979645,40.764671
83D30B1DDEB63761051E96590CE912D9,B7856DD328B940C70DDB6E5BF8988372,CMT,1,N,2013-01-23 11:16:56,2013-01-23 11:20:55,1,238,.70,-73.975853,40.760441,-73.980949,40.751904
64AA3412C7E29AA863D269B2A345A039,DD6A3C01E68EA266E1F553B236BBBB1C,CMT,1,N,2013-01-23 11:17:04,2013-01-23 11:30:20,2,795,2.50,-73.987549,40.747768,-74.010284,40.717541
90444DF112C5770C8C82DE2A7930C69B,4455B28ACC85731A184353FA7C75FA86,CMT,1,N,2013-01-23 11:17:06,2013-01-23 11:24:45,2,458,.90,-73.954582,40.780888,-73.951805,40.77354
739540B8D61BB50FBAF51509EECEEA75,292D3E892682FC711CBC1024A944D474,CMT,1,N,2013-01-23 11:20:54,2013-01-23 11:33:17,1,743,1.50,-73.987457,40.749817,-73.982651,40.766975
6445A77D0238C473F7DD8B94A6955EA3,E7E6F9F97F18C35E0CC1AC3CCBBB4D08,VTS,1,,2013-01-23 11:21:00,2013-01-23 11:27:00,1,360,.78,-73.981766,40.76527,-73.988815,40.768841
3246AA03B718062309B61CEFEDA6C60A,79F8BC483D5BD960CCF3169E6A42793C,VTS,1,,2013-01-23 11:23:00,2013-01-23 11:31:00,1,480,1.45,-73.975189,40.752373,-73.995384,40.754623
31D5AAB6D05087D01621FCB2586F367C,C88C91AB920728433259DA21DF5815DB,CMT,1,N,2013-01-23 11:23:48,2013-01-23 11:31:21,1,452,.90,-73.955032,40.782604,-73.942963,40.787537
589A1D907871256955793D7BF5A5FF72,1766DF6DEE8AF002FEAC38177AE4CD49,CMT,1,N,2013-01-23 11:28:07,2013-01-23 11:32:17,1,249,.60,-73.958061,40.782043,-73.960754,40.775673
2F7430A075A7A4F9D4DA93F3BF4C49E0,C617C18C8270F35E970788CFA4B976B0,VTS,1,,2013-01-23 11:30:00,2013-01-23 11:35:00,1,300,1.24,-73.986977,40.755615,-73.9645,40.772991
80B79425F9C2AB66A8E999D0554D5BE7,9DE07EB42B4AA5A46AB4C66A17D1E432,VTS,1,,2013-01-23 11:30:00,2013-01-23 11:39:00,1,540,1.12,-73.988174,40.763115,-73.974426,40.763409
90444DF112C5770C8C82DE2A7930C69B,4455B28ACC85731A184353FA7C75FA86,CMT,1,N,2013-01-23 11:30:03,2013-01-23 11:43:24,2,800,2.70,-73.95134,40.778542,-73.982483,40.772552
6445A77D0238C473F7DD8B94A6955EA3,E7E6F9F97F18C35E0CC1AC3CCBBB4D08,VTS,1,,2013-01-23 11:31:00,2013-01-23 11:39:00,1,480,1.65,-73.988953,40.777203,-73.97921,40.762642
4CF38C0C5DE00C68B5AFFF44857FE359,73C839CE30F75638FE591C7F07C4C468,CMT,2,N,2013-01-23 11:32:10,2013-01-23 12:09:40,1,2249,17.30,-73.783424,40.648605,-73.988762,40.748314
3246AA03B718062309B61CEFEDA6C60A,79F8BC483D5BD960CCF3169E6A42793C,VTS,1,,2013-01-23 11:35:00,2013-01-23 11:48:00,1,780,8.25,-74.006027,40.745361,-73.943771,40.845387
2F7430A075A7A4F9D4DA93F3BF4C49E0,C617C18C8270F35E970788CFA4B976B0,VTS,1,,2013-01-23 11:37:00,2013-01-23 11:50:00,1,780,3.27,-73.962669,40.772449,-73.96489,40.806587
CD98CA13911488D180A72A1039A44B85,CF72DC38A57DE4A517B4FE23C0B2462A,VTS,1,,2013-01-23 11:37:00,2013-01-23 11:54:00,2,1020,2.84,-73.989105,40.758656,-73.997498,40.725906
64AA3412C7E29AA863D269B2A345A039,DD6A3C01E68EA266E1F553B236BBBB1C,CMT,1,N,2013-01-23 11:37:48,2013-01-23 11:58:40,1,1252,3.90,-74.008949,40.711048,-73.952354,40.695026
C569C8910159E5BD1DDF4861EE8D7FF2,B90ED0E0447B0981F2E3C49D370C514C,CMT,1,N,2013-01-23 11:38:16,2013-01-23 11:58:26,1,1210,4.70,-74.015984,40.706097,-73.989769,40.752357
589A1D907871256955793D7BF5A5FF72,1766DF6DEE8AF002FEAC38177AE4CD49,CMT,1,N,2013-01-23 11:38:25,2013-01-23 11:40:43,1,138,.40,-73.96508,40.769787,-73.968719,40.76469
739540B8D61BB50FBAF51509EECEEA75,292D3E892682FC711CBC1024A944D474,CMT,1,N,2013-01-23 11:39:07,2013-01-23 11:50:41,1,693,2.40,-73.982086,40.774731,-73.956841,40.784199
6445A77D0238C473F7DD8B94A6955EA3,E7E6F9F97F18C35E0CC1AC3CCBBB4D08,VTS,1,,2013-01-23 11:40:00,2013-01-23 12:01:00,1,1260,2.23,-73.977753,40.76218,-73.955803,40.781826
31D5AAB6D05087D01621FCB2586F367C,C88C91AB920728433259DA21DF5815DB,CMT,1,N,2013-01-23 11:42:00,2013-01-23 12:00:20,1,1099,2.70,-73.944046,40.775909,-73.979126,40.761913
589A1D907871256955793D7BF5A5FF72,1766DF6DEE8AF002FEAC38177AE4CD49,CMT,1,N,2013-01-23 11:42:53,2013-01-23 11:55:36,1,762,1.60,-73.970573,40.761738,-73.986565,40.749485
90444DF112C5770C8C82DE2A7930C69B,4455B28ACC85731A184353FA7C75FA86,CMT,1,N,2013-01-23 11:45:22,2013-01-23 12:00:19,3,897,1.40,-73.982574,40.772369,-73.986542,40.758011
FE546F9EEE639C4A85F489A99D125B89,4C21B8D3AFE2DB018412199EFE80DFAB,CMT,1,N,2013-01-23 11:46:12,2013-01-23 11:53:24,1,432,.70,-73.964584,40.755711,-73.975212,40.760597
F6B0E6F93A25D74EB79D804A085C8832,96549A049045E238E54F2B88836C4DF5,CMT,1,N,2013-01-23 11:50:45,2013-01-23 11:59:45,1,539,1.80,-73.963356,40.757439,-73.953651,40.77961
739540B8D61BB50FBAF51509EECEEA75,292D3E892682FC711CBC1024A944D474,CMT,1,N,2013-01-23 11:53:38,2013-01-23 12:04:20,1,642,2.10,-73.960876,40.781013,-73.981606,40.767441
2F7430A075A7A4F9D4DA93F3BF4C49E0,C617C18C8270F35E970788CFA4B976B0,VTS,1,,2013-01-23 11:56:00,2013-01-23 12:00:00,1,240,.73,-73.970345,40.797112,-73.968018,40.793053
589A1D907871256955793D7BF5A5FF72,1766DF6DEE8AF002FEAC38177AE4CD49,CMT,1,Y,2013-01-23 11:56:14,2013-01-23 11:58:08,1,114,.50,-73.986565,40.749447,-73.995819,40.753277
80B79425F9C2AB66A8E999D0554D5BE7,9DE07EB42B4AA5A46AB4C66A17D1E432,VTS,1,,2013-01-23 12:00:00,2013-01-23 12:07:00,1,420,.64,-73.964828,40.759342,-73.971443,40.763557
F6B0E6F93A25D74EB79D804A085C8832,96549A049045E238E54F2B88836C4DF5,CMT,1,N,2013-01-23 12:00:51,2013-01-23 12:12:41,1,710,2.60,-73.954453,40.780155,-73.964935,40.806431
CD98CA13911488D180A72A1039A44B85,CF72DC38A57DE4A517B4FE23C0B2462A,VTS,1,,2013-01-23 12:01:00,2013-01-23 12:29:00,2,1680,4.12,-73.99749,40.722885,-73.963966,40.773823
83D30B1DDEB63761051E96590CE912D9,B7856DD328B940C70DDB6E5BF8988372,CMT,1,N,2013-01-23 12:03:25,2013-01-23 12:22:21,1,1136,1.70,-73.989525,40.740421,-73.979965,40.760696
90444DF112C5770C8C82DE2A7930C69B,4455B28ACC85731A184353FA7C75FA86,CMT,1,N,2013-01-23 12:03:43,2013-01-23 12:21:12,2,1048,3.20,-73.987381,40.755337,-73.999748,40.722919
2F7430A075A7A4F9D4DA93F3BF4C49E0,C617C18C8270F35E970788CFA4B976B0,VTS,1,,2013-01-23 12:04:00,2013-01-23 12:27:00,1,1380,5.17,-73.970345,40.797112,-74.008286,40.738434
0DA4DCB0E5C0987E4F27F4DFF345AABB,A3BDDA114A27319BA9BE2BFEAF348E8B,CMT,1,N,2013-01-23 12:06:16,2013-01-23 12:39:00,1,1964,10.60,-73.874527,40.774113,-73.979485,40.753712
739540B8D61BB50FBAF51509EECEEA75,292D3E892682FC711CBC1024A944D474,CMT,1,N,2013-01-23 12:06:57,2013-01-23 12:16:56,1,598,1.50,-73.980095,40.765755,-73.967087,40.75285
FE546F9EEE639C4A85F489A99D125B89,4C21B8D3AFE2DB018412199EFE80DFAB,CMT,1,N,2013-01-23 12:10:01,2013-01-23 12:19:48,1,586,1.90,-73.964333,40.764469,-73.954063,40.787476
F6B0E6F93A25D74EB79D804A085C8832,96549A049045E238E54F2B88836C4DF5,CMT,1,N,2013-01-23 12:14:28,2013-01-23 12:36:25,1,1317,4.40,-73.963966,40.806351,-73.994064,40.752235
80B79425F9C2AB66A8E999D0554D5BE7,9DE07EB42B4AA5A46AB4C66A17D1E432,VTS,1,,2013-01-23 12:15:00,2013-01-23 12:32:00,1,1020,8.91,-73.982124,40.751747,-73.870384,40.772671
589A1D907871256955793D7BF5A5FF72,1766DF6DEE8AF002FEAC38177AE4CD49,CMT,1,N,2013-01-23 12:16:01,2013-01-23 12:19:53,1,232,.80,-73.981262,40.781914,-73.988914,40.777412
4CF38C0C5DE00C68B5AFFF44857FE359,73C839CE30F75638FE591C7F07C4C468,CMT,1,N,2013-01-23 12:16:04,2013-01-23 12:27:23,1,678,.80,-73.991127,40.750374,-73.980476,40.751038
64AA3412C7E29AA863D269B2A345A039,DD6A3C01E68EA266E1F553B236BBBB1C,CMT,1,N,2013-01-23 12:16:58,2013-01-23 12:22:16,1,318,.90,-73.991409,40.71698,-73.987396,40.727959
FE546F9EEE639C4A85F489A99D125B89,4C21B8D3AFE2DB018412199EFE80DFAB,CMT,1,N,2013-01-23 12:21:03,2013-01-23 12:34:26,1,803,2.00,-73.955261,40.788136,-73.974518,40.761993
6445A77D0238C473F7DD8B94A6955EA3,E7E6F9F97F18C35E0CC1AC3CCBBB4D08,VTS,1,,2013-01-23 12:22:00,2013-01-23 12:25:00,1,180,.54,-73.950935,40.770893,-73.955879,40.767807
90444DF112C5770C8C82DE2A7930C69B,4455B28ACC85731A184353FA7C75FA86,CMT,1,N,2013-01-23 12:22:31,2013-01-23 12:32:24,1,593,2.30,-74.00013,40.722462,-73.98893,40.746876
64AA3412C7E29AA863D269B2A345A039,DD6A3C01E68EA266E1F553B236BBBB1C,CMT,1,N,2013-01-23 12:23:49,2013-01-23 12:30:37,1,408,1.20,-73.990257,40.729164,-73.980522,40.720825
6445A77D0238C473F7DD8B94A6955EA3,E7E6F9F97F18C35E0CC1AC3CCBBB4D08,VTS,1,,2013-01-23 12:26:00,2013-01-23 12:35:00,1,540,1.31,-73.950935,40.770893,-73.958214,40.78186
4CF38C0C5DE00C68B5AFFF44857FE359,73C839CE30F75638FE591C7F07C4C468,CMT,1,N,2013-01-23 12:28:13,2013-01-23 12:37:40,1,567,1.00,-73.9804,40.751057,-73.971428,40.750938
589A1D907871256955793D7BF5A5FF72,1766DF6DEE8AF002FEAC38177AE4CD49,CMT,1,N,2013-01-23 12:28:44,2013-01-23 12:33:07,1,263,.90,-73.979698,40.777912,-73.989014,40.77779
CD98CA13911488D180A72A1039A44B85,CF72DC38A57DE4A517B4FE23C0B2462A,VTS,1,,2013-01-23 12:29:00,2013-01-23 12:33:00,2,240,.56,-73.99749,40.722885,-73.956924,40.774891
83D30B1DDEB63761051E96590CE912D9,B7856DD328B940C70DDB6E5BF8988372,CMT,1,N,2013-01-23 12:29:48,2013-01-23 12:35:55,1,367,1.00,-73.981239,40.764694,-73.993858,40.758957
739540B8D61BB50FBAF51509EECEEA75,292D3E892682FC711CBC1024A944D474,CMT,1,N,2013-01-23 12:33:05,2013-01-23 12:39:33,1,388,1.00,-73.954193,40.767078,-73.957878,40.776325
90444DF112C5770C8C82DE2A7930C69B,4455B28ACC85731A184353FA7C75FA86,CMT,1,N,2013-01-23 12:34:10,2013-01-23 12:56:00,1,1310,5.80,-73.988823,40.744873,-73.955544,40.785229
3246AA03B718062309B61CEFEDA6C60A,79F8BC483D5BD960CCF3169E6A42793C,VTS,1,,2013-01-23 12:36:00,2013-01-23 12:49:00,1,780,3.01,-73.947212,40.669628,-73.939629,40.667568
FE546F9EEE639C4A85F489A99D125B89,4C21B8D3AFE2DB018412199EFE80DFAB,CMT,1,N,2013-01-23 12:36:22,2013-01-23 12:58:50,1,1347,2.50,-73.975052,40.761761,-73.988724,40.736774
589A1D907871256955793D7BF5A5FF72,1766DF6DEE8AF002FEAC38177AE4CD49,CMT,1,N,2013-01-23 12:38:44,2013-01-23 12:46:32,1,468,1.80,-73.981201,40.778522,-73.95919,40.780506
CD98CA13911488D180A72A1039A44B85,CF72DC38A57DE4A517B4FE23C0B2462A,VTS,1,,2013-01-23 12:39:00,2013-01-23 13:01:00,2,1320,3.68,-73.961601,40.779346,-73.995804,40.735905
F6B0E6F93A25D74EB79D804A085C8832,96549A049045E238E54F2B88836C4DF5,CMT,1,N,2013-01-23 12:40:07,2013-01-23 12:46:24,1,377,.80,-73.991402,40.75066,-73.9841,40.743416
0DA4DCB0E5C0987E4F27F4DFF345AABB,A3BDDA114A27319BA9BE2BFEAF348E8B,CMT,1,N,2013-01-23 12:40:39,2013-01-23 12:45:47,1,308,.50,-73.978836,40.753952,-73.971382,40.754936
83D30B1DDEB63761051E96590CE912D9,B7856DD328B940C70DDB6E5BF8988372,CMT,1,N,2013-01-23 12:42:58,2013-01-23 12:52:12,1,553,1.20,-73.984444,40.766911,-73.969528,40.756908
739540B8D61BB50FBAF51509EECEEA75,292D3E892682FC711CBC1024A944D474,CMT,1,N,2013-01-23 12:43:29,2013-01-23 13:00:20,1,1011,2.30,-73.958778,40.777737,-73.982384,40.756622
4CF38C0C5DE00C68B5AFFF44857FE359,73C839CE30F75638FE591C7F07C4C468,CMT,1,N,2013-01-23 12:45:18,2013-01-23 12:49:51,1,272,.70,-73.978798,40.751297,-73.985146,40.74781
64AA3412C7E29AA863D269B2A345A039,DD6A3C01E68EA266E1F553B236BBBB1C,CMT,1,N,2013-01-23 12:46:06,2013-01-23 12:57:21,1,675,2.20,-73.986801,40.740208,-74.002762,40.760502
589A1D907871256955793D7BF5A5FF72,1766DF6DEE8AF002FEAC38177AE4CD49,CMT,1,N,2013-01-23 12:48:02,2013-01-23 13:13:50,1,1547,3.30,-73.956642,40.783138,-73.988869,40.753296
6445A77D0238C473F7DD8B94A6955EA3,E7E6F9F97F18C35E0CC1AC3CCBBB4D08,VTS,1,,2013-01-23 12:51:00,2013-01-23 12:55:00,1,240,.66,-73.955513,40.787727,-73.961189,40.780491
83D30B1DDEB63761051E96590CE912D9,B7856DD328B940C70DDB6E5BF8988372,CMT,1,N,2013-01-23 12:54:59,2013-01-23 13:10:46,1,947,1.40,-73.97168,40.750484,-73.991997,40.749317
6445A77D0238C473F7DD8B94A6955EA3,E7E6F9F97F18C35E0CC1AC3CCBBB4D08,VTS,1,,2013-01-23 12:56:00,2013-01-23 13:03:00,1,420,.95,-73.960602,40.779789,-73.959473,40.770908
2F7430A075A7A4F9D4DA93F3BF4C49E0,C617C18C8270F35E970788CFA4B976B0,VTS,1,,2013-01-23 12:57:00,2013-01-23 13:06:00,1,540,1.70,-73.994453,40.732185,-74.010178,40.720005
4CF38C0C5DE00C68B5AFFF44857FE359,73C839CE30F75638FE591C7F07C4C468,CMT,1,N,2013-01-23 12:58:06,2013-01-23 13:03:08,1,302,.60,-73.985374,40.744907,-73.977272,40.749508
3246AA03B718062309B61CEFEDA6C60A,79F8BC483D5BD960CCF3169E6A42793C,VTS,1,,2013-01-23 12:59:00,2013-01-23 13:10:00,1,660,3.41,-73.976624,40.683064,-74.008049,40.707954
739540B8D61BB50FBAF51509EECEEA75,292D3E892682FC711CBC1024A944D474,CMT,1,N,2013-01-23 13:02:46,2013-01-23 13:06:06,1,199,.60,-73.984444,40.757988,-73.989922,40.751877
64AA3412C7E29AA863D269B2A345A039,DD6A3C01E68EA266E1F553B236BBBB1C,CMT,1,N,2013-01-23 13:03:02,2013-01-23 13:08:08,1,305,1.00,-73.997589,40.757286,-74.005058,40.74892
0DA4DCB0E5C0987E4F27F4DFF345AABB,A3BDDA114A27319BA9BE2BFEAF348E8B,CMT,1,N,2013-01-23 13:06:06,2013-01-23 13:13:50,1,464,.80,-73.968857,40.761604,-73.981659,40.762726
FE546F9EEE639C4A85F489A99D125B89,4C21B8D3AFE2DB018412199EFE80DFAB,CMT,1,N,2013-01-23 13:08:32,2013-01-23 13:16:10,1,457,1.30,-73.992699,40.742599,-73.978546,40.752289
6445A77D0238C473F7DD8B94A6955EA3,E7E6F9F97F18C35E0CC1AC3CCBBB4D08,VTS,1,,2013-01-23 13:09:00,2013-01-23 13:10:00,1,60,.35,-73.961739,40.764172,-73.965561,40.762665
4CF38C0C5DE00C68B5AFFF44857FE359,73C839CE30F75638FE591C7F07C4C468,CMT,1,N,2013-01-23 13:09:27,2013-01-23 13:33:00,1,1412,2.40,-73.977539,40.751408,-73.973221,40.779968
83D30B1DDEB63761051E96590CE912D9,B7856DD328B940C70DDB6E5BF8988372,CMT,1,N,2013-01-23 13:12:09,2013-01-23 13:23:13,2,664,1.20,-73.992439,40.748676,-73.982193,40.751614
F6B0E6F93A25D74EB79D804A085C8832,96549A049045E238E54F2B88836C4DF5,CMT,1,N,2013-01-23 13:12:25,2013-01-23 13:25:49,1,803,1.60,-73.97876,40.737076,-73.995491,40.721966
CD98CA13911488D180A72A1039A44B85,CF72DC38A57DE4A517B4FE23C0B2462A,VTS,1,,2013-01-23 13:14:00,2013-01-23 13:21:00,2,420,.91,-73.986412,40.745518,-73.977142,40.755352
64AA3412C7E29AA863D269B2A345A039,DD6A3C01E68EA266E1F553B236BBBB1C,CMT,1,N,2013-01-23 13:15:37,2013-01-23 13:25:15,2,578,1.20,-73.992058,40.74398,-73.982132,40.759796
739540B8D61BB50FBAF51509EECEEA75,292D3E892682FC711CBC1024A944D474,CMT,1,N,2013-01-23 13:15:47,2013-01-23 13:21:52,1,365,.90,-73.998993,40.744507,-73.993591,40.735863
FE546F9EEE639C4A85F489A99D125B89,4C21B8D3AFE2DB018412199EFE80DFAB,CMT,1,N,2013-01-23 13:16:59,2013-01-23 13:30:58,1,838,6.50,-73.978516,40.75227,-74.011383,40.713932
80B79425F9C2AB66A8E999D0554D5BE7,9DE07EB42B4AA5A46AB4C66A17D1E432,VTS,1,,2013-01-23 13:17:00,2013-01-23 13:42:00,1,1500,12.39,-73.862717,40.768818,-73.9832,40.756176
90444DF112C5770C8C82DE2A7930C69B,4455B28ACC85731A184353FA7C75FA86,CMT,1,N,2013-01-23 13:17:50,2013-01-23 13:32:00,1,850,6.20,-73.94944,40.781483,-73.932182,40.847008
0DA4DCB0E5C0987E4F27F4DFF345AABB,A3BDDA114A27319BA9BE2BFEAF348E8B,CMT,1,N,2013-01-23 13:19:24,2013-01-23 13:28:54,1,570,1.40,-73.988541,40.753464,-73.992294,40.738125
589A1D907871256955793D7BF5A5FF72,1766DF6DEE8AF002FEAC38177AE4CD49,CMT,1,N,2013-01-23 13:20:35,2013-01-23 13:43:36,1,1380,3.20,-73.996941,40.742268,-73.965073,40.772434
2F7430A075A7A4F9D4DA93F3BF4C49E0,C617C18C8270F35E970788CFA4B976B0,VTS,1,,2013-01-23 13:23:00,2013-01-23 13:39:00,1,960,4.00,-74.01564,40.711403,-73.989098,40.753586
739540B8D61BB50FBAF51509EECEEA75,292D3E892682FC711CBC1024A944D474,CMT,1,N,2013-01-23 13:23:13,2013-01-23 13:30:26,1,432,.90,-73.99398,40.735081,-73.981758,40.730141
31D5AAB6D05087D01621FCB2586F367C,C88C91AB920728433259DA21DF5815DB,CMT,1,N,2013-01-23 13:23:58,2013-01-23 13:27:01,1,183,.50,-74.000481,40.760658,-73.991608,40.759701
CD98CA13911488D180A72A1039A44B85,CF72DC38A57DE4A517B4FE23C0B2462A,VTS,1,,2013-01-23 13:24:00,2013-01-23 13:39:00,2,900,2.02,-73.976837,40.759029,-73.960732,40.778297
83D30B1DDEB63761051E96590CE912D9,B7856DD328B940C70DDB6E5BF8988372,CMT,1,N,2013-01-23 13:26:10,2013-01-23 13:36:37,1,627,1.30,-73.98571,40.752934,-73.970871,40.764492
F6B0E6F93A25D74EB79D804A085C8832,96549A049045E238E54F2B88836C4DF5,CMT,1,N,2013-01-23 13:27:03,2013-01-23 13:35:47,1,524,2.60,-73.994965,40.721416,-73.952347,40.712765
0DA4DCB0E5C0987E4F27F4DFF345AABB,A3BDDA114A27319BA9BE2BFEAF348E8B,CMT,1,N,2013-01-23 13:29:58,2013-01-23 13:37:21,3,442,.90,-73.992325,40.738083,-73.983681,40.737942
C569C8910159E5BD1DDF4861EE8D7FF2,B90ED0E0447B0981F2E3C49D370C514C,CMT,1,N,2013-01-23 13:30:39,2013-01-23 13:33:56,1,197,.70,-73.974457,40.736897,-73.972679,40.745983
64AA3412C7E29AA863D269B2A345A039,DD6A3C01E68EA266E1F553B236BBBB1C,CMT,1,N,2013-01-23 13:31:00,2013-01-23 13:37:28,1,388,.80,-73.988152,40.758511,-73.976578,40.749516
739540B8D61BB50FBAF51509EECEEA75,292D3E892682FC711CBC1024A944D474,CMT,1,N,2013-01-23 13:33:31,2013-01-23 13:45:18,1,706,1.50,-73.980064,40.732426,-74.005264,40.740887
4CF38C0C5DE00C68B5AFFF44857FE359,73C839CE30F75638FE591C7F07C4C468,CMT,1,N,2013-01-23 13:34:19,2013-01-23 13:44:11,1,591,2.40,-73.971565,40.782185,-73.944916,40.803375
3246AA03B718062309B61CEFEDA6C60A,79F8BC483D5BD960CCF3169E6A42793C,VTS,1,,2013-01-23 13:36:00,2013-01-23 13:45:00,1,540,.98,-73.97525,40.752953,-73.974915,40.761719
C569C8910159E5BD1DDF4861EE8D7FF2,B90ED0E0447B0981F2E3C49D370C514C,CMT,1,N,2013-01-23 13:37:49,2013-01-23 13:42:58,1,308,.90,-73.976334,40.744232,-73.977905,40.734093
31D5AAB6D05087D01621FCB2586F367C,C88C91AB920728433259DA21DF5815DB,CMT,1,N,2013-01-23 13:38:05,2013-01-23 13:46:40,1,515,.60,-73.980286,40.754711,-73.99015,40.756504
CD98CA13911488D180A72A1039A44B85,CF72DC38A57DE4A517B4FE23C0B2462A,VTS,1,,2013-01-23 13:41:00,2013-01-23 13:51:00,2,600,1.17,-73.96093,40.779205,-73.97139,40.766415
2F7430A075A7A4F9D4DA93F3BF4C49E0,C617C18C8270F35E970788CFA4B976B0,VTS,1,,2013-01-23 13:41:00,2013-01-23 14:00:00,1,1140,1.59,-73.990585,40.751007,-73.973953,40.758511
83D30B1DDEB63761051E96590CE912D9,B7856DD328B940C70DDB6E5BF8988372,CMT,1,N,2013-01-23 13:41:18,2013-01-23 13:53:48,1,749,2.20,-73.975304,40.761646,-73.996117,40.7327
80B79425F9C2AB66A8E999D0554D5BE7,9DE07EB42B4AA5A46AB4C66A17D1E432,VTS,1,,2013-01-23 13:44:00,2013-01-23 14:00:00,1,960,2.90,-73.862717,40.768818,-74.001305,40.721443
3246AA03B718062309B61CEFEDA6C60A,79F8BC483D5BD960CCF3169E6A42793C,VTS,1,,2013-01-23 13:46:00,2013-01-23 13:55:00,1,540,1.55,-73.97525,40.752953,-73.981766,40.743793
739540B8D61BB50FBAF51509EECEEA75,292D3E892682FC711CBC1024A944D474,CMT,1,N,2013-01-23 13:46:00,2013-01-23 14:13:19,1,1638,2.80,-74.005775,40.74115,-73.995735,40.721466
0DA4DCB0E5C0987E4F27F4DFF345AABB,A3BDDA114A27319BA9BE2BFEAF348E8B,CMT,1,N,2013-01-23 13:50:20,2013-01-23 13:58:37,2,496,1.90,-73.971474,40.755215,-73.953354,40.776894
589A1D907871256955793D7BF5A5FF72,1766DF6DEE8AF002FEAC38177AE4CD49,CMT,1,N,2013-01-23 13:50:20,2013-01-23 14:08:02,1,1062,2.70,-73.95919,40.780933,-73.982964,40.749393
FE546F9EEE639C4A85F489A99D125B89,4C21B8D3AFE2DB018412199EFE80DFAB,CMT,1,N,2013-01-23 13:51:20,2013-01-23 13:59:44,1,503,1.20,-74.004959,40.741676,-73.994957,40.750065
C569C8910159E5BD1DDF4861EE8D7FF2,B90ED0E0447B0981F2E3C49D370C514C,CMT,1,N,2013-01-23 13:52:09,2013-01-23 13:53:53,1,104,.50,-73.97142,40.746857,-73.966934,40.752975
F6B0E6F93A25D74EB79D804A085C8832,96549A049045E238E54F2B88836C4DF5,CMT,1,N,2013-01-23 13:52:38,2013-01-23 13:54:28,1,110,.20,-73.98568,40.718048,-73.983612,40.72184
64AA3412C7E29AA863D269B2A345A039,DD6A3C01E68EA266E1F553B236BBBB1C,CMT,2,Y,2013-01-23 13:53:01,2013-01-23 14:32:37,3,2376,17.80,-73.989746,40.743267,-73.77639,40.645504
C569C8910159E5BD1DDF4861EE8D7FF2,B90ED0E0447B0981F2E3C49D370C514C,CMT,1,N,2013-01-23 13:55:18,2013-01-23 13:56:37,1,79,.60,-73.966248,40.753628,-73.961273,40.760681
CD98CA13911488D180A72A1039A44B85,CF72DC38A57DE4A517B4FE23C0B2462A,VTS,1,,2013-01-23 13:56:00,2013-01-23 13:59:00,1,180,.49,-73.970558,40.764992,-73.97406,40.763
83D30B1DDEB63761051E96590CE912D9,B7856DD328B940C70DDB6E5BF8988372,CMT,1,N,2013-01-23 13:56:53,2013-01-23 14:13:20,1,986,1.70,-73.999336,40.733856,-73.987106,40.75465
31D5AAB6D05087D01621FCB2586F367C,C88C91AB920728433259DA21DF5815DB,CMT,1,N,2013-01-23 13:56:55,2013-01-23 14:14:39,1,1063,2.30,-73.989929,40.756832,-73.963814,40.774181
4CF38C0C5DE00C68B5AFFF44857FE359,73C839CE30F75638FE591C7F07C4C468,CMT,1,N,2013-01-23 13:59:12,2013-01-23 14:02:25,1,193,.70,-73.964935,40.791534,-73.973015,40.785419
90444DF112C5770C8C82DE2A7930C69B,4455B28ACC85731A184353FA7C75FA86,CMT,1,N,2013-01-23 13:59:26,2013-01-23 14:07:03,1,456,1.60,-73.983994,40.780296,-73.982033,40.765366
C569C8910159E5BD1DDF4861EE8D7FF2,B90ED0E0447B0981F2E3C49D370C514C,CMT,1,N,2013-01-23 14:00:02,2013-01-23 14:03:12,1,190,.90,-73.960991,40.760868,-73.952164,40.771202
6445A77D0238C473F7DD8B94A6955EA3,E7E6F9F97F18C35E0CC1AC3CCBBB4D08,VTS,1,,2013-01-23 14:05:00,2013-01-23 14:11:00,1,360,.55,-73.986603,40.739922,-73.985931,40.743179
80B79425F9C2AB66A8E999D0554D5BE7,9DE07EB42B4AA5A46AB4C66A17D1E432,VTS,1,,2013-01-23 14:06:00,2013-01-23 14:14:00,1,480,1.25,-73.990829,40.730118,-74.00425,40.740501
C569C8910159E5BD1DDF4861EE8D7FF2,B90ED0E0447B0981F2E3C49D370C514C,CMT,1,N,2013-01-23 14:06:02,2013-01-23 14:24:20,1,1097,4.80,-73.951347,40.770222,-74.004814,40.740669
0DA4DCB0E5C0987E4F27F4DFF345AABB,A3BDDA114A27319BA9BE2BFEAF348E8B,CMT,1,Y,2013-01-23 14:06:20,2013-01-23 14:20:23,1,843,2.10,-73.954353,40.766411,-73.981224,40.777592
4CF38C0C5DE00C68B5AFFF44857FE359,73C839CE30F75638FE591C7F07C4C468,CMT,1,N,2013-01-23 14:07:02,2013-01-23 14:19:15,1,733,1.80,-73.978294,40.783237,-73.959404,40.769108
FE546F9EEE639C4A85F489A99D125B89,4C21B8D3AFE2DB018412199EFE80DFAB,CMT,1,N,2013-01-23 14:08:32,2013-01-23 14:19:30,3,658,1.90,-73.997383,40.756992,-73.992538,40.737255
6445A77D0238C473F7DD8B94A6955EA3,E7E6F9F97F18C35E0CC1AC3CCBBB4D08,VTS,1,,2013-01-23 14:14:00,2013-01-23 14:21:00,1,420,1.32,-73.985542,40.747108,-73.992027,40.731792
3246AA03B718062309B61CEFEDA6C60A,79F8BC483D5BD960CCF3169E6A42793C,VTS,1,,2013-01-23 14:14:00,2013-01-23 14:32:00,1,1080,10.93,-73.982048,40.748863,-73.850098,40.749435
90444DF112C5770C8C82DE2A7930C69B,4455B28ACC85731A184353FA7C75FA86,CMT,1,N,2013-01-23 14:14:11,2013-01-23 14:20:39,1,387,.70,-73.987236,40.755917,-73.98156,40.758881
C12D2CAA4235AAE317E6E92C477D3153,E9D86653B8B64046875B88EFC2607111,VTS,1,,2013-01-23 14:15:00,2013-01-23 14:29:00,5,840,5.61,-73.776711,40.645401,-73.846161,40.669098
739540B8D61BB50FBAF51509EECEEA75,292D3E892682FC711CBC1024A944D474,CMT,1,N,2013-01-23 14:15:45,2013-01-23 14:30:18,1,872,2.40,-73.997314,40.721737,-73.977638,40.751587
31D5AAB6D05087D01621FCB2586F367C,C88C91AB920728433259DA21DF5815DB,CMT,1,N,2013-01-23 14:17:48,2013-01-23 14:29:43,1,714,1.70,-73.960861,40.778259,-73.970528,40.795002
80B79425F9C2AB66A8E999D0554D5BE7,9DE07EB42B4AA5A46AB4C66A17D1E432,VTS,1,,2013-01-23 14:19:00,2013-01-23 14:26:00,1,420,1.28,-74.001923,40.737671,-73.987076,40.742203
589A1D907871256955793D7BF5A5FF72,1766DF6DEE8AF002FEAC38177AE4CD49,CMT,1,N,2013-01-23 14:19:40,2013-01-23 14:28:22,1,522,.80,-73.993134,40.752102,-73.986092,40.762371
FE546F9EEE639C4A85F489A99D125B89,4C21B8D3AFE2DB018412199EFE80DFAB,CMT,1,N,2013-01-23 14:20:11,2013-01-23 14:30:44,2,632,1.40,-73.992516,40.737251,-73.992203,40.749294
4CF38C0C5DE00C68B5AFFF44857FE359,73C839CE30F75638FE591C7F07C4C468,CMT,1,N,2013-01-23 14:22:22,2013-01-23 14:29:20,1,417,.80,-73.95916,40.767887,-73.967964,40.76123
0DA4DCB0E5C0987E4F27F4DFF345AABB,A3BDDA114A27319BA9BE2BFEAF348E8B,CMT,1,Y,2013-01-23 14:22:48,2013-01-23 14:38:53,1,965,4.20,-73.986435,40.77747,-74.005455,40.728439
6445A77D0238C473F7DD8B94A6955EA3,E7E6F9F97F18C35E0CC1AC3CCBBB4D08,VTS,1,,2013-01-23 14:24:00,2013-01-23 14:33:00,1,540,1.27,-73.989594,40.735672,-73.979057,40.750023
F6B0E6F93A25D74EB79D804A085C8832,96549A049045E238E54F2B88836C4DF5,CMT,1,N,2013-01-23 14:24:53,2013-01-23 14:30:19,1,326,.90,-73.987015,40.737335,-73.996033,40.726482
C569C8910159E5BD1DDF4861EE8D7FF2,B90ED0E0447B0981F2E3C49D370C514C,CMT,1,N,2013-01-23 14:26:28,2013-01-23 14:39:42,1,794,1.90,-74.007332,40.741779,-74.001884,40.725796
83D30B1DDEB63761051E96590CE912D9,B7856DD328B940C70DDB6E5BF8988372,CMT,1,N,2013-01-23 14:27:58,2013-01-23 15:03:17,2,2118,9.20,-73.983482,40.760845,-73.885651,40.773235
80B79425F9C2AB66A8E999D0554D5BE7,9DE07EB42B4AA5A46AB4C66A17D1E432,VTS,1,,2013-01-23 14:28:00,2013-01-23 14:45:00,1,1020,3.58,-73.984016,40.743248,-73.989159,40.773476
4CF38C0C5DE00C68B5AFFF44857FE359,73C839CE30F75638FE591C7F07C4C468,CMT,1,N,2013-01-23 14:30:46,2013-01-23 14:35:19,1,272,.80,-73.966667,40.761707,-73.95858,40.772533
589A1D907871256955793D7BF5A5FF72,1766DF6DEE8AF002FEAC38177AE4CD49,CMT,1,N,2013-01-23 14:31:25,2013-01-23 14:36:36,1,310,1.10,-73.988213,40.764771,-73.988556,40.774963
90444DF112C5770C8C82DE2A7930C69B,4455B28ACC85731A184353FA7C75FA86,CMT,1,N,2013-01-23 14:31:51,2013-01-23 14:40:11,1,499,1.10,-73.978645,40.762154,-73.980629,40.75428
2F7430A075A7A4F9D4DA93F3BF4C49E0,C617C18C8270F35E970788CFA4B976B0,VTS,2,,2013-01-23 14:34:00,2013-01-23 15:12:00,1,2280,16.66,-73.972984,40.758228,-73.789032,40.647251
F6B0E6F93A25D74EB79D804A085C8832,96549A049045E238E54F2B88836C4DF5,CMT,1,N,2013-01-23 14:35:14,2013-01-23 14:39:32,1,257,.80,-74.000938,40.725727,-74.009438,40.724335
4CF38C0C5DE00C68B5AFFF44857FE359,73C839CE30F75638FE591C7F07C4C468,CMT,1,N,2013-01-23 14:36:19,2013-01-23 14:53:09,1,1009,2.90,-73.958298,40.772854,-73.981102,40.777569
31D5AAB6D05087D01621FCB2586F367C,C88C91AB920728433259DA21DF5815DB,CMT,1,N,2013-01-23 14:37:57,2013-01-23 14:47:31,1,574,1.70,-73.97596,40.791557,-73.964615,40.774944
0DA4DCB0E5C0987E4F27F4DFF345AABB,A3BDDA114A27319BA9BE2BFEAF348E8B,CMT,1,Y,2013-01-23 14:40:23,2013-01-23 14:50:04,2,580,1.70,-74.005806,40.727474,-73.990387,40.742256
F6B0E6F93A25D74EB79D804A085C8832,96549A049045E238E54F2B88836C4DF5,CMT,1,N,2013-01-23 14:42:22,2013-01-23 14:46:14,1,231,.90,-74.007767,40.724861,-73.999199,40.734104
4C9315E335CA98E31059F95460001089,9CE27314187FEB6ED94B02126F2C8122,CMT,1,N,2013-01-23 14:43:50,2013-01-23 14:49:13,2,323,.80,-73.976433,40.747829,-73.977974,40.758007
739540B8D61BB50FBAF51509EECEEA75,292D3E892682FC711CBC1024A944D474,CMT,1,N,2013-01-23 14:44:17,2013-01-23 14:52:13,1,475,.60,-73.990105,40.741653,-73.983932,40.74297
80B79425F9C2AB66A8E999D0554D5BE7,9DE07EB42B4AA5A46AB4C66A17D1E432,VTS,1,,2013-01-23 14:48:00,2013-01-23 14:50:00,1,120,.66,-73.97963,40.781235,-73.975037,40.787525
589A1D907871256955793D7BF5A5FF72,1766DF6DEE8AF002FEAC38177AE4CD49,CMT,1,N,2013-01-23 14:49:52,2013-01-23 14:57:23,1,451,1.50,-73.982086,40.770168,-73.971581,40.782421
6445A77D0238C473F7DD8B94A6955EA3,E7E6F9F97F18C35E0CC1AC3CCBBB4D08,VTS,1,,2013-01-23 14:50:00,2013-01-23 15:03:00,1,780,.85,-73.981346,40.742031,-73.976677,40.751682
90444DF112C5770C8C82DE2A7930C69B,4455B28ACC85731A184353FA7C75FA86,CMT,1,N,2013-01-23 14:50:25,2013-01-23 15:15:51,1,1525,3.50,-73.978462,40.751717,-74.00853,40.711773
31D5AAB6D05087D01621FCB2586F367C,C88C91AB920728433259DA21DF5815DB,CMT,1,N,2013-01-23 14:50:29,2013-01-23 14:55:04,1,274,.40,-73.96328,40.775135,-73.958145,40.776077
4C9315E335CA98E31059F95460001089,9CE27314187FEB6ED94B02126F2C8122,CMT,1,N,2013-01-23 14:51:46,2013-01-23 15:08:15,2,988,2.80,-73.981224,40.758694,-73.954475,40.767269
C569C8910159E5BD1DDF4861EE8D7FF2,B90ED0E0447B0981F2E3C49D370C514C,CMT,1,N,2013-01-23 14:52:15,2013-01-23 15:07:09,1,894,1.30,-73.99247,40.743458,-73.980606,40.7603
4CF38C0C5DE00C68B5AFFF44857FE359,73C839CE30F75638FE591C7F07C4C468,CMT,1,N,2013-01-23 14:55:24,2013-01-23 14:56:21,1,57,.30,-73.981918,40.778275,-73.978943,40.782253
80B79425F9C2AB66A8E999D0554D5BE7,9DE07EB42B4AA5A46AB4C66A17D1E432,VTS,1,,2013-01-23 14:57:00,2013-01-23 15:00:00,1,180,.50,-73.982368,40.776947,-73.981689,40.772736
31D5AAB6D05087D01621FCB2586F367C,C88C91AB920728433259DA21DF5815DB,CMT,1,Y,2013-01-23 14:57:24,2013-01-23 15:02:51,1,326,.50,-73.95871,40.775227,-73.965118,40.772861
4CF38C0C5DE00C68B5AFFF44857FE359,73C839CE30F75638FE591C7F07C4C468,CMT,1,N,2013-01-23 14:58:21,2013-01-23 15:15:35,1,1034,2.20,-73.977097,40.784542,-73.9562,40.771706
C12D2CAA4235AAE317E6E92C477D3153,E9D86653B8B64046875B88EFC2607111,VTS,2,,2013-01-23 15:03:00,2013-01-23 15:37:00,5,2040,12.01,-73.816788,40.703423,-73.98526,40.752502
31D5AAB6D05087D01621FCB2586F367C,C88C91AB920728433259DA21DF5815DB,CMT,1,N,2013-01-23 15:04:30,2013-01-23 15:18:27,1,836,1.60,-73.965736,40.772747,-73.983017,40.755348
589A1D907871256955793D7BF5A5FF72,1766DF6DEE8AF002FEAC38177AE4CD49,CMT,1,N,2013-01-23 15:06:08,2013-01-23 15:11:21,1,312,.70,-73.980278,40.775333,-73.989311,40.774506
F6B0E6F93A25D74EB79D804A085C8832,96549A049045E238E54F2B88836C4DF5,CMT,1,N,2013-01-23 15:06:47,2013-01-23 15:19:25,1,757,1.70,-73.991051,40.736835,-73.992622,40.753494
C569C8910159E5BD1DDF4861EE8D7FF2,B90ED0E0447B0981F2E3C49D370C514C,CMT,1,N,2013-01-23 15:07:49,2013-01-23 15:19:56,1,727,1.50,-73.981003,40.760208,-73.996246,40.753551
6445A77D0238C473F7DD8B94A6955EA3,E7E6F9F97F18C35E0CC1AC3CCBBB4D08,VTS,1,,2013-01-23 15:08:00,2013-01-23 15:16:00,1,480,.89,-73.978035,40.752571,-73.987144,40.747101
739540B8D61BB50FBAF51509EECEEA75,292D3E892682FC711CBC1024A944D474,CMT,1,N,2013-01-23 15:09:00,2013-01-23 15:11:59,1,178,.50,-73.984535,40.752445,-73.978416,40.752171
CD98CA13911488D180A72A1039A44B85,CF72DC38A57DE4A517B4FE23C0B2462A,VTS,1,,2013-01-23 15:11:00,2013-01-23 15:27:00,2,960,4.39,-73.978271,40.728989,-73.951508,40.778652
80B79425F9C2AB66A8E999D0554D5BE7,9DE07EB42B4AA5A46AB4C66A17D1E432,VTS,1,,2013-01-23 15:12:00,2013-01-23 15:20:00,1,480,1.15,-73.990082,40.761978,-73.984497,40.769714
4C9315E335CA98E31059F95460001089,9CE27314187FEB6ED94B02126F2C8122,CMT,1,N,2013-01-23 15:12:59,2013-01-23 15:28:40,1,940,1.30,-73.94812,40.774666,-73.953209,40.788704
739540B8D61BB50FBAF51509EECEEA75,292D3E892682FC711CBC1024A944D474,CMT,1,N,2013-01-23 15:13:32,2013-01-23 15:21:55,1,502,1.00,-73.978279,40.752075,-73.991219,40.750881
589A1D907871256955793D7BF5A5FF72,1766DF6DEE8AF002FEAC38177AE4CD49,CMT,1,N,2013-01-23 15:16:46,2013-01-23 15:21:53,1,307,1.20,-73.98156,40.783646,-73.973373,40.797771
C569C8910159E5BD1DDF4861EE8D7FF2,B90ED0E0447B0981F2E3C49D370C514C,CMT,1,N,2013-01-23 15:21:02,2013-01-23 15:24:51,1,228,1.10,-73.996536,40.753265,-73.993843,40.742382
31D5AAB6D05087D01621FCB2586F367C,C88C91AB920728433259DA21DF5815DB,CMT,1,N,2013-01-23 15:22:49,2013-01-23 15:36:17,1,807,1.70,-73.97789,40.75526,-73.995865,40.742508
4CF38C0C5DE00C68B5AFFF44857FE359,73C839CE30F75638FE591C7F07C4C468,CMT,1,N,2013-01-23 15:25:09,2013-01-23 15:42:42,1,1052,2.10,-73.956665,40.775166,-73.974678,40.75272
589A1D907871256955793D7BF5A5FF72,1766DF6DEE8AF002FEAC38177AE4CD49,CMT,1,N,2013-01-23 15:26:24,2013-01-23 15:36:15,1,591,1.80,-73.975655,40.791977,-73.981461,40.769321
739540B8D61BB50FBAF51509EECEEA75,292D3E892682FC711CBC1024A944D474,CMT,1,N,2013-01-23 15:26:44,2013-01-23 15:36:24,1,579,1.30,-73.991653,40.750263,-73.984215,40.761211
C569C8910159E5BD1DDF4861EE8D7FF2,B90ED0E0447B0981F2E3C49D370C514C,CMT,1,N,2013-01-23 15:27:28,2013-01-23 15:38:17,1,649,1.20,-73.993233,40.742126,-73.979073,40.750008
6445A77D0238C473F7DD8B94A6955EA3,E7E6F9F97F18C35E0CC1AC3CCBBB4D08,VTS,1,,2013-01-23 15:28:00,2013-01-23 15:35:00,1,420,1.07,-73.993591,40.736874,-73.997055,40.747112
CD98CA13911488D180A72A1039A44B85,CF72DC38A57DE4A517B4FE23C0B2462A,VTS,1,,2013-01-23 15:28:00,2013-01-23 15:46:00,2,1080,8.66,-73.953514,40.779572,-73.861229,40.768009
80B79425F9C2AB66A8E999D0554D5BE7,9DE07EB42B4AA5A46AB4C66A17D1E432,VTS,1,,2013-01-23 15:31:00,2013-01-23 15:35:00,1,240,.31,-73.98333,40.749722,-73.984863,40.747826
4C9315E335CA98E31059F95460001089,9CE27314187FEB6ED94B02126F2C8122,CMT,1,N,2013-01-23 15:33:54,2013-01-23 15:54:42,2,1247,3.50,-73.95446,40.78978,-73.992561,40.759171
90444DF112C5770C8C82DE2A7930C69B,4455B28ACC85731A184353FA7C75FA86,CMT,1,N,2013-01-23 15:33:58,2013-01-23 15:40:43,1,404,2.50,-73.993958,40.720169,-73.955704,40.712421
80B79425F9C2AB66A8E999D0554D5BE7,9DE07EB42B4AA5A46AB4C66A17D1E432,VTS,1,,2013-01-23 15:37:00,2013-01-23 16:02:00,1,1500,3.91,-73.988609,40.742779,-73.954926,40.783333
6445A77D0238C473F7DD8B94A6955EA3,E7E6F9F97F18C35E0CC1AC3CCBBB4D08,VTS,1,,2013-01-23 15:37:00,2013-01-23 16:24:00,1,2820,6.30,-73.995354,40.746281,-73.978523,40.777237
31D5AAB6D05087D01621FCB2586F367C,C88C91AB920728433259DA21DF5815DB,CMT,1,N,2013-01-23 15:38:38,2013-01-23 15:43:55,1,316,1.10,-73.996445,40.742046,-73.992493,40.733826
739540B8D61BB50FBAF51509EECEEA75,292D3E892682FC711CBC1024A944D474,CMT,1,N,2013-01-23 15:39:53,2013-01-23 15:53:58,1,844,3.10,-73.987335,40.756889,-73.961609,40.779812
589A1D907871256955793D7BF5A5FF72,1766DF6DEE8AF002FEAC38177AE4CD49,CMT,1,N,2013-01-23 15:41:05,2013-01-23 15:45:43,1,278,.90,-73.982491,40.774937,-73.977615,40.786804
C569C8910159E5BD1DDF4861EE8D7FF2,B90ED0E0447B0981F2E3C49D370C514C,CMT,1,N,2013-01-23 15:42:24,2013-01-23 15:49:36,1,432,.70,-73.976135,40.75024,-73.983582,40.755543
4CF38C0C5DE00C68B5AFFF44857FE359,73C839CE30F75638FE591C7F07C4C468,CMT,1,N,2013-01-23 15:43:26,2013-01-23 15:50:06,1,400,1.00,-73.975136,40.75235,-73.963707,40.754475
589A1D907871256955793D7BF5A5FF72,1766DF6DEE8AF002FEAC38177AE4CD49,CMT,1,N,2013-01-23 15:46:28,2013-01-23 15:51:16,1,287,.70,-73.97757,40.786915,-73.967812,40.787975
C12D2CAA4235AAE317E6E92C477D3153,E9D86653B8B64046875B88EFC2607111,VTS,1,,2013-01-23 15:49:00,2013-01-23 16:01:00,5,720,1.86,-73.989815,40.762383,-73.985199,40.743591
F6B0E6F93A25D74EB79D804A085C8832,96549A049045E238E54F2B88836C4DF5,CMT,1,N,2013-01-23 15:54:11,2013-01-23 16:10:53,1,1001,2.10,-73.955879,40.787697,-73.960815,40.764168
BD7DDBAFAF0C3619EAABB85DDB742879,E89F453D50A9FFE22DF4560F9659BC87,CMT,1,N,2013-01-23 15:55:30,2013-01-23 16:26:06,3,1835,14.00,-73.786789,40.639759,-73.911026,40.758549
4C9315E335CA98E31059F95460001089,9CE27314187FEB6ED94B02126F2C8122,CMT,1,N,2013-01-23 15:56:02,2013-01-23 16:13:27,1,1044,3.20,-73.992683,40.759037,-73.95359,40.766953
589A1D907871256955793D7BF5A5FF72,1766DF6DEE8AF002FEAC38177AE4CD49,CMT,1,N,2013-01-23 15:56:19,2013-01-23 15:58:08,1,109,.60,-73.973549,40.789589,-73.969704,40.796322
4CF38C0C5DE00C68B5AFFF44857FE359,73C839CE30F75638FE591C7F07C4C468,CMT,1,N,2013-01-23 15:58:13,2013-01-23 16:00:47,1,154,.70,-73.954628,40.769825,-73.947487,40.779423
739540B8D61BB50FBAF51509EECEEA75,292D3E892682FC711CBC1024A944D474,CMT,1,N,2013-01-23 15:58:21,2013-01-23 16:04:02,1,341,1.00,-73.966621,40.773026,-73.978111,40.766529
C569C8910159E5BD1DDF4861EE8D7FF2,B90ED0E0447B0981F2E3C49D370C514C,CMT,1,N,2013-01-23 15:59:20,2013-01-23 16:10:31,1,671,1.80,-73.98555,40.747173,-74.004623,40.737541
589A1D907871256955793D7BF5A5FF72,1766DF6DEE8AF002FEAC38177AE4CD49,CMT,1,N,2013-01-23 16:01:42,2013-01-23 16:15:12,1,809,2.10,-73.97438,40.791447,-73.948143,40.77636
90444DF112C5770C8C82DE2A7930C69B,4455B28ACC85731A184353FA7C75FA86,CMT,1,N,2013-01-23 16:02:22,2013-01-23 16:23:25,1,1262,3.70,-73.996613,40.725266,-73.972473,40.762527
739540B8D61BB50FBAF51509EECEEA75,292D3E892682FC711CBC1024A944D474,CMT,1,N,2013-01-23 16:11:09,2013-01-23 16:15:00,1,231,.80,-73.982956,40.760658,-73.989426,40.750458
7DE03ADA92FBF31073DDF11CE229B9EC,8BF504A2DFD94D3FB000BF49719AAA9B,VTS,1,,2013-01-23 16:12:00,2013-01-23 16:39:00,1,1620,4.83,-73.862656,40.769032,-73.953377,40.741623
4C9315E335CA98E31059F95460001089,9CE27314187FEB6ED94B02126F2C8122,CMT,1,N,2013-01-23 16:14:12,2013-01-23 16:22:13,1,480,1.40,-73.95359,40.766956,-73.958443,40.781799
4CF38C0C5DE00C68B5AFFF44857FE359,73C839CE30F75638FE591C7F07C4C468,CMT,1,N,2013-01-23 16:15:19,2013-01-23 16:24:30,1,551,1.20,-73.954041,40.766483,-73.969872,40.762741
739540B8D61BB50FBAF51509EECEEA75,292D3E892682FC711CBC1024A944D474,CMT,1,N,2013-01-23 16:17:47,2013-01-23 16:22:39,1,292,.90,-73.995392,40.744583,-73.99456,40.753651
589A1D907871256955793D7BF5A5FF72,1766DF6DEE8AF002FEAC38177AE4CD49,CMT,1,N,2013-01-23 16:23:30,2013-01-23 16:25:29,1,118,.60,-73.951981,40.773209,-73.95443,40.778992
90444DF112C5770C8C82DE2A7930C69B,4455B28ACC85731A184353FA7C75FA86,CMT,1,N,2013-01-23 16:25:15,2013-01-23 16:43:53,1,1117,3.00,-73.976097,40.763882,-73.994713,40.733055
4C9315E335CA98E31059F95460001089,9CE27314187FEB6ED94B02126F2C8122,CMT,1,N,2013-01-23 16:28:19,2013-01-23 16:54:58,2,1599,6.00,-73.96627,40.773228,-73.943016,40.842499
6445A77D0238C473F7DD8B94A6955EA3,E7E6F9F97F18C35E0CC1AC3CCBBB4D08,VTS,1,,2013-01-23 16:29:00,2013-01-23 16:55:00,1,1560,4.62,-73.985573,40.778435,-73.997032,40.725021
589A1D907871256955793D7BF5A5FF72,1766DF6DEE8AF002FEAC38177AE4CD49,CMT,1,N,2013-01-23 16:29:06,2013-01-23 16:40:06,1,660,1.80,-73.954643,40.783741,-73.969818,40.799973
80B79425F9C2AB66A8E999D0554D5BE7,9DE07EB42B4AA5A46AB4C66A17D1E432,VTS,1,,2013-01-23 16:30:00,2013-01-23 16:41:00,1,660,1.57,-73.985207,40.731907,-74.003525,40.723682
739540B8D61BB50FBAF51509EECEEA75,292D3E892682FC711CBC1024A944D474,CMT,1,N,2013-01-23 16:33:46,2013-01-23 16:44:34,1,647,1.20,-74.0056,40.725784,-74.008728,40.711163
C569C8910159E5BD1DDF4861EE8D7FF2,B90ED0E0447B0981F2E3C49D370C514C,CMT,1,N,2013-01-23 16:42:53,2013-01-23 16:46:27,1,213,.80,-73.996849,40.752663,-73.995514,40.744678
C12D2CAA4235AAE317E6E92C477D3153,E9D86653B8B64046875B88EFC2607111,VTS,2,,2013-01-23 16:45:00,2013-01-23 16:48:00,5,180,.01,-73.776291,40.64566,-73.776375,40.645744
80B79425F9C2AB66A8E999D0554D5BE7,9DE07EB42B4AA5A46AB4C66A17D1E432,VTS,1,,2013-01-23 16:45:00,2013-01-23 16:49:00,1,240,.66,-73.999062,40.733971,-73.990974,40.734787
589A1D907871256955793D7BF5A5FF72,1766DF6DEE8AF002FEAC38177AE4CD49,CMT,1,N,2013-01-23 16:45:12,2013-01-23 16:53:16,1,483,1.70,-73.975052,40.790802,-73.955742,40.776279
7DE03ADA92FBF31073DDF11CE229B9EC,8BF504A2DFD94D3FB000BF49719AAA9B,VTS,1,,2013-01-23 16:48:00,2013-01-23 16:58:00,1,600,1.05,-73.986343,40.758785,-73.984962,40.754913
4C9315E335CA98E31059F95460001089,9CE27314187FEB6ED94B02126F2C8122,CMT,1,N,2013-01-23 16:56:43,2013-01-23 17:07:17,1,633,2.90,-73.942322,40.842167,-73.958824,40.809853
7DE03ADA92FBF31073DDF11CE229B9EC,8BF504A2DFD94D3FB000BF49719AAA9B,VTS,1,,2013-01-23 17:00:00,2013-01-23 17:10:00,1,600,1.60,-73.982681,40.753979,-73.993202,40.746662
B3F5EED48959DD8A2BE31E218A170C5D,D90CB340C3357F8A4D216B23C1F104E1,VTS,1,,2013-01-23 17:06:00,2013-01-23 17:17:00,2,660,2.18,-74.008408,40.720692,-73.992546,40.746178
4C9315E335CA98E31059F95460001089,9CE27314187FEB6ED94B02126F2C8122,CMT,1,N,2013-01-23 17:08:32,2013-01-23 17:12:01,1,208,.60,-73.960548,40.807522,-73.962433,40.799809
53718A9FF598B586DFEB9B5C7E59C906,6149FC16EC648D995CE08CF8C095C6C2,CMT,1,N,2013-01-23 17:09:39,2013-01-23 17:33:17,1,1418,6.80,-73.927589,40.811211,-73.831673,40.835091
7DE03ADA92FBF31073DDF11CE229B9EC,8BF504A2DFD94D3FB000BF49719AAA9B,VTS,1,,2013-01-23 17:11:00,2013-01-23 17:22:00,1,660,1.86,-73.99408,40.745956,-73.99144,40.727058
BD7DDBAFAF0C3619EAABB85DDB742879,E89F453D50A9FFE22DF4560F9659BC87,CMT,2,N,2013-01-23 17:15:19,2013-01-23 18:03:48,1,2909,14.00,-73.787033,40.645031,-73.982643,40.779942
4C9315E335CA98E31059F95460001089,9CE27314187FEB6ED94B02126F2C8122,CMT,1,N,2013-01-23 17:19:39,2013-01-23 17:25:00,1,321,1.10,-73.981041,40.774269,-73.974655,40.788437
B3F5EED48959DD8A2BE31E218A170C5D,D90CB340C3357F8A4D216B23C1F104E1,VTS,1,,2013-01-23 17:20:00,2013-01-23 17:29:00,2,540,.77,-73.988716,40.748569,-73.992958,40.756035
B3F5EED48959DD8A2BE31E218A170C5D,D90CB340C3357F8A4D216B23C1F104E1,VTS,1,,2013-01-23 17:37:00,2013-01-23 18:00:00,2,1380,1.65,-73.993134,40.752663,-73.995911,40.75909
4C9315E335CA98E31059F95460001089,9CE27314187FEB6ED94B02126F2C8122,CMT,1,N,2013-01-23 17:37:34,2013-01-23 17:55:47,1,1093,1.50,-73.984398,40.768196,-73.9981,40.75618
7DE03ADA92FBF31073DDF11CE229B9EC,8BF504A2DFD94D3FB000BF49719AAA9B,VTS,1,,2013-01-23 17:39:00,2013-01-23 17:59:00,1,1200,4.89,-73.99234,40.72459,-73.981758,40.778168
53718A9FF598B586DFEB9B5C7E59C906,6149FC16EC648D995CE08CF8C095C6C2,CMT,1,N,2013-01-23 17:56:07,2013-01-23 18:04:11,1,483,2.10,-73.938644,40.795914,-73.958321,40.768627
6FC04F89BE153CF9F982ECCB52431760,0BDE24681A08B6B72748AA1BC8A10BE7,CMT,1,N,2013-01-23 18:05:21,2013-01-23 18:13:33,2,492,.00,-73.974464,40.751186,-73.959251,40.7635
53718A9FF598B586DFEB9B5C7E59C906,6149FC16EC648D995CE08CF8C095C6C2,CMT,1,N,2013-01-23 18:06:04,2013-01-23 18:23:47,1,1062,2.70,-73.953934,40.766983,-73.971634,40.792107
4C9315E335CA98E31059F95460001089,9CE27314187FEB6ED94B02126F2C8122,CMT,1,N,2013-01-23 18:06:38,2013-01-23 18:15:55,1,556,1.80,-73.972389,40.772007,-73.958725,40.778049
7DE03ADA92FBF31073DDF11CE229B9EC,8BF504A2DFD94D3FB000BF49719AAA9B,VTS,1,,2013-01-23 18:08:00,2013-01-23 18:21:00,1,780,1.34,-73.966248,40.770733,-73.975227,40.75853
B3F5EED48959DD8A2BE31E218A170C5D,D90CB340C3357F8A4D216B23C1F104E1,VTS,1,,2013-01-23 18:09:00,2013-01-23 18:25:00,1,960,1.93,-73.99514,40.754803,-73.993721,40.734322
BD7DDBAFAF0C3619EAABB85DDB742879,E89F453D50A9FFE22DF4560F9659BC87,CMT,1,N,2013-01-23 18:11:44,2013-01-23 18:24:11,1,746,1.50,-73.990341,40.771633,-73.968208,40.76136
6FC04F89BE153CF9F982ECCB52431760,0BDE24681A08B6B72748AA1BC8A10BE7,CMT,1,N,2013-01-23 18:16:55,2013-01-23 18:33:19,1,983,2.50,-73.957001,40.766487,-73.975006,40.790394
C49E9852F88C785A94E8E57705C90B5C,F1594D359481D3069D9D806D2D501682,CMT,1,N,2013-01-23 18:20:52,2013-01-23 18:35:45,1,892,3.10,-73.969276,40.75034,-74.001945,40.726498
7DE03ADA92FBF31073DDF11CE229B9EC,8BF504A2DFD94D3FB000BF49719AAA9B,VTS,1,,2013-01-23 18:21:00,2013-01-23 18:37:00,1,960,1.60,-73.976418,40.758823,-73.984985,40.774155
B3F5EED48959DD8A2BE31E218A170C5D,D90CB340C3357F8A4D216B23C1F104E1,VTS,1,,2013-01-23 18:27:00,2013-01-23 18:32:00,1,300,.53,-73.992439,40.734634,-73.99884,40.734631
BD7DDBAFAF0C3619EAABB85DDB742879,E89F453D50A9FFE22DF4560F9659BC87,CMT,1,N,2013-01-23 18:28:08,2013-01-23 18:47:54,1,1185,6.30,-73.970932,40.751572,-74.016739,40.715256
B3F5EED48959DD8A2BE31E218A170C5D,D90CB340C3357F8A4D216B23C1F104E1,VTS,1,,2013-01-23 18:34:00,2013-01-23 18:46:00,1,720,1.76,-73.996918,40.737194,-73.982689,40.756351
C49E9852F88C785A94E8E57705C90B5C,F1594D359481D3069D9D806D2D501682,CMT,1,N,2013-01-23 18:36:59,2013-01-23 18:58:48,1,1308,2.90,-74.00325,40.727081,-73.986908,40.765171
C12D2CAA4235AAE317E6E92C477D3153,E9D86653B8B64046875B88EFC2607111,VTS,1,,2013-01-23 18:38:00,2013-01-23 18:41:00,5,180,.80,-73.982193,40.731911,-73.97477,40.741909
4C9315E335CA98E31059F95460001089,9CE27314187FEB6ED94B02126F2C8122,CMT,1,N,2013-01-23 18:39:08,2013-01-23 18:51:34,1,746,2.30,-73.955612,40.782784,-73.961128,40.756874
6FC04F89BE153CF9F982ECCB52431760,0BDE24681A08B6B72748AA1BC8A10BE7,CMT,1,N,2013-01-23 18:39:22,2013-01-23 18:48:09,1,526,1.90,-73.979515,40.78635,-73.959923,40.805309
53718A9FF598B586DFEB9B5C7E59C906,6149FC16EC648D995CE08CF8C095C6C2,CMT,1,Y,2013-01-23 18:40:41,2013-01-23 18:57:26,1,1004,3.10,-73.981766,40.762726,-74.004852,40.72316
B3F5EED48959DD8A2BE31E218A170C5D,D90CB340C3357F8A4D216B23C1F104E1,VTS,1,,2013-01-23 18:46:00,2013-01-23 18:58:00,1,720,1.90,-73.982224,40.756462,-73.986275,40.778831
BD7DDBAFAF0C3619EAABB85DDB742879,E89F453D50A9FFE22DF4560F9659BC87,CMT,1,N,2013-01-23 18:49:31,2013-01-23 18:57:39,1,488,1.60,-74.015915,40.715179,-74.00943,40.706261
7DE03ADA92FBF31073DDF11CE229B9EC,8BF504A2DFD94D3FB000BF49719AAA9B,VTS,1,,2013-01-23 18:56:00,2013-01-23 18:57:00,1,60,.60,-73.971802,40.781796,-73.966652,40.778244
4C9315E335CA98E31059F95460001089,9CE27314187FEB6ED94B02126F2C8122,CMT,1,N,2013-01-23 18:57:16,2013-01-23 19:09:07,2,710,2.20,-73.951874,40.769341,-73.969292,40.789421
BD7DDBAFAF0C3619EAABB85DDB742879,E89F453D50A9FFE22DF4560F9659BC87,CMT,1,N,2013-01-23 18:59:16,2013-01-23 19:10:43,1,686,1.20,-74.009499,40.706116,-73.994431,40.719223
53718A9FF598B586DFEB9B5C7E59C906,6149FC16EC648D995CE08CF8C095C6C2,CMT,1,N,2013-01-23 18:59:23,2013-01-23 19:05:23,1,360,1.30,-74.004784,40.723682,-73.992203,40.730736
6FC04F89BE153CF9F982ECCB52431760,0BDE24681A08B6B72748AA1BC8A10BE7,CMT,1,N,2013-01-23 19:00:40,2013-01-23 19:07:34,1,413,1.20,-73.978691,40.772564,-73.963776,40.76862
C49E9852F88C785A94E8E57705C90B5C,F1594D359481D3069D9D806D2D501682,CMT,1,N,2013-01-23 19:00:53,2013-01-23 19:11:51,1,658,1.30,-73.983261,40.763657,-73.991081,40.749855
B3F5EED48959DD8A2BE31E218A170C5D,D90CB340C3357F8A4D216B23C1F104E1,VTS,1,,2013-01-23 19:02:00,2013-01-23 19:09:00,1,420,1.32,-73.990028,40.775921,-73.980316,40.764973
7DE03ADA92FBF31073DDF11CE229B9EC,8BF504A2DFD94D3FB000BF49719AAA9B,VTS,1,,2013-01-23 19:03:00,2013-01-23 19:07:00,1,240,.72,-73.956619,40.771713,-73.955856,40.776424
53718A9FF598B586DFEB9B5C7E59C906,6149FC16EC648D995CE08CF8C095C6C2,CMT,1,N,2013-01-23 19:06:22,2013-01-23 19:10:50,1,267,.80,-73.991936,40.730721,-74.000969,40.720394
7DE03ADA92FBF31073DDF11CE229B9EC,8BF504A2DFD94D3FB000BF49719AAA9B,VTS,1,,2013-01-23 19:09:00,2013-01-23 19:24:00,1,900,3.37,-73.953865,40.779121,-73.946228,40.816425
B3F5EED48959DD8A2BE31E218A170C5D,D90CB340C3357F8A4D216B23C1F104E1,VTS,1,,2013-01-23 19:10:00,2013-01-23 19:18:00,2,480,1.00,-73.980896,40.765034,-73.982498,40.755779
4C9315E335CA98E31059F95460001089,9CE27314187FEB6ED94B02126F2C8122,CMT,1,N,2013-01-23 19:11:11,2013-01-23 19:40:27,1,1756,5.00,-73.970924,40.788578,-73.997559,40.730022
53718A9FF598B586DFEB9B5C7E59C906,6149FC16EC648D995CE08CF8C095C6C2,CMT,1,N,2013-01-23 19:11:44,2013-01-23 19:40:52,1,1748,1.10,-74.000877,40.720142,-73.981445,40.743954
6FC04F89BE153CF9F982ECCB52431760,0BDE24681A08B6B72748AA1BC8A10BE7,CMT,1,N,2013-01-23 19:12:53,2013-01-23 19:21:18,1,504,1.90,-73.971161,40.760792,-73.950356,40.78363
BD7DDBAFAF0C3619EAABB85DDB742879,E89F453D50A9FFE22DF4560F9659BC87,CMT,1,N,2013-01-23 19:14:03,2013-01-23 19:22:46,1,522,2.40,-73.996735,40.720715,-73.961136,40.714622
C49E9852F88C785A94E8E57705C90B5C,F1594D359481D3069D9D806D2D501682,CMT,1,N,2013-01-23 19:14:42,2013-01-23 19:33:49,1,1147,5.10,-74.000687,40.748177,-73.983063,40.677601
B3F5EED48959DD8A2BE31E218A170C5D,D90CB340C3357F8A4D216B23C1F104E1,VTS,1,,2013-01-23 19:19:00,2013-01-23 19:30:00,1,660,1.93,-73.982155,40.755939,-73.993011,40.732529
BD7DDBAFAF0C3619EAABB85DDB742879,E89F453D50A9FFE22DF4560F9659BC87,CMT,1,N,2013-01-23 19:23:54,2013-01-23 19:30:44,1,409,2.00,-73.960793,40.714928,-73.933517,40.705948
6FC04F89BE153CF9F982ECCB52431760,0BDE24681A08B6B72748AA1BC8A10BE7,CMT,1,N,2013-01-23 19:31:50,2013-01-23 19:38:44,1,413,.80,-73.963478,40.771671,-73.971855,40.764782
B3F5EED48959DD8A2BE31E218A170C5D,D90CB340C3357F8A4D216B23C1F104E1,VTS,1,,2013-01-23 19:32:00,2013-01-23 19:48:00,1,960,3.32,-73.993591,40.732067,-73.988167,40.768074
BD7DDBAFAF0C3619EAABB85DDB742879,E89F453D50A9FFE22DF4560F9659BC87,CMT,1,N,2013-01-23 19:39:00,2013-01-23 19:51:58,2,778,3.00,-73.940887,40.711937,-73.904297,40.725536
4C9315E335CA98E31059F95460001089,9CE27314187FEB6ED94B02126F2C8122,CMT,1,N,2013-01-23 19:42:12,2013-01-23 19:45:59,1,226,.50,-73.994553,40.728703,-73.987305,40.730019
6FC04F89BE153CF9F982ECCB52431760,0BDE24681A08B6B72748AA1BC8A10BE7,CMT,1,N,2013-01-23 19:43:20,2013-01-23 19:57:04,1,823,2.80,-73.977806,40.76321,-73.939674,40.752628
53718A9FF598B586DFEB9B5C7E59C906,6149FC16EC648D995CE08CF8C095C6C2,CMT,1,N,2013-01-23 19:44:19,2013-01-23 20:01:58,1,1059,2.80,-73.984268,40.742729,-74.011795,40.707336
B3F5EED48959DD8A2BE31E218A170C5D,D90CB340C3357F8A4D216B23C1F104E1,VTS,1,,2013-01-23 19:51:00,2013-01-23 20:00:00,2,540,1.83,-73.986259,40.767166,-74.003502,40.743511
4C9315E335CA98E31059F95460001089,9CE27314187FEB6ED94B02126F2C8122,CMT,1,N,2013-01-23 19:55:39,2013-01-23 19:58:30,1,171,.60,-73.976646,40.747501,-73.970451,40.755848
C49E9852F88C785A94E8E57705C90B5C,F1594D359481D3069D9D806D2D501682,CMT,1,Y,2013-01-23 19:59:27,2013-01-23 20:03:50,1,263,1.20,-74.012161,40.702084,-74.015854,40.715836
4C9315E335CA98E31059F95460001089,9CE27314187FEB6ED94B02126F2C8122,CMT,1,N,2013-01-23 20:00:21,2013-01-23 20:07:39,1,438,1.50,-73.968903,40.75737,-73.952141,40.769165
53718A9FF598B586DFEB9B5C7E59C906,6149FC16EC648D995CE08CF8C095C6C2,CMT,1,N,2013-01-23 20:02:35,2013-01-23 20:22:00,1,1164,3.40,-74.01284,40.707733,-73.994377,40.693096
B3F5EED48959DD8A2BE31E218A170C5D,D90CB340C3357F8A4D216B23C1F104E1,VTS,1,,2013-01-23 20:03:00,2013-01-23 20:16:00,2,780,3.41,-74.007668,40.740906,-73.988853,40.777828
6FC04F89BE153CF9F982ECCB52431760,0BDE24681A08B6B72748AA1BC8A10BE7,CMT,1,N,2013-01-23 20:04:43,2013-01-23 20:10:15,1,332,1.10,-73.973724,40.75333,-73.98465,40.738636
C49E9852F88C785A94E8E57705C90B5C,F1594D359481D3069D9D806D2D501682,CMT,1,Y,2013-01-23 20:05:56,2013-01-23 20:19:08,1,791,5.80,-74.014793,40.715473,-73.980057,40.744167
4C9315E335CA98E31059F95460001089,9CE27314187FEB6ED94B02126F2C8122,CMT,1,N,2013-01-23 20:10:26,2013-01-23 20:21:05,1,639,2.20,-73.953423,40.767628,-73.985008,40.768837
6FC04F89BE153CF9F982ECCB52431760,0BDE24681A08B6B72748AA1BC8A10BE7,CMT,1,N,2013-01-23 20:11:49,2013-01-23 20:19:18,1,448,1.00,-73.983704,40.738163,-73.996078,40.732105
B3F5EED48959DD8A2BE31E218A170C5D,D90CB340C3357F8A4D216B23C1F104E1,VTS,1,,2013-01-23 20:17:00,2013-01-23 20:21:00,1,240,.63,-73.987831,40.779606,-73.980225,40.783337
C12D2CAA4235AAE317E6E92C477D3153,E9D86653B8B64046875B88EFC2607111,VTS,1,,2013-01-23 20:20:00,2013-01-23 20:49:00,5,1740,18.89,-73.789818,40.644096,-73.913071,40.822075
C49E9852F88C785A94E8E57705C90B5C,F1594D359481D3069D9D806D2D501682,CMT,1,Y,2013-01-23 20:22:35,2013-01-23 20:38:47,1,971,6.40,-73.978935,40.750031,-73.935966,40.817039
6FC04F89BE153CF9F982ECCB52431760,0BDE24681A08B6B72748AA1BC8A10BE7,CMT,1,N,2013-01-23 20:22:40,2013-01-23 20:39:28,1,1007,5.40,-73.990532,40.730682,-73.942741,40.786011
4C9315E335CA98E31059F95460001089,9CE27314187FEB6ED94B02126F2C8122,CMT,1,N,2013-01-23 20:26:39,2013-01-23 20:47:38,2,1258,4.20,-73.989021,40.7603,-73.954567,40.783752
53718A9FF598B586DFEB9B5C7E59C906,6149FC16EC648D995CE08CF8C095C6C2,CMT,1,N,2013-01-23 20:28:57,2013-01-23 20:44:09,1,911,2.40,-73.99807,40.677811,-73.965263,40.688393
B3F5EED48959DD8A2BE31E218A170C5D,D90CB340C3357F8A4D216B23C1F104E1,VTS,1,,2013-01-23 20:34:00,2013-01-23 20:45:00,1,660,2.39,-73.981949,40.768101,-73.979836,40.743385
6FC04F89BE153CF9F982ECCB52431760,0BDE24681A08B6B72748AA1BC8A10BE7,CMT,1,N,2013-01-23 20:47:56,2013-01-23 20:58:44,1,647,3.10,-73.95842,40.775429,-73.964157,40.807617
53718A9FF598B586DFEB9B5C7E59C906,6149FC16EC648D995CE08CF8C095C6C2,CMT,1,N,2013-01-23 20:49:11,2013-01-23 20:54:30,1,318,1.10,-73.971977,40.68964,-73.987373,40.696346
B3F5EED48959DD8A2BE31E218A170C5D,D90CB340C3357F8A4D216B23C1F104E1,VTS,1,,2013-01-23 20:52:00,2013-01-23 21:02:00,1,600,1.40,-73.986031,40.730865,-73.997696,40.715343
4C9315E335CA98E31059F95460001089,9CE27314187FEB6ED94B02126F2C8122,CMT,1,N,2013-01-23 20:58:26,2013-01-23 21:10:14,1,708,2.20,-73.972984,40.755775,-73.989944,40.774879
6FC04F89BE153CF9F982ECCB52431760,0BDE24681A08B6B72748AA1BC8A10BE7,CMT,1,N,2013-01-23 21:02:09,2013-01-23 21:06:14,1,245,.80,-73.966347,40.803951,-73.972321,40.793964
B3F5EED48959DD8A2BE31E218A170C5D,D90CB340C3357F8A4D216B23C1F104E1,VTS,1,,2013-01-23 21:05:00,2013-01-23 21:16:00,1,660,2.31,-73.994392,40.719322,-73.974213,40.747322
53718A9FF598B586DFEB9B5C7E59C906,6149FC16EC648D995CE08CF8C095C6C2,CMT,1,Y,2013-01-23 21:11:50,2013-01-23 21:23:36,1,705,5.30,-74.009773,40.703316,-73.968727,40.755836
4C9315E335CA98E31059F95460001089,9CE27314187FEB6ED94B02126F2C8122,CMT,1,N,2013-01-23 21:21:56,2013-01-23 21:30:43,1,527,2.00,-73.973564,40.761936,-73.988174,40.77935
53718A9FF598B586DFEB9B5C7E59C906,6149FC16EC648D995CE08CF8C095C6C2,CMT,1,N,2013-01-23 21:27:36,2013-01-23 21:40:21,1,765,2.90,-73.970993,40.758869,-73.995522,40.723255
6FC04F89BE153CF9F982ECCB52431760,0BDE24681A08B6B72748AA1BC8A10BE7,CMT,5,N,2013-01-23 21:29:18,2013-01-23 21:41:43,1,745,.00,-74.027779,40.760323,-74.042542,40.716705
4C9315E335CA98E31059F95460001089,9CE27314187FEB6ED94B02126F2C8122,CMT,1,Y,2013-01-23 21:37:55,2013-01-23 22:08:44,1,1849,7.60,-73.991653,40.764729,-73.955292,40.683445
C49E9852F88C785A94E8E57705C90B5C,F1594D359481D3069D9D806D2D501682,CMT,1,Y,2013-01-23 21:39:39,2013-01-23 21:47:42,1,482,1.30,-73.988037,40.73621,-73.99057,40.750053
53718A9FF598B586DFEB9B5C7E59C906,6149FC16EC648D995CE08CF8C095C6C2,CMT,1,N,2013-01-23 21:44:49,2013-01-23 21:52:25,1,455,1.80,-73.995293,40.727215,-74.00631,40.70792
BD7DDBAFAF0C3619EAABB85DDB742879,E89F453D50A9FFE22DF4560F9659BC87,CMT,1,N,2013-01-23 21:46:31,2013-01-23 22:05:42,1,1150,11.50,-73.781883,40.644882,-73.878761,40.755566
7DE03ADA92FBF31073DDF11CE229B9EC,8BF504A2DFD94D3FB000BF49719AAA9B,VTS,2,,2013-01-23 21:47:00,2013-01-23 22:28:00,1,2460,18.48,-73.777924,40.64679,-73.983391,40.778446
C49E9852F88C785A94E8E57705C90B5C,F1594D359481D3069D9D806D2D501682,CMT,1,Y,2013-01-23 21:51:01,2013-01-23 21:56:58,1,357,1.80,-73.997612,40.741554,-74.003838,40.717335
C49E9852F88C785A94E8E57705C90B5C,F1594D359481D3069D9D806D2D501682,CMT,1,Y,2013-01-23 22:00:34,2013-01-23 22:11:11,1,637,1.30,-74.009933,40.720093,-74.008942,40.708267
53718A9FF598B586DFEB9B5C7E59C906,6149FC16EC648D995CE08CF8C095C6C2,CMT,1,N,2013-01-23 22:00:46,2013-01-23 22:11:39,1,652,2.10,-74.010323,40.709908,-73.978218,40.713375
B3F5EED48959DD8A2BE31E218A170C5D,D90CB340C3357F8A4D216B23C1F104E1,VTS,1,,2013-01-23 22:07:00,2013-01-23 22:11:00,2,240,.54,-73.98893,40.730949,-73.995598,40.73061
C49E9852F88C785A94E8E57705C90B5C,F1594D359481D3069D9D806D2D501682,CMT,1,Y,2013-01-23 22:14:22,2013-01-23 22:30:55,1,101,7.50,-74.011848,40.707455,-73.97007,40.793858
B3F5EED48959DD8A2BE31E218A170C5D,D90CB340C3357F8A4D216B23C1F104E1,VTS,1,,2013-01-23 22:16:00,2013-01-23 22:20:00,1,240,.54,-73.991043,40.734917,-73.986771,40.729939
53718A9FF598B586DFEB9B5C7E59C906,6149FC16EC648D995CE08CF8C095C6C2,CMT,1,N,2013-01-23 22:19:39,2013-01-23 22:28:00,1,500,2.70,-73.98912,40.721493,-73.959747,40.718124
B3F5EED48959DD8A2BE31E218A170C5D,D90CB340C3357F8A4D216B23C1F104E1,VTS,1,,2013-01-23 22:22:00,2013-01-23 22:43:00,2,1260,14.46,-73.989624,40.725887,-73.748451,40.750866
6FC04F89BE153CF9F982ECCB52431760,0BDE24681A08B6B72748AA1BC8A10BE7,CMT,1,N,2013-01-23 22:25:57,2013-01-23 22:40:07,1,850,3.20,-74.007843,40.71711,-73.980347,40.748146
4C9315E335CA98E31059F95460001089,9CE27314187FEB6ED94B02126F2C8122,CMT,1,N,2013-01-23 22:29:53,2013-01-23 22:47:07,1,1033,5.90,-73.979019,40.736366,-73.950233,40.806255
53718A9FF598B586DFEB9B5C7E59C906,6149FC16EC648D995CE08CF8C095C6C2,CMT,1,N,2013-01-23 22:32:21,2013-01-23 22:47:26,2,904,6.80,-73.955467,40.720116,-73.984299,40.664013
7DE03ADA92FBF31073DDF11CE229B9EC,8BF504A2DFD94D3FB000BF49719AAA9B,VTS,1,,2013-01-23 22:35:00,2013-01-23 22:53:00,1,1080,4.67,-73.990753,40.775227,-74.002708,40.718395
C49E9852F88C785A94E8E57705C90B5C,F1594D359481D3069D9D806D2D501682,CMT,1,Y,2013-01-23 22:38:44,2013-01-23 22:48:50,1,606,2.60,-73.968193,40.792164,-73.958084,40.765438
6FC04F89BE153CF9F982ECCB52431760,0BDE24681A08B6B72748AA1BC8A10BE7,CMT,1,N,2013-01-23 22:44:56,2013-01-23 22:53:05,1,488,1.50,-73.985489,40.743359,-73.999611,40.728539
C49E9852F88C785A94E8E57705C90B5C,F1594D359481D3069D9D806D2D501682,CMT,1,Y,2013-01-23 22:52:49,2013-01-23 23:19:40,1,1610,13.60,-73.958008,40.7654,-74.035988,40.638653
6FC04F89BE153CF9F982ECCB52431760,0BDE24681A08B6B72748AA1BC8A10BE7,CMT,1,N,2013-01-23 22:56:07,2013-01-23 23:02:37,1,389,.80,-74.004532,40.730545,-73.991295,40.726917
7DE03ADA92FBF31073DDF11CE229B9EC,8BF504A2DFD94D3FB000BF49719AAA9B,VTS,1,,2013-01-23 23:03:00,2013-01-23 23:26:00,1,1380,7.84,-74.010117,40.703266,-73.982079,40.777981
6FC04F89BE153CF9F982ECCB52431760,0BDE24681A08B6B72748AA1BC8A10BE7,CMT,1,N,2013-01-23 23:03:48,2013-01-23 23:07:37,1,229,.90,-73.98938,40.726181,-73.9814,40.736439
6FC04F89BE153CF9F982ECCB52431760,0BDE24681A08B6B72748AA1BC8A10BE7,CMT,1,N,2013-01-23 23:10:39,2013-01-23 23:16:19,1,339,1.30,-73.988968,40.739574,-73.993423,40.75256
B3F5EED48959DD8A2BE31E218A170C5D,D90CB340C3357F8A4D216B23C1F104E1,VTS,1,,2013-01-23 23:12:00,2013-01-23 23:20:00,1,480,1.28,-73.98214,40.727886,-73.997856,40.735859
53718A9FF598B586DFEB9B5C7E59C906,6149FC16EC648D995CE08CF8C095C6C2,CMT,1,Y,2013-01-23 23:18:23,2013-01-23 23:38:15,1,1192,4.60,-73.986687,40.702381,-74.009056,40.713226
6FC04F89BE153CF9F982ECCB52431760,0BDE24681A08B6B72748AA1BC8A10BE7,CMT,1,N,2013-01-23 23:23:07,2013-01-23 23:32:27,1,559,1.60,-73.985237,40.760315,-73.999214,40.744305
BD7DDBAFAF0C3619EAABB85DDB742879,E89F453D50A9FFE22DF4560F9659BC87,CMT,4,N,2013-01-23 23:23:39,2013-01-23 23:40:58,2,1039,8.50,-73.776711,40.645367,-73.681595,40.646271
B3F5EED48959DD8A2BE31E218A170C5D,D90CB340C3357F8A4D216B23C1F104E1,VTS,1,,2013-01-23 23:27:00,2013-01-23 23:32:00,1,300,1.11,-73.988777,40.748363,-73.982628,40.761589
B3F5EED48959DD8A2BE31E218A170C5D,D90CB340C3357F8A4D216B23C1F104E1,VTS,1,,2013-01-23 23:36:00,2013-01-23 23:51:00,1,900,3.53,-73.986328,40.760132,-73.95491,40.804947
C49E9852F88C785A94E8E57705C90B5C,F1594D359481D3069D9D806D2D501682,CMT,1,Y,2013-01-23 23:36:50,2013-01-23 23:43:18,1,388,1.50,-73.997536,40.721287,-73.985481,40.738552
53718A9FF598B586DFEB9B5C7E59C906,6149FC16EC648D995CE08CF8C095C6C2,CMT,1,Y,2013-01-23 23:39:24,2013-01-24 00:00:32,1,1268,5.80,-74.00882,40.713688,-73.955635,40.781204
C12D2CAA4235AAE317E6E92C477D3153,E9D86653B8B64046875B88EFC2607111,VTS,2,,2013-01-23 23:41:00,2013-01-23 23:41:00,5,0,.00,-74.004333,40.722038,-74.004333,40.722038
4C9315E335CA98E31059F95460001089,9CE27314187FEB6ED94B02126F2C8122,CMT,1,N,2013-01-23 23:43:42,2013-01-23 23:49:20,1,337,1.30,-73.979553,40.743988,-73.964783,40.755863
4C9315E335CA98E31059F95460001089,9CE27314187FEB6ED94B02126F2C8122,CMT,1,N,2013-01-23 23:50:12,2013-01-23 23:52:34,2,141,.60,-73.964653,40.755856,-73.959457,40.764294
