5D4C105C32FB4E64D50BC8EC88AE4C41,2F64CA17B630824503901B523C949AE6,VTS,1,,2013-01-17 00:11:00,2013-01-17 00:15:00,2,240,.93,-73.989685,40.739105,-74.004501,40.743153
5D4C105C32FB4E64D50BC8EC88AE4C41,2F64CA17B630824503901B523C949AE6,VTS,1,,2013-01-17 00:20:00,2013-01-17 00:42:00,2,1320,9.12,-74.006035,40.742435,-74.005852,40.640102
306220DBC5AA9D8B1F972D6C96713E45,5F3BF133BA4A70D99AD877BF9B217B0A,CMT,1,N,2013-01-17 00:21:17,2013-01-17 00:32:17,1,659,3.30,-73.988739,40.670197,-73.949287,40.67001
6FC04F89BE153CF9F982ECCB52431760,0BDE24681A08B6B72748AA1BC8A10BE7,CMT,5,N,2013-01-17 00:23:20,2013-01-17 00:48:06,1,1485,7.10,-73.986359,40.761612,-74.042778,40.715397
C49E9852F88C785A94E8E57705C90B5C,F1594D359481D3069D9D806D2D501682,CMT,1,N,2013-01-17 00:38:21,2013-01-17 00:42:35,1,253,.90,-73.989723,40.743912,-74.001137,40.741722
5D4C105C32FB4E64D50BC8EC88AE4C41,2F64CA17B630824503901B523C949AE6,VTS,1,,2013-01-17 00:49:00,2013-01-17 01:14:00,2,1500,5.93,-74.006584,40.652309,-73.929878,40.694126
306220DBC5AA9D8B1F972D6C96713E45,5F3BF133BA4A70D99AD877BF9B217B0A,CMT,1,N,2013-01-17 00:54:47,2013-01-17 01:03:44,2,536,3.00,-73.987968,40.729519,-73.967636,40.764408
306220DBC5AA9D8B1F972D6C96713E45,5F3BF133BA4A70D99AD877BF9B217B0A,CMT,1,N,2013-01-17 01:09:58,2013-01-17 01:13:54,1,235,.70,-73.97934,40.763412,-73.989883,40.764694
306220DBC5AA9D8B1F972D6C96713E45,5F3BF133BA4A70D99AD877BF9B217B0A,CMT,1,N,2013-01-17 01:19:09,2013-01-17 01:33:35,2,865,7.70,-73.986717,40.762447,-73.938484,40.845367
6FC04F89BE153CF9F982ECCB52431760,0BDE24681A08B6B72748AA1BC8A10BE7,CMT,5,N,2013-01-17 01:24:16,2013-01-17 01:38:23,1,847,6.60,-73.98246,40.759991,-74.032806,40.746811
C49E9852F88C785A94E8E57705C90B5C,F1594D359481D3069D9D806D2D501682,CMT,1,Y,2013-01-17 01:29:56,2013-01-17 01:51:46,1,1309,7.80,-73.988914,40.73658,-73.887512,40.736877
5D4C105C32FB4E64D50BC8EC88AE4C41,2F64CA17B630824503901B523C949AE6,VTS,1,,2013-01-17 01:43:00,2013-01-17 01:53:00,2,600,2.24,-74.004364,40.742069,-73.984093,40.725517
306220DBC5AA9D8B1F972D6C96713E45,5F3BF133BA4A70D99AD877BF9B217B0A,CMT,1,N,2013-01-17 01:47:10,2013-01-17 01:50:32,1,201,.90,-73.991615,40.770348,-73.983658,40.762295
6FC04F89BE153CF9F982ECCB52431760,0BDE24681A08B6B72748AA1BC8A10BE7,CMT,1,N,2013-01-17 01:57:48,2013-01-17 02:07:45,1,597,2.90,-73.980942,40.759319,-73.96209,40.796452
306220DBC5AA9D8B1F972D6C96713E45,5F3BF133BA4A70D99AD877BF9B217B0A,CMT,1,N,2013-01-17 02:00:05,2013-01-17 02:28:36,1,1710,12.40,-73.970757,40.7565,-73.849098,40.863892
5D4C105C32FB4E64D50BC8EC88AE4C41,2F64CA17B630824503901B523C949AE6,VTS,1,,2013-01-17 02:15:00,2013-01-17 02:21:00,2,360,.95,-73.980965,40.763924,-73.9851,40.756443
3246AA03B718062309B61CEFEDA6C60A,79F8BC483D5BD960CCF3169E6A42793C,VTS,1,,2013-01-17 04:31:00,2013-01-17 04:41:00,1,600,4.41,-73.982925,40.730705,-73.950447,40.783516
3246AA03B718062309B61CEFEDA6C60A,79F8BC483D5BD960CCF3169E6A42793C,VTS,1,,2013-01-17 04:46:00,2013-01-17 04:50:00,1,240,1.52,-73.954399,40.769901,-73.941612,40.787563
3C52CFC36C88425F78C399D15131CD36,C5C387AD27C255587105FDDC437D7F09,VTS,1,,2013-01-17 04:50:00,2013-01-17 04:57:00,1,420,2.06,-73.952545,40.772346,-73.977615,40.763103
64AA3412C7E29AA863D269B2A345A039,DD6A3C01E68EA266E1F553B236BBBB1C,CMT,3,N,2013-01-17 05:10:52,2013-01-17 05:31:20,1,1227,13.60,-74.006416,40.734268,-74.177109,40.694965
0A39EB3AB3A2F35404F5188655AF4504,73C839CE30F75638FE591C7F07C4C468,CMT,2,N,2013-01-17 05:11:58,2013-01-17 05:43:53,1,1914,21.10,-73.988747,40.77771,-73.78228,40.646774
3C52CFC36C88425F78C399D15131CD36,C5C387AD27C255587105FDDC437D7F09,VTS,1,,2013-01-17 05:18:00,2013-01-17 05:22:00,1,240,.86,-73.989838,40.756626,-73.980927,40.757648
3246AA03B718062309B61CEFEDA6C60A,79F8BC483D5BD960CCF3169E6A42793C,VTS,2,,2013-01-17 05:21:00,2013-01-17 05:39:00,1,1080,16.12,-73.982185,40.740292,-73.806885,40.65892
3C52CFC36C88425F78C399D15131CD36,C5C387AD27C255587105FDDC437D7F09,VTS,1,,2013-01-17 05:52:00,2013-01-17 05:54:00,1,120,.59,-73.963821,40.767895,-73.954803,40.765423
3C52CFC36C88425F78C399D15131CD36,C5C387AD27C255587105FDDC437D7F09,VTS,1,,2013-01-17 05:58:00,2013-01-17 06:06:00,1,480,1.78,-73.951538,40.770046,-73.972237,40.760818
90444DF112C5770C8C82DE2A7930C69B,4455B28ACC85731A184353FA7C75FA86,CMT,1,N,2013-01-17 05:59:49,2013-01-17 06:20:02,1,1212,15.20,-73.985275,40.722042,-73.865433,40.77079
3246AA03B718062309B61CEFEDA6C60A,79F8BC483D5BD960CCF3169E6A42793C,VTS,1,,2013-01-17 06:18:00,2013-01-17 06:30:00,1,720,3.69,-73.987404,40.724861,-73.97831,40.685112
64AA3412C7E29AA863D269B2A345A039,DD6A3C01E68EA266E1F553B236BBBB1C,CMT,1,N,2013-01-17 06:22:37,2013-01-17 06:27:38,1,301,1.90,-73.99176,40.749477,-73.973206,40.764233
3C52CFC36C88425F78C399D15131CD36,C5C387AD27C255587105FDDC437D7F09,VTS,1,,2013-01-17 06:26:00,2013-01-17 06:42:00,1,960,5.52,-73.945763,40.777824,-74.00264,40.733772
0A39EB3AB3A2F35404F5188655AF4504,73C839CE30F75638FE591C7F07C4C468,CMT,1,N,2013-01-17 06:35:40,2013-01-17 06:42:38,1,417,1.80,-74.005455,40.748264,-73.992516,40.730022
64AA3412C7E29AA863D269B2A345A039,DD6A3C01E68EA266E1F553B236BBBB1C,CMT,1,N,2013-01-17 06:35:51,2013-01-17 06:43:22,2,450,1.50,-73.989822,40.750656,-73.96756,40.74577
3246AA03B718062309B61CEFEDA6C60A,79F8BC483D5BD960CCF3169E6A42793C,VTS,1,,2013-01-17 06:37:00,2013-01-17 06:53:00,1,960,5.41,-73.989304,40.688782,-73.985153,40.753258
83D30B1DDEB63761051E96590CE912D9,B7856DD328B940C70DDB6E5BF8988372,CMT,1,N,2013-01-17 06:43:28,2013-01-17 06:44:45,1,77,.30,-73.947121,40.775604,-73.944633,40.779205
3C52CFC36C88425F78C399D15131CD36,C5C387AD27C255587105FDDC437D7F09,VTS,1,,2013-01-17 06:45:00,2013-01-17 06:48:00,1,180,1.16,-74.00045,40.732185,-73.989189,40.742451
83D30B1DDEB63761051E96590CE912D9,B7856DD328B940C70DDB6E5BF8988372,CMT,1,N,2013-01-17 06:46:24,2013-01-17 06:57:02,1,638,3.20,-73.945229,40.778782,-73.980606,40.754269
64AA3412C7E29AA863D269B2A345A039,DD6A3C01E68EA266E1F553B236BBBB1C,CMT,1,N,2013-01-17 06:48:26,2013-01-17 06:53:16,1,289,1.10,-73.967422,40.75293,-73.955795,40.763691
0A39EB3AB3A2F35404F5188655AF4504,73C839CE30F75638FE591C7F07C4C468,CMT,1,N,2013-01-17 06:49:37,2013-01-17 06:59:21,1,583,2.00,-73.996536,40.731194,-74.013885,40.714027
C569C8910159E5BD1DDF4861EE8D7FF2,B90ED0E0447B0981F2E3C49D370C514C,CMT,1,N,2013-01-17 06:49:43,2013-01-17 06:52:32,1,169,.50,-74.00396,40.728451,-74.006927,40.732922
CD98CA13911488D180A72A1039A44B85,CF72DC38A57DE4A517B4FE23C0B2462A,VTS,1,,2013-01-17 06:52:00,2013-01-17 06:56:00,2,240,.58,-73.944893,40.802757,-73.93956,40.803913
589A1D907871256955793D7BF5A5FF72,1766DF6DEE8AF002FEAC38177AE4CD49,CMT,1,N,2013-01-17 06:52:33,2013-01-17 06:56:37,1,244,1.50,-73.971619,40.792118,-73.957726,40.811069
3C52CFC36C88425F78C399D15131CD36,C5C387AD27C255587105FDDC437D7F09,VTS,1,,2013-01-17 06:55:00,2013-01-17 07:02:00,1,420,2.11,-73.982384,40.748074,-73.965576,40.774315
C569C8910159E5BD1DDF4861EE8D7FF2,B90ED0E0447B0981F2E3C49D370C514C,CMT,1,N,2013-01-17 06:56:30,2013-01-17 07:04:55,1,504,2.10,-74.003876,40.73822,-73.983452,40.761349
31D5AAB6D05087D01621FCB2586F367C,C88C91AB920728433259DA21DF5815DB,CMT,1,N,2013-01-17 06:57:01,2013-01-17 07:01:40,1,279,1.60,-73.993324,40.733364,-73.987213,40.752022
64AA3412C7E29AA863D269B2A345A039,DD6A3C01E68EA266E1F553B236BBBB1C,CMT,1,N,2013-01-17 06:58:06,2013-01-17 07:04:09,2,363,1.40,-73.957108,40.768261,-73.970306,40.753033
3246AA03B718062309B61CEFEDA6C60A,79F8BC483D5BD960CCF3169E6A42793C,VTS,1,,2013-01-17 07:00:00,2013-01-17 07:01:00,1,60,.54,-73.987953,40.750748,-73.984367,40.754784
2F7430A075A7A4F9D4DA93F3BF4C49E0,C617C18C8270F35E970788CFA4B976B0,VTS,1,,2013-01-17 07:01:00,2013-01-17 07:07:00,1,360,.88,-73.987892,40.719021,-73.983673,40.72142
83D30B1DDEB63761051E96590CE912D9,B7856DD328B940C70DDB6E5BF8988372,CMT,1,N,2013-01-17 07:05:09,2013-01-17 07:09:20,1,250,1.20,-73.97245,40.746075,-73.971275,40.758175
64AA3412C7E29AA863D269B2A345A039,DD6A3C01E68EA266E1F553B236BBBB1C,CMT,1,N,2013-01-17 07:05:24,2013-01-17 07:08:40,1,195,1.00,-73.973351,40.753124,-73.983452,40.744026
31D5AAB6D05087D01621FCB2586F367C,C88C91AB920728433259DA21DF5815DB,CMT,1,N,2013-01-17 07:07:49,2013-01-17 07:18:01,1,611,2.60,-73.989075,40.740543,-74.01078,40.708641
3246AA03B718062309B61CEFEDA6C60A,79F8BC483D5BD960CCF3169E6A42793C,VTS,1,,2013-01-17 07:10:00,2013-01-17 07:17:00,1,420,1.56,-73.991501,40.748772,-73.981911,40.736511
80B79425F9C2AB66A8E999D0554D5BE7,9DE07EB42B4AA5A46AB4C66A17D1E432,VTS,1,,2013-01-17 07:11:00,2013-01-17 07:22:00,1,660,3.34,-73.998978,40.688625,-74.008621,40.719143
0A39EB3AB3A2F35404F5188655AF4504,73C839CE30F75638FE591C7F07C4C468,CMT,1,N,2013-01-17 07:11:07,2013-01-17 07:13:31,1,144,.90,-74.004158,40.738071,-73.994881,40.750191
CD98CA13911488D180A72A1039A44B85,CF72DC38A57DE4A517B4FE23C0B2462A,VTS,1,,2013-01-17 07:12:00,2013-01-17 07:14:00,2,120,.54,-73.946388,40.78093,-73.949715,40.785316
3C52CFC36C88425F78C399D15131CD36,C5C387AD27C255587105FDDC437D7F09,VTS,1,,2013-01-17 07:12:00,2013-01-17 07:25:00,1,780,2.56,-73.961601,40.764347,-73.991653,40.749626
589A1D907871256955793D7BF5A5FF72,1766DF6DEE8AF002FEAC38177AE4CD49,CMT,1,N,2013-01-17 07:12:16,2013-01-17 07:19:21,1,425,1.70,-73.982368,40.782867,-73.984169,40.760712
64AA3412C7E29AA863D269B2A345A039,DD6A3C01E68EA266E1F553B236BBBB1C,CMT,1,N,2013-01-17 07:12:18,2013-01-17 07:39:17,1,1618,6.70,-73.990013,40.741741,-73.933243,40.689041
83D30B1DDEB63761051E96590CE912D9,B7856DD328B940C70DDB6E5BF8988372,CMT,1,N,2013-01-17 07:14:01,2013-01-17 07:17:45,1,224,.90,-73.961685,40.755936,-73.953163,40.765163
C569C8910159E5BD1DDF4861EE8D7FF2,B90ED0E0447B0981F2E3C49D370C514C,CMT,1,N,2013-01-17 07:14:06,2013-01-17 07:22:03,1,476,1.00,-73.989845,40.757504,-73.97554,40.756439
0A39EB3AB3A2F35404F5188655AF4504,73C839CE30F75638FE591C7F07C4C468,CMT,1,N,2013-01-17 07:14:59,2013-01-17 07:19:33,1,274,.80,-73.994141,40.751152,-73.985947,40.762344
CD98CA13911488D180A72A1039A44B85,CF72DC38A57DE4A517B4FE23C0B2462A,VTS,1,,2013-01-17 07:18:00,2013-01-17 07:26:00,2,480,1.71,-73.955246,40.782818,-73.971375,40.764923
3246AA03B718062309B61CEFEDA6C60A,79F8BC483D5BD960CCF3169E6A42793C,VTS,1,,2013-01-17 07:23:00,2013-01-17 07:31:00,1,480,2.45,-73.978989,40.736347,-73.97863,40.761826
589A1D907871256955793D7BF5A5FF72,1766DF6DEE8AF002FEAC38177AE4CD49,CMT,1,N,2013-01-17 07:24:38,2013-01-17 07:27:05,1,147,.90,-73.984955,40.766384,-73.992409,40.75668
3C52CFC36C88425F78C399D15131CD36,C5C387AD27C255587105FDDC437D7F09,VTS,1,,2013-01-17 07:26:00,2013-01-17 07:36:00,1,600,1.44,-73.991753,40.749641,-73.978294,40.759918
0A39EB3AB3A2F35404F5188655AF4504,73C839CE30F75638FE591C7F07C4C468,CMT,1,N,2013-01-17 07:27:31,2013-01-17 07:28:16,1,45,.00,-73.993866,40.761963,-73.993866,40.761963
589A1D907871256955793D7BF5A5FF72,1766DF6DEE8AF002FEAC38177AE4CD49,CMT,1,N,2013-01-17 07:28:41,2013-01-17 07:36:18,1,457,1.00,-73.9925,40.756508,-73.985474,40.747448
CD98CA13911488D180A72A1039A44B85,CF72DC38A57DE4A517B4FE23C0B2462A,VTS,1,,2013-01-17 07:30:00,2013-01-17 07:43:00,2,780,3.15,-73.969872,40.763199,-74.000267,40.734016
2F7430A075A7A4F9D4DA93F3BF4C49E0,C617C18C8270F35E970788CFA4B976B0,VTS,1,,2013-01-17 07:31:00,2013-01-17 07:33:00,1,120,.63,-73.989006,40.721691,-73.984886,40.728184
739540B8D61BB50FBAF51509EECEEA75,292D3E892682FC711CBC1024A944D474,CMT,1,N,2013-01-17 07:32:11,2013-01-17 07:40:21,1,489,1.00,-73.995277,40.760307,-73.985367,40.773502
90444DF112C5770C8C82DE2A7930C69B,4455B28ACC85731A184353FA7C75FA86,CMT,1,N,2013-01-17 07:32:13,2013-01-17 07:59:45,1,1651,10.50,-73.863167,40.769344,-73.970085,40.794857
C569C8910159E5BD1DDF4861EE8D7FF2,B90ED0E0447B0981F2E3C49D370C514C,CMT,1,N,2013-01-17 07:33:59,2013-01-17 07:39:05,1,306,1.10,-73.973175,40.755779,-73.98204,40.745838
2F7430A075A7A4F9D4DA93F3BF4C49E0,C617C18C8270F35E970788CFA4B976B0,VTS,1,,2013-01-17 07:35:00,2013-01-17 07:43:00,1,480,1.62,-73.982071,40.731949,-73.971909,40.749184
0A39EB3AB3A2F35404F5188655AF4504,73C839CE30F75638FE591C7F07C4C468,CMT,1,N,2013-01-17 07:35:26,2013-01-17 07:52:08,1,1001,3.50,-73.98967,40.772728,-73.98172,40.736652
3246AA03B718062309B61CEFEDA6C60A,79F8BC483D5BD960CCF3169E6A42793C,VTS,1,,2013-01-17 07:36:00,2013-01-17 07:46:00,1,600,2.19,-73.981537,40.763481,-74.00367,40.743359
F6B0E6F93A25D74EB79D804A085C8832,96549A049045E238E54F2B88836C4DF5,CMT,1,N,2013-01-17 07:39:26,2013-01-17 07:54:15,1,888,4.50,-73.922997,40.760887,-73.91964,40.808617
83D30B1DDEB63761051E96590CE912D9,B7856DD328B940C70DDB6E5BF8988372,CMT,1,N,2013-01-17 07:39:37,2013-01-17 07:56:20,1,1002,3.20,-73.948547,40.777966,-73.976021,40.763866
589A1D907871256955793D7BF5A5FF72,1766DF6DEE8AF002FEAC38177AE4CD49,CMT,1,N,2013-01-17 07:40:31,2013-01-17 07:45:41,1,309,.90,-73.979416,40.744518,-73.987083,40.752155
C569C8910159E5BD1DDF4861EE8D7FF2,B90ED0E0447B0981F2E3C49D370C514C,CMT,1,N,2013-01-17 07:40:53,2013-01-17 08:00:43,1,1190,6.70,-73.982086,40.746094,-73.945259,40.808342
31D5AAB6D05087D01621FCB2586F367C,C88C91AB920728433259DA21DF5815DB,CMT,1,N,2013-01-17 07:42:46,2013-01-17 07:53:06,1,620,3.00,-74.000191,40.726944,-73.969612,40.757
739540B8D61BB50FBAF51509EECEEA75,292D3E892682FC711CBC1024A944D474,CMT,1,N,2013-01-17 07:43:20,2013-01-17 07:50:02,1,402,1.60,-73.979256,40.781967,-73.967361,40.770859
3C52CFC36C88425F78C399D15131CD36,C5C387AD27C255587105FDDC437D7F09,VTS,1,,2013-01-17 07:44:00,2013-01-17 07:49:00,1,300,.30,-73.971886,40.757133,-73.975021,40.753513
CD98CA13911488D180A72A1039A44B85,CF72DC38A57DE4A517B4FE23C0B2462A,VTS,1,,2013-01-17 07:46:00,2013-01-17 08:01:00,2,900,3.23,-74.00631,40.733189,-73.975281,40.764359
2F7430A075A7A4F9D4DA93F3BF4C49E0,C617C18C8270F35E970788CFA4B976B0,VTS,1,,2013-01-17 07:47:00,2013-01-17 08:02:00,1,900,6.18,-73.970146,40.749763,-74.013496,40.714558
80B79425F9C2AB66A8E999D0554D5BE7,9DE07EB42B4AA5A46AB4C66A17D1E432,VTS,1,,2013-01-17 07:48:00,2013-01-17 07:57:00,1,540,2.62,-74.00827,40.721725,-73.989494,40.747353
589A1D907871256955793D7BF5A5FF72,1766DF6DEE8AF002FEAC38177AE4CD49,CMT,1,N,2013-01-17 07:49:33,2013-01-17 07:59:07,1,573,1.00,-73.990067,40.756298,-73.978973,40.755955
3246AA03B718062309B61CEFEDA6C60A,79F8BC483D5BD960CCF3169E6A42793C,VTS,1,,2013-01-17 07:50:00,2013-01-17 07:59:00,1,540,1.56,-74.001045,40.741779,-73.986046,40.762161
3C52CFC36C88425F78C399D15131CD36,C5C387AD27C255587105FDDC437D7F09,VTS,1,,2013-01-17 07:52:00,2013-01-17 08:13:00,1,1260,5.20,-73.977577,40.754833,-74.005577,40.705952
739540B8D61BB50FBAF51509EECEEA75,292D3E892682FC711CBC1024A944D474,CMT,1,N,2013-01-17 07:53:28,2013-01-17 08:04:34,1,665,2.00,-73.963341,40.774319,-73.982681,40.75502
0A39EB3AB3A2F35404F5188655AF4504,73C839CE30F75638FE591C7F07C4C468,CMT,1,N,2013-01-17 07:53:53,2013-01-17 08:01:35,1,461,.00,-73.985397,40.731838,-73.986427,40.732044
64AA3412C7E29AA863D269B2A345A039,DD6A3C01E68EA266E1F553B236BBBB1C,CMT,1,N,2013-01-17 07:58:37,2013-01-17 08:07:13,1,516,2.50,-73.983276,40.693783,-73.996239,40.72533
80B79425F9C2AB66A8E999D0554D5BE7,9DE07EB42B4AA5A46AB4C66A17D1E432,VTS,1,,2013-01-17 07:59:00,2013-01-17 08:10:00,1,660,1.16,-73.987129,40.750645,-73.973686,40.753822
31D5AAB6D05087D01621FCB2586F367C,C88C91AB920728433259DA21DF5815DB,CMT,1,N,2013-01-17 07:59:41,2013-01-17 08:05:06,1,325,1.30,-73.962608,40.767124,-73.957756,40.78257
0A39EB3AB3A2F35404F5188655AF4504,73C839CE30F75638FE591C7F07C4C468,CMT,1,N,2013-01-17 08:04:01,2013-01-17 08:22:03,1,1081,2.30,-73.987526,40.732533,-74.005905,40.706276
31D5AAB6D05087D01621FCB2586F367C,C88C91AB920728433259DA21DF5815DB,CMT,1,N,2013-01-17 08:05:59,2013-01-17 08:14:39,1,519,1.50,-73.957611,40.782745,-73.96627,40.765419
2F7430A075A7A4F9D4DA93F3BF4C49E0,C617C18C8270F35E970788CFA4B976B0,VTS,1,,2013-01-17 08:06:00,2013-01-17 08:08:00,1,120,.51,-74.009071,40.726048,-74.007607,40.732567
C569C8910159E5BD1DDF4861EE8D7FF2,B90ED0E0447B0981F2E3C49D370C514C,CMT,1,N,2013-01-17 08:06:24,2013-01-17 08:13:05,1,401,1.30,-73.956276,40.803329,-73.939056,40.804688
589A1D907871256955793D7BF5A5FF72,1766DF6DEE8AF002FEAC38177AE4CD49,CMT,1,N,2013-01-17 08:06:57,2013-01-17 08:19:44,1,767,2.30,-73.979385,40.747124,-73.960388,40.774734
CD98CA13911488D180A72A1039A44B85,CF72DC38A57DE4A517B4FE23C0B2462A,VTS,1,,2013-01-17 08:07:00,2013-01-17 08:22:00,2,900,3.68,-73.98098,40.76387,-74.009888,40.721565
739540B8D61BB50FBAF51509EECEEA75,292D3E892682FC711CBC1024A944D474,CMT,1,N,2013-01-17 08:07:59,2013-01-17 08:14:57,1,418,.80,-73.988998,40.758289,-73.977028,40.755386
83D30B1DDEB63761051E96590CE912D9,B7856DD328B940C70DDB6E5BF8988372,CMT,1,N,2013-01-17 08:08:00,2013-01-17 08:20:13,1,732,2.00,-73.957458,40.774036,-73.975197,40.754948
64AA3412C7E29AA863D269B2A345A039,DD6A3C01E68EA266E1F553B236BBBB1C,CMT,1,N,2013-01-17 08:08:16,2013-01-17 08:16:46,1,509,1.40,-73.996368,40.725365,-74.009804,40.721336
90444DF112C5770C8C82DE2A7930C69B,4455B28ACC85731A184353FA7C75FA86,CMT,1,N,2013-01-17 08:08:33,2013-01-17 08:24:55,1,982,2.30,-73.981895,40.77964,-73.970558,40.755741
2F7430A075A7A4F9D4DA93F3BF4C49E0,C617C18C8270F35E970788CFA4B976B0,VTS,1,,2013-01-17 08:12:00,2013-01-17 08:25:00,1,780,1.90,-74.007698,40.732151,-73.987061,40.750755
6445A77D0238C473F7DD8B94A6955EA3,E7E6F9F97F18C35E0CC1AC3CCBBB4D08,VTS,1,,2013-01-17 08:14:00,2013-01-17 08:27:00,1,780,2.78,-73.994324,40.698456,-74.0103,40.701897
31D5AAB6D05087D01621FCB2586F367C,C88C91AB920728433259DA21DF5815DB,CMT,1,N,2013-01-17 08:18:24,2013-01-17 08:31:03,1,758,1.30,-73.963409,40.764801,-73.978455,40.759197
64AA3412C7E29AA863D269B2A345A039,DD6A3C01E68EA266E1F553B236BBBB1C,CMT,1,N,2013-01-17 08:18:50,2013-01-17 08:28:44,1,593,2.60,-74.009155,40.719482,-73.991982,40.754181
80B79425F9C2AB66A8E999D0554D5BE7,9DE07EB42B4AA5A46AB4C66A17D1E432,VTS,1,,2013-01-17 08:19:00,2013-01-17 08:34:00,1,900,1.60,-73.978775,40.740841,-73.985725,40.752796
3C52CFC36C88425F78C399D15131CD36,C5C387AD27C255587105FDDC437D7F09,VTS,1,,2013-01-17 08:20:00,2013-01-17 08:42:00,1,1320,4.17,-74.00602,40.704529,-73.985367,40.741512
589A1D907871256955793D7BF5A5FF72,1766DF6DEE8AF002FEAC38177AE4CD49,CMT,1,N,2013-01-17 08:20:33,2013-01-17 08:28:19,1,466,.90,-73.960281,40.774712,-73.947746,40.771931
F6B0E6F93A25D74EB79D804A085C8832,96549A049045E238E54F2B88836C4DF5,CMT,1,N,2013-01-17 08:20:59,2013-01-17 08:39:03,1,1083,2.40,-73.967178,40.803696,-73.957581,40.778561
739540B8D61BB50FBAF51509EECEEA75,292D3E892682FC711CBC1024A944D474,CMT,1,N,2013-01-17 08:21:22,2013-01-17 08:24:24,1,182,.70,-73.966919,40.757877,-73.97345,40.750237
CD98CA13911488D180A72A1039A44B85,CF72DC38A57DE4A517B4FE23C0B2462A,VTS,1,,2013-01-17 08:23:00,2013-01-17 08:41:00,2,1080,3.51,-74.009857,40.720989,-73.988319,40.756844
83D30B1DDEB63761051E96590CE912D9,B7856DD328B940C70DDB6E5BF8988372,CMT,1,Y,2013-01-17 08:25:51,2013-01-17 08:29:38,1,227,.80,-73.973473,40.755138,-73.964828,40.76379
739540B8D61BB50FBAF51509EECEEA75,292D3E892682FC711CBC1024A944D474,CMT,1,N,2013-01-17 08:26:07,2013-01-17 08:37:07,1,660,1.30,-73.973701,40.750366,-73.973427,40.764973
90444DF112C5770C8C82DE2A7930C69B,4455B28ACC85731A184353FA7C75FA86,CMT,1,N,2013-01-17 08:26:30,2013-01-17 08:54:04,1,1654,3.70,-73.968544,40.754757,-74.000099,40.718178
0A39EB3AB3A2F35404F5188655AF4504,73C839CE30F75638FE591C7F07C4C468,CMT,1,N,2013-01-17 08:27:09,2013-01-17 08:49:10,1,1321,5.10,-74.007706,40.710121,-73.975014,40.751965
2F7430A075A7A4F9D4DA93F3BF4C49E0,C617C18C8270F35E970788CFA4B976B0,VTS,1,,2013-01-17 08:28:00,2013-01-17 08:45:00,1,1020,4.76,-73.981384,40.75024,-74.005585,40.710217
C569C8910159E5BD1DDF4861EE8D7FF2,B90ED0E0447B0981F2E3C49D370C514C,CMT,1,N,2013-01-17 08:29:33,2013-01-17 08:47:20,1,1066,2.80,-73.960754,40.781036,-73.986763,40.745342
589A1D907871256955793D7BF5A5FF72,1766DF6DEE8AF002FEAC38177AE4CD49,CMT,1,N,2013-01-17 08:29:51,2013-01-17 08:33:23,1,211,.80,-73.949623,40.772575,-73.956772,40.762676
64AA3412C7E29AA863D269B2A345A039,DD6A3C01E68EA266E1F553B236BBBB1C,CMT,1,N,2013-01-17 08:30:30,2013-01-17 08:40:23,1,592,1.00,-73.990868,40.75631,-73.975655,40.754124
83D30B1DDEB63761051E96590CE912D9,B7856DD328B940C70DDB6E5BF8988372,CMT,1,N,2013-01-17 08:32:45,2013-01-17 08:35:52,1,186,.50,-73.962135,40.767635,-73.954277,40.766888
589A1D907871256955793D7BF5A5FF72,1766DF6DEE8AF002FEAC38177AE4CD49,CMT,1,N,2013-01-17 08:35:06,2013-01-17 08:46:01,1,654,1.30,-73.958443,40.760479,-73.976189,40.758827
80B79425F9C2AB66A8E999D0554D5BE7,9DE07EB42B4AA5A46AB4C66A17D1E432,VTS,1,,2013-01-17 08:37:00,2013-01-17 08:42:00,1,300,1.01,-73.990295,40.751266,-73.989883,40.740711
6445A77D0238C473F7DD8B94A6955EA3,E7E6F9F97F18C35E0CC1AC3CCBBB4D08,VTS,1,,2013-01-17 08:37:00,2013-01-17 08:45:00,1,480,2.18,-74.017838,40.70639,-73.992218,40.709866
83D30B1DDEB63761051E96590CE912D9,B7856DD328B940C70DDB6E5BF8988372,CMT,1,N,2013-01-17 08:39:09,2013-01-17 08:53:43,2,873,2.10,-73.951416,40.770126,-73.971283,40.757114
F6B0E6F93A25D74EB79D804A085C8832,96549A049045E238E54F2B88836C4DF5,CMT,1,N,2013-01-17 08:43:46,2013-01-17 08:46:34,1,167,.20,-73.955788,40.779682,-73.960754,40.78112
80B79425F9C2AB66A8E999D0554D5BE7,9DE07EB42B4AA5A46AB4C66A17D1E432,VTS,1,,2013-01-17 08:44:00,2013-01-17 08:54:00,1,600,1.37,-73.987534,40.738445,-73.976227,40.752762
3C52CFC36C88425F78C399D15131CD36,C5C387AD27C255587105FDDC437D7F09,VTS,1,,2013-01-17 08:44:00,2013-01-17 09:00:00,1,960,2.09,-73.981033,40.743462,-73.968605,40.767357
64AA3412C7E29AA863D269B2A345A039,DD6A3C01E68EA266E1F553B236BBBB1C,CMT,1,Y,2013-01-17 08:44:14,2013-01-17 08:54:32,1,617,4.70,-73.972137,40.74884,-74.009186,40.702396
739540B8D61BB50FBAF51509EECEEA75,292D3E892682FC711CBC1024A944D474,CMT,1,N,2013-01-17 08:46:44,2013-01-17 08:55:27,1,523,2.70,-73.981941,40.777889,-73.963158,40.810902
589A1D907871256955793D7BF5A5FF72,1766DF6DEE8AF002FEAC38177AE4CD49,CMT,1,N,2013-01-17 08:46:58,2013-01-17 08:50:34,1,216,.50,-73.976639,40.758438,-73.984848,40.760723
F6B0E6F93A25D74EB79D804A085C8832,96549A049045E238E54F2B88836C4DF5,CMT,1,N,2013-01-17 08:47:55,2013-01-17 09:02:10,1,855,1.70,-73.961304,40.778473,-73.970955,40.757717
6445A77D0238C473F7DD8B94A6955EA3,E7E6F9F97F18C35E0CC1AC3CCBBB4D08,VTS,1,,2013-01-17 08:48:00,2013-01-17 09:12:00,1,1440,3.21,-73.991936,40.715836,-73.981049,40.703888
31D5AAB6D05087D01621FCB2586F367C,C88C91AB920728433259DA21DF5815DB,CMT,1,N,2013-01-17 08:48:02,2013-01-17 08:54:42,1,400,.30,-73.979515,40.762516,-73.985207,40.763298
589A1D907871256955793D7BF5A5FF72,1766DF6DEE8AF002FEAC38177AE4CD49,CMT,1,N,2013-01-17 08:51:50,2013-01-17 09:12:48,1,1258,1.80,-73.985664,40.76012,-73.974297,40.750145
CD98CA13911488D180A72A1039A44B85,CF72DC38A57DE4A517B4FE23C0B2462A,VTS,1,,2013-01-17 08:53:00,2013-01-17 09:08:00,2,900,2.44,-73.985802,40.759163,-73.989914,40.738953
0A39EB3AB3A2F35404F5188655AF4504,73C839CE30F75638FE591C7F07C4C468,CMT,1,N,2013-01-17 08:53:11,2013-01-17 09:11:59,1,1128,1.40,-73.977776,40.752502,-73.981651,40.768353
90444DF112C5770C8C82DE2A7930C69B,4455B28ACC85731A184353FA7C75FA86,CMT,1,N,2013-01-17 08:55:04,2013-01-17 09:09:58,1,894,2.10,-74.00071,40.718601,-74.011169,40.708481
C569C8910159E5BD1DDF4861EE8D7FF2,B90ED0E0447B0981F2E3C49D370C514C,CMT,1,N,2013-01-17 08:56:22,2013-01-17 09:12:01,1,938,2.20,-73.995872,40.732849,-73.976418,40.751835
83D30B1DDEB63761051E96590CE912D9,B7856DD328B940C70DDB6E5BF8988372,CMT,1,N,2013-01-17 08:56:45,2013-01-17 09:02:28,1,343,1.20,-73.972969,40.755669,-73.983978,40.740688
31D5AAB6D05087D01621FCB2586F367C,C88C91AB920728433259DA21DF5815DB,CMT,1,N,2013-01-17 08:57:03,2013-01-17 09:25:03,2,1679,11.20,-73.985397,40.763733,-73.864685,40.770237
80B79425F9C2AB66A8E999D0554D5BE7,9DE07EB42B4AA5A46AB4C66A17D1E432,VTS,1,,2013-01-17 08:59:00,2013-01-17 09:08:00,1,540,1.48,-73.96936,40.763256,-73.988434,40.769089
739540B8D61BB50FBAF51509EECEEA75,292D3E892682FC711CBC1024A944D474,CMT,1,N,2013-01-17 09:00:48,2013-01-17 09:24:24,1,1416,3.50,-73.967995,40.802189,-73.954079,40.766418
64AA3412C7E29AA863D269B2A345A039,DD6A3C01E68EA266E1F553B236BBBB1C,CMT,1,N,2013-01-17 09:02:35,2013-01-17 09:38:26,1,2150,5.50,-74.007019,40.703976,-73.99176,40.755638
3C52CFC36C88425F78C399D15131CD36,C5C387AD27C255587105FDDC437D7F09,VTS,1,,2013-01-17 09:03:00,2013-01-17 09:08:00,1,300,.48,-73.96476,40.772621,-73.966263,40.767792
83D30B1DDEB63761051E96590CE912D9,B7856DD328B940C70DDB6E5BF8988372,CMT,1,N,2013-01-17 09:03:47,2013-01-17 09:24:13,1,1225,3.70,-73.984734,40.739689,-73.978691,40.773998
F6B0E6F93A25D74EB79D804A085C8832,96549A049045E238E54F2B88836C4DF5,CMT,1,N,2013-01-17 09:04:20,2013-01-17 09:07:20,1,179,.50,-73.968765,40.75671,-73.972267,40.75005
3C52CFC36C88425F78C399D15131CD36,C5C387AD27C255587105FDDC437D7F09,VTS,1,,2013-01-17 09:11:00,2013-01-17 09:14:00,1,180,.82,-73.966248,40.764828,-73.959129,40.771782
CD98CA13911488D180A72A1039A44B85,CF72DC38A57DE4A517B4FE23C0B2462A,VTS,1,,2013-01-17 09:12:00,2013-01-17 09:27:00,2,900,1.86,-73.990112,40.737396,-73.981995,40.75787
F6B0E6F93A25D74EB79D804A085C8832,96549A049045E238E54F2B88836C4DF5,CMT,1,N,2013-01-17 09:14:25,2013-01-17 09:15:37,1,72,.50,-73.972862,40.748508,-73.966736,40.752838
589A1D907871256955793D7BF5A5FF72,1766DF6DEE8AF002FEAC38177AE4CD49,CMT,1,N,2013-01-17 09:14:48,2013-01-17 09:26:33,1,704,1.50,-73.970932,40.748405,-73.978912,40.762867
6445A77D0238C473F7DD8B94A6955EA3,E7E6F9F97F18C35E0CC1AC3CCBBB4D08,VTS,1,,2013-01-17 09:16:00,2013-01-17 09:32:00,1,960,3.33,-73.983856,40.696102,-74.010155,40.732716
F6B0E6F93A25D74EB79D804A085C8832,96549A049045E238E54F2B88836C4DF5,CMT,1,N,2013-01-17 09:21:08,2013-01-17 09:34:39,1,810,3.00,-73.957909,40.76104,-73.991264,40.74054
3C52CFC36C88425F78C399D15131CD36,C5C387AD27C255587105FDDC437D7F09,VTS,1,,2013-01-17 09:22:00,2013-01-17 09:32:00,1,600,.72,-73.956955,40.766548,-73.961716,40.761112
C569C8910159E5BD1DDF4861EE8D7FF2,B90ED0E0447B0981F2E3C49D370C514C,CMT,1,N,2013-01-17 09:22:35,2013-01-17 09:23:47,1,72,.30,-73.972633,40.746487,-73.968811,40.750374
0A39EB3AB3A2F35404F5188655AF4504,73C839CE30F75638FE591C7F07C4C468,CMT,1,N,2013-01-17 09:25:25,2013-01-17 09:46:00,1,1233,1.20,-73.984772,40.768444,-73.969101,40.755703
C569C8910159E5BD1DDF4861EE8D7FF2,B90ED0E0447B0981F2E3C49D370C514C,CMT,1,N,2013-01-17 09:26:13,2013-01-17 09:47:20,1,1267,2.10,-73.964722,40.755947,-73.99028,40.751549
739540B8D61BB50FBAF51509EECEEA75,292D3E892682FC711CBC1024A944D474,CMT,1,N,2013-01-17 09:26:18,2013-01-17 09:34:51,1,512,1.30,-73.95491,40.764832,-73.973114,40.764221
83D30B1DDEB63761051E96590CE912D9,B7856DD328B940C70DDB6E5BF8988372,CMT,1,N,2013-01-17 09:26:25,2013-01-17 09:40:15,1,830,1.20,-73.979561,40.771259,-73.970154,40.763157
CD98CA13911488D180A72A1039A44B85,CF72DC38A57DE4A517B4FE23C0B2462A,VTS,1,,2013-01-17 09:34:00,2013-01-17 09:44:00,2,600,1.00,-73.984825,40.761059,-73.992477,40.748337
739540B8D61BB50FBAF51509EECEEA75,292D3E892682FC711CBC1024A944D474,CMT,1,N,2013-01-17 09:37:06,2013-01-17 09:45:56,1,530,1.50,-73.974518,40.762501,-73.959778,40.777946
90444DF112C5770C8C82DE2A7930C69B,4455B28ACC85731A184353FA7C75FA86,CMT,1,N,2013-01-17 09:39:18,2013-01-17 09:50:09,1,630,2.60,-73.981644,40.732628,-73.967506,40.761559
64AA3412C7E29AA863D269B2A345A039,DD6A3C01E68EA266E1F553B236BBBB1C,CMT,1,N,2013-01-17 09:39:58,2013-01-17 09:57:28,1,1049,3.50,-73.991783,40.755657,-73.964439,40.791203
3C52CFC36C88425F78C399D15131CD36,C5C387AD27C255587105FDDC437D7F09,VTS,1,,2013-01-17 09:41:00,2013-01-17 10:04:00,1,1380,2.01,-73.97023,40.756496,-73.992119,40.750217
80B79425F9C2AB66A8E999D0554D5BE7,9DE07EB42B4AA5A46AB4C66A17D1E432,VTS,1,,2013-01-17 09:42:00,2013-01-17 09:52:00,1,600,1.17,-73.98214,40.773983,-73.976593,40.763451
589A1D907871256955793D7BF5A5FF72,1766DF6DEE8AF002FEAC38177AE4CD49,CMT,1,N,2013-01-17 09:45:26,2013-01-17 09:49:15,1,229,.70,-73.982056,40.778465,-73.985283,40.768551
83D30B1DDEB63761051E96590CE912D9,B7856DD328B940C70DDB6E5BF8988372,CMT,1,N,2013-01-17 09:46:24,2013-01-17 09:52:21,1,356,.70,-73.962288,40.767857,-73.971542,40.764626
739540B8D61BB50FBAF51509EECEEA75,292D3E892682FC711CBC1024A944D474,CMT,1,N,2013-01-17 09:46:48,2013-01-17 09:50:07,1,198,.50,-73.958832,40.77784,-73.953415,40.783607
6445A77D0238C473F7DD8B94A6955EA3,E7E6F9F97F18C35E0CC1AC3CCBBB4D08,VTS,1,,2013-01-17 09:47:00,2013-01-17 10:00:00,1,780,1.19,-73.995407,40.749531,-73.986008,40.762161
C569C8910159E5BD1DDF4861EE8D7FF2,B90ED0E0447B0981F2E3C49D370C514C,CMT,1,N,2013-01-17 09:51:20,2013-01-17 10:02:40,1,679,.80,-73.991714,40.750057,-73.980492,40.744816
0A39EB3AB3A2F35404F5188655AF4504,73C839CE30F75638FE591C7F07C4C468,CMT,1,N,2013-01-17 09:53:02,2013-01-17 10:16:43,1,1421,1.60,-73.969711,40.75592,-73.992554,40.754959
83D30B1DDEB63761051E96590CE912D9,B7856DD328B940C70DDB6E5BF8988372,CMT,1,N,2013-01-17 09:53:37,2013-01-17 10:03:30,1,592,.60,-73.972794,40.764919,-73.978218,40.757187
739540B8D61BB50FBAF51509EECEEA75,292D3E892682FC711CBC1024A944D474,CMT,1,N,2013-01-17 09:55:20,2013-01-17 09:57:55,1,154,.50,-73.958221,40.774715,-73.964233,40.772179
80B79425F9C2AB66A8E999D0554D5BE7,9DE07EB42B4AA5A46AB4C66A17D1E432,VTS,1,,2013-01-17 09:57:00,2013-01-17 10:07:00,1,600,1.03,-73.976341,40.75893,-73.982445,40.766655
90444DF112C5770C8C82DE2A7930C69B,4455B28ACC85731A184353FA7C75FA86,CMT,1,N,2013-01-17 09:57:34,2013-01-17 10:17:36,1,1201,8.20,-73.955727,40.776398,-74.009651,40.710518
589A1D907871256955793D7BF5A5FF72,1766DF6DEE8AF002FEAC38177AE4CD49,CMT,1,N,2013-01-17 09:58:01,2013-01-17 10:10:50,1,769,1.60,-73.992531,40.757069,-73.989693,40.739124
64AA3412C7E29AA863D269B2A345A039,DD6A3C01E68EA266E1F553B236BBBB1C,CMT,1,N,2013-01-17 09:59:34,2013-01-17 10:05:40,2,365,1.10,-73.965981,40.790489,-73.95974,40.779659
CD98CA13911488D180A72A1039A44B85,CF72DC38A57DE4A517B4FE23C0B2462A,VTS,1,,2013-01-17 10:00:00,2013-01-17 10:05:00,2,300,.61,-73.9869,40.746323,-73.989922,40.741226
3C52CFC36C88425F78C399D15131CD36,C5C387AD27C255587105FDDC437D7F09,VTS,1,,2013-01-17 10:05:00,2013-01-17 10:12:00,1,420,.69,-73.991508,40.749584,-73.983459,40.744148
64AA3412C7E29AA863D269B2A345A039,DD6A3C01E68EA266E1F553B236BBBB1C,CMT,1,N,2013-01-17 10:07:24,2013-01-17 10:21:23,1,838,1.90,-73.957664,40.779667,-73.976341,40.758289
3C52CFC36C88425F78C399D15131CD36,C5C387AD27C255587105FDDC437D7F09,VTS,1,,2013-01-17 10:12:00,2013-01-17 10:15:00,1,180,.76,-73.983597,40.744179,-73.9907,40.734859
CD98CA13911488D180A72A1039A44B85,CF72DC38A57DE4A517B4FE23C0B2462A,VTS,1,,2013-01-17 10:12:00,2013-01-17 10:30:00,2,1080,2.39,-73.993965,40.741196,-73.968292,40.760067
C569C8910159E5BD1DDF4861EE8D7FF2,B90ED0E0447B0981F2E3C49D370C514C,CMT,1,N,2013-01-17 10:15:26,2013-01-17 10:26:31,1,664,1.90,-73.991982,40.725887,-73.975883,40.749226
F6B0E6F93A25D74EB79D804A085C8832,96549A049045E238E54F2B88836C4DF5,CMT,1,Y,2013-01-17 10:17:11,2013-01-17 10:28:47,1,695,1.70,-73.990135,40.740906,-73.973129,40.757469
83D30B1DDEB63761051E96590CE912D9,B7856DD328B940C70DDB6E5BF8988372,CMT,1,N,2013-01-17 10:18:48,2013-01-17 10:24:53,1,364,.90,-73.979782,40.751354,-73.972076,40.762905
3C52CFC36C88425F78C399D15131CD36,C5C387AD27C255587105FDDC437D7F09,VTS,1,,2013-01-17 10:20:00,2013-01-17 10:27:00,1,420,.79,-73.996628,40.72617,-73.989716,40.733688
80B79425F9C2AB66A8E999D0554D5BE7,9DE07EB42B4AA5A46AB4C66A17D1E432,VTS,1,,2013-01-17 10:25:00,2013-01-17 10:33:00,1,480,1.82,-74.005295,40.740601,-74.005844,40.717323
64AA3412C7E29AA863D269B2A345A039,DD6A3C01E68EA266E1F553B236BBBB1C,CMT,1,N,2013-01-17 10:26:57,2013-01-17 10:41:54,2,896,1.60,-73.981735,40.762508,-73.973167,40.747051
90444DF112C5770C8C82DE2A7930C69B,4455B28ACC85731A184353FA7C75FA86,CMT,1,N,2013-01-17 10:28:20,2013-01-17 10:32:07,1,227,1.00,-74.002296,40.726612,-73.991302,40.73093
3C52CFC36C88425F78C399D15131CD36,C5C387AD27C255587105FDDC437D7F09,VTS,1,,2013-01-17 10:32:00,2013-01-17 10:35:00,1,180,.33,-73.978111,40.737423,-73.975052,40.741592
589A1D907871256955793D7BF5A5FF72,1766DF6DEE8AF002FEAC38177AE4CD49,CMT,1,N,2013-01-17 10:34:21,2013-01-17 10:45:43,1,682,1.40,-74.001701,40.719631,-74.013573,40.702263
80B79425F9C2AB66A8E999D0554D5BE7,9DE07EB42B4AA5A46AB4C66A17D1E432,VTS,1,,2013-01-17 10:35:00,2013-01-17 10:50:00,1,900,2.67,-74.004883,40.716099,-73.989738,40.748253
3246AA03B718062309B61CEFEDA6C60A,79F8BC483D5BD960CCF3169E6A42793C,VTS,1,,2013-01-17 10:37:00,2013-01-17 10:41:00,1,240,3.00,-73.872925,40.773926,-73.897545,40.751877
C569C8910159E5BD1DDF4861EE8D7FF2,B90ED0E0447B0981F2E3C49D370C514C,CMT,1,N,2013-01-17 10:37:15,2013-01-17 10:53:53,1,998,4.90,-73.973854,40.751266,-74.008911,40.71067
CD98CA13911488D180A72A1039A44B85,CF72DC38A57DE4A517B4FE23C0B2462A,VTS,1,,2013-01-17 10:40:00,2013-01-17 10:57:00,2,1020,2.17,-73.967087,40.756851,-73.990753,40.740322
3C52CFC36C88425F78C399D15131CD36,C5C387AD27C255587105FDDC437D7F09,VTS,1,,2013-01-17 10:40:00,2013-01-17 10:58:00,1,1080,1.81,-73.967056,40.753483,-73.993172,40.757294
F6B0E6F93A25D74EB79D804A085C8832,96549A049045E238E54F2B88836C4DF5,CMT,1,Y,2013-01-17 10:42:44,2013-01-17 10:48:52,1,368,1.10,-73.961571,40.767666,-73.957535,40.780327
31D5AAB6D05087D01621FCB2586F367C,C88C91AB920728433259DA21DF5815DB,CMT,1,N,2013-01-17 10:43:24,2013-01-17 11:37:50,1,3265,9.40,-73.873001,40.77433,-73.998093,40.722607
0A39EB3AB3A2F35404F5188655AF4504,73C839CE30F75638FE591C7F07C4C468,CMT,1,N,2013-01-17 10:45:10,2013-01-17 11:01:19,1,968,1.10,-73.995209,40.759979,-73.980003,40.767948
2F7430A075A7A4F9D4DA93F3BF4C49E0,C617C18C8270F35E970788CFA4B976B0,VTS,1,,2013-01-17 10:46:00,2013-01-17 11:00:00,1,840,2.97,-73.990067,40.719257,-73.971886,40.755661
6445A77D0238C473F7DD8B94A6955EA3,E7E6F9F97F18C35E0CC1AC3CCBBB4D08,VTS,1,,2013-01-17 10:49:00,2013-01-17 10:53:00,1,240,.54,-73.982071,40.768238,-73.974876,40.764954
739540B8D61BB50FBAF51509EECEEA75,292D3E892682FC711CBC1024A944D474,CMT,1,N,2013-01-17 10:53:08,2013-01-17 11:01:24,1,496,1.10,-74.006462,40.73867,-73.994858,40.728699
83D30B1DDEB63761051E96590CE912D9,B7856DD328B940C70DDB6E5BF8988372,CMT,1,N,2013-01-17 10:53:31,2013-01-17 11:11:35,1,1083,3.80,-73.944984,40.783337,-73.978439,40.752632
C569C8910159E5BD1DDF4861EE8D7FF2,B90ED0E0447B0981F2E3C49D370C514C,CMT,1,N,2013-01-17 10:55:05,2013-01-17 11:17:36,1,1350,3.70,-74.009361,40.710663,-73.984558,40.757599
589A1D907871256955793D7BF5A5FF72,1766DF6DEE8AF002FEAC38177AE4CD49,CMT,1,N,2013-01-17 10:55:47,2013-01-17 11:03:13,1,445,.90,-73.992302,40.715157,-73.992035,40.725773
6445A77D0238C473F7DD8B94A6955EA3,E7E6F9F97F18C35E0CC1AC3CCBBB4D08,VTS,1,,2013-01-17 10:58:00,2013-01-17 11:06:00,1,480,1.88,-73.975243,40.761356,-73.993332,40.739883
3C52CFC36C88425F78C399D15131CD36,C5C387AD27C255587105FDDC437D7F09,VTS,1,,2013-01-17 11:02:00,2013-01-17 11:17:00,1,900,1.51,-73.99147,40.756607,-73.985771,40.74118
0A39EB3AB3A2F35404F5188655AF4504,73C839CE30F75638FE591C7F07C4C468,CMT,1,N,2013-01-17 11:03:07,2013-01-17 11:10:30,1,443,1.10,-73.979622,40.767868,-73.977768,40.753941
3246AA03B718062309B61CEFEDA6C60A,79F8BC483D5BD960CCF3169E6A42793C,VTS,1,,2013-01-17 11:04:00,2013-01-17 11:13:00,1,540,.99,-73.978874,40.744663,-73.988098,40.752426
F6B0E6F93A25D74EB79D804A085C8832,96549A049045E238E54F2B88836C4DF5,CMT,1,N,2013-01-17 11:07:06,2013-01-17 11:18:15,1,669,1.90,-73.955482,40.776882,-73.981529,40.78067
6445A77D0238C473F7DD8B94A6955EA3,E7E6F9F97F18C35E0CC1AC3CCBBB4D08,VTS,1,,2013-01-17 11:08:00,2013-01-17 11:24:00,1,960,2.56,-73.975243,40.761356,-73.990242,40.76683
90444DF112C5770C8C82DE2A7930C69B,4455B28ACC85731A184353FA7C75FA86,CMT,1,N,2013-01-17 11:09:22,2013-01-17 11:22:11,1,768,3.10,-74.004082,40.752628,-73.980232,40.783993
CD98CA13911488D180A72A1039A44B85,CF72DC38A57DE4A517B4FE23C0B2462A,VTS,1,,2013-01-17 11:13:00,2013-01-17 11:30:00,2,1020,2.90,-73.993774,40.746647,-74.009323,40.710453
0A39EB3AB3A2F35404F5188655AF4504,73C839CE30F75638FE591C7F07C4C468,CMT,1,N,2013-01-17 11:14:01,2013-01-17 11:18:05,1,243,.60,-73.977875,40.753704,-73.973625,40.761681
64AA3412C7E29AA863D269B2A345A039,DD6A3C01E68EA266E1F553B236BBBB1C,CMT,1,N,2013-01-17 11:14:59,2013-01-17 11:19:28,1,269,.70,-73.977753,40.738274,-73.988441,40.739021
2F7430A075A7A4F9D4DA93F3BF4C49E0,C617C18C8270F35E970788CFA4B976B0,VTS,1,,2013-01-17 11:15:00,2013-01-17 11:25:00,1,600,2.39,-73.970421,40.759544,-73.985764,40.731216
80B79425F9C2AB66A8E999D0554D5BE7,9DE07EB42B4AA5A46AB4C66A17D1E432,VTS,1,,2013-01-17 11:16:00,2013-01-17 11:23:00,1,420,1.17,-73.997459,40.736721,-74.007446,40.726952
589A1D907871256955793D7BF5A5FF72,1766DF6DEE8AF002FEAC38177AE4CD49,CMT,1,N,2013-01-17 11:17:06,2013-01-17 11:24:15,1,429,1.30,-73.968506,40.759094,-73.956932,40.774906
0A39EB3AB3A2F35404F5188655AF4504,73C839CE30F75638FE591C7F07C4C468,CMT,1,N,2013-01-17 11:21:27,2013-01-17 11:24:51,1,203,.70,-73.970749,40.764565,-73.964005,40.773758
3246AA03B718062309B61CEFEDA6C60A,79F8BC483D5BD960CCF3169E6A42793C,VTS,1,,2013-01-17 11:22:00,2013-01-17 11:26:00,1,240,1.13,-73.985924,40.752323,-73.99028,40.740704
80B79425F9C2AB66A8E999D0554D5BE7,9DE07EB42B4AA5A46AB4C66A17D1E432,VTS,1,,2013-01-17 11:24:00,2013-01-17 11:48:00,1,1440,5.43,-74.007278,40.728119,-73.972595,40.788399
83D30B1DDEB63761051E96590CE912D9,B7856DD328B940C70DDB6E5BF8988372,CMT,1,N,2013-01-17 11:24:36,2013-01-17 11:34:56,1,619,1.30,-73.982101,40.772438,-73.978691,40.759125
C569C8910159E5BD1DDF4861EE8D7FF2,B90ED0E0447B0981F2E3C49D370C514C,CMT,1,N,2013-01-17 11:26:04,2013-01-17 11:32:49,1,405,1.10,-73.99321,40.757648,-73.988388,40.766663
90444DF112C5770C8C82DE2A7930C69B,4455B28ACC85731A184353FA7C75FA86,CMT,1,N,2013-01-17 11:26:47,2013-01-17 11:39:10,1,742,2.20,-73.982018,40.779026,-73.961441,40.765038
739540B8D61BB50FBAF51509EECEEA75,292D3E892682FC711CBC1024A944D474,CMT,1,N,2013-01-17 11:29:34,2013-01-17 11:42:21,1,767,2.00,-73.948219,40.783012,-73.967491,40.758583
3C52CFC36C88425F78C399D15131CD36,C5C387AD27C255587105FDDC437D7F09,VTS,1,,2013-01-17 11:31:00,2013-01-17 11:42:00,1,660,1.48,-73.985329,40.744717,-73.967323,40.752983
2F7430A075A7A4F9D4DA93F3BF4C49E0,C617C18C8270F35E970788CFA4B976B0,VTS,1,,2013-01-17 11:33:00,2013-01-17 11:40:00,1,420,1.24,-73.983231,40.730392,-73.979843,40.743561
6445A77D0238C473F7DD8B94A6955EA3,E7E6F9F97F18C35E0CC1AC3CCBBB4D08,VTS,1,,2013-01-17 11:34:00,2013-01-17 11:37:00,1,180,.28,-73.982628,40.767551,-73.980026,40.764713
CD98CA13911488D180A72A1039A44B85,CF72DC38A57DE4A517B4FE23C0B2462A,VTS,1,,2013-01-17 11:35:00,2013-01-17 11:56:00,2,1260,2.81,-74.007271,40.715965,-73.983932,40.746426
589A1D907871256955793D7BF5A5FF72,1766DF6DEE8AF002FEAC38177AE4CD49,CMT,1,N,2013-01-17 11:35:20,2013-01-17 11:54:42,1,1161,3.00,-73.955795,40.764072,-73.992165,40.749249
31D5AAB6D05087D01621FCB2586F367C,C88C91AB920728433259DA21DF5815DB,CMT,1,N,2013-01-17 11:41:35,2013-01-17 11:55:19,1,824,2.10,-73.995277,40.725407,-73.973114,40.74617
6445A77D0238C473F7DD8B94A6955EA3,E7E6F9F97F18C35E0CC1AC3CCBBB4D08,VTS,1,,2013-01-17 11:43:00,2013-01-17 11:53:00,1,600,.57,-73.978943,40.764202,-73.9729,40.761574
3C52CFC36C88425F78C399D15131CD36,C5C387AD27C255587105FDDC437D7F09,VTS,1,,2013-01-17 11:43:00,2013-01-17 11:55:00,1,720,1.30,-73.966766,40.75325,-73.973892,40.76424
83D30B1DDEB63761051E96590CE912D9,B7856DD328B940C70DDB6E5BF8988372,CMT,1,N,2013-01-17 11:44:14,2013-01-17 11:52:46,1,512,2.00,-73.968781,40.755104,-73.989212,40.734264
0A39EB3AB3A2F35404F5188655AF4504,73C839CE30F75638FE591C7F07C4C468,CMT,1,N,2013-01-17 11:44:55,2013-01-17 11:59:54,1,899,1.80,-73.987457,40.78043,-73.970238,40.762951
2F7430A075A7A4F9D4DA93F3BF4C49E0,C617C18C8270F35E970788CFA4B976B0,VTS,1,,2013-01-17 11:45:00,2013-01-17 11:48:00,1,180,.61,-73.975304,40.749432,-73.970726,40.755722
64AA3412C7E29AA863D269B2A345A039,DD6A3C01E68EA266E1F553B236BBBB1C,CMT,1,N,2013-01-17 11:45:09,2013-01-17 12:03:03,1,1073,3.40,-73.98259,40.749947,-73.947983,40.778675
90444DF112C5770C8C82DE2A7930C69B,4455B28ACC85731A184353FA7C75FA86,CMT,1,N,2013-01-17 11:52:51,2013-01-17 11:59:50,3,418,1.30,-73.949806,40.780491,-73.96051,40.765797
6445A77D0238C473F7DD8B94A6955EA3,E7E6F9F97F18C35E0CC1AC3CCBBB4D08,VTS,1,,2013-01-17 11:54:00,2013-01-17 12:08:00,1,840,2.37,-73.970703,40.764725,-73.996681,40.757923
83D30B1DDEB63761051E96590CE912D9,B7856DD328B940C70DDB6E5BF8988372,CMT,1,N,2013-01-17 11:56:11,2013-01-17 12:04:58,1,526,1.60,-73.991096,40.733452,-74.00779,40.746777
2F7430A075A7A4F9D4DA93F3BF4C49E0,C617C18C8270F35E970788CFA4B976B0,VTS,1,,2013-01-17 11:57:00,2013-01-17 12:10:00,1,780,1.47,-73.963387,40.771519,-73.979065,40.772026
3C52CFC36C88425F78C399D15131CD36,C5C387AD27C255587105FDDC437D7F09,VTS,1,,2013-01-17 11:58:00,2013-01-17 12:09:00,1,660,2.42,-73.975525,40.760513,-74.003357,40.750607
31D5AAB6D05087D01621FCB2586F367C,C88C91AB920728433259DA21DF5815DB,CMT,1,N,2013-01-17 11:58:31,2013-01-17 12:04:06,1,335,1.10,-73.972389,40.746769,-73.97541,40.733044
90444DF112C5770C8C82DE2A7930C69B,4455B28ACC85731A184353FA7C75FA86,CMT,1,N,2013-01-17 12:01:02,2013-01-17 12:04:58,1,236,.90,-73.960991,40.765171,-73.96888,40.757374
0A39EB3AB3A2F35404F5188655AF4504,73C839CE30F75638FE591C7F07C4C468,CMT,1,N,2013-01-17 12:01:55,2013-01-17 12:08:28,1,392,1.00,-73.969986,40.762379,-73.96386,40.773994
CD98CA13911488D180A72A1039A44B85,CF72DC38A57DE4A517B4FE23C0B2462A,VTS,1,,2013-01-17 12:05:00,2013-01-17 12:16:00,2,660,2.59,-73.986549,40.742935,-73.988586,40.769325
F6B0E6F93A25D74EB79D804A085C8832,96549A049045E238E54F2B88836C4DF5,CMT,1,N,2013-01-17 12:05:47,2013-01-17 12:19:17,1,809,2.50,-73.967796,40.803139,-73.982056,40.768867
2F7430A075A7A4F9D4DA93F3BF4C49E0,C617C18C8270F35E970788CFA4B976B0,VTS,1,,2013-01-17 12:12:00,2013-01-17 12:25:00,1,780,2.27,-73.981636,40.770264,-73.996979,40.742344
90444DF112C5770C8C82DE2A7930C69B,4455B28ACC85731A184353FA7C75FA86,CMT,1,N,2013-01-17 12:12:07,2013-01-17 12:23:02,1,655,2.10,-73.96032,40.76619,-73.978073,40.741867
64AA3412C7E29AA863D269B2A345A039,DD6A3C01E68EA266E1F553B236BBBB1C,CMT,1,N,2013-01-17 12:13:10,2013-01-17 12:31:27,1,1097,2.40,-73.954857,40.773045,-73.982033,40.754791
739540B8D61BB50FBAF51509EECEEA75,292D3E892682FC711CBC1024A944D474,CMT,1,N,2013-01-17 12:13:58,2013-01-17 12:23:20,1,562,2.20,-73.982903,40.730839,-73.96302,40.758236
6445A77D0238C473F7DD8B94A6955EA3,E7E6F9F97F18C35E0CC1AC3CCBBB4D08,VTS,1,,2013-01-17 12:14:00,2013-01-17 12:24:00,1,600,1.07,-73.989433,40.757149,-73.973557,40.751366
589A1D907871256955793D7BF5A5FF72,1766DF6DEE8AF002FEAC38177AE4CD49,CMT,1,N,2013-01-17 12:15:11,2013-01-17 12:19:18,1,247,.60,-73.975029,40.761551,-73.980705,40.753513
C12D2CAA4235AAE317E6E92C477D3153,E9D86653B8B64046875B88EFC2607111,VTS,1,,2013-01-17 12:19:00,2013-01-17 12:30:00,5,660,6.54,-73.776695,40.645393,-73.815971,40.712074
90444DF112C5770C8C82DE2A7930C69B,4455B28ACC85731A184353FA7C75FA86,CMT,1,N,2013-01-17 12:23:48,2013-01-17 12:32:52,1,543,1.10,-73.978264,40.741608,-73.984367,40.749317
83D30B1DDEB63761051E96590CE912D9,B7856DD328B940C70DDB6E5BF8988372,CMT,1,N,2013-01-17 12:24:31,2013-01-17 12:33:31,2,540,1.20,-74.006355,40.747009,-74.003441,40.735901
3C52CFC36C88425F78C399D15131CD36,C5C387AD27C255587105FDDC437D7F09,VTS,1,,2013-01-17 12:25:00,2013-01-17 12:44:00,1,1140,1.96,-73.994705,40.750492,-73.970734,40.753456
739540B8D61BB50FBAF51509EECEEA75,292D3E892682FC711CBC1024A944D474,CMT,1,N,2013-01-17 12:27:17,2013-01-17 12:38:29,1,671,1.50,-73.958649,40.764095,-73.960976,40.779278
589A1D907871256955793D7BF5A5FF72,1766DF6DEE8AF002FEAC38177AE4CD49,CMT,1,N,2013-01-17 12:28:04,2013-01-17 12:49:18,1,1273,2.90,-73.971741,40.755081,-73.9823,40.783131
0A39EB3AB3A2F35404F5188655AF4504,73C839CE30F75638FE591C7F07C4C468,CMT,1,N,2013-01-17 12:30:59,2013-01-17 12:35:06,1,247,.90,-73.989471,40.776409,-73.981125,40.788139
64AA3412C7E29AA863D269B2A345A039,DD6A3C01E68EA266E1F553B236BBBB1C,CMT,1,N,2013-01-17 12:35:38,2013-01-17 12:54:47,1,1148,3.60,-73.985191,40.752605,-73.952888,40.78355
2F7430A075A7A4F9D4DA93F3BF4C49E0,C617C18C8270F35E970788CFA4B976B0,VTS,1,,2013-01-17 12:36:00,2013-01-17 13:25:00,1,2940,7.83,-73.991486,40.750347,-73.995247,40.769539
0A39EB3AB3A2F35404F5188655AF4504,73C839CE30F75638FE591C7F07C4C468,CMT,1,N,2013-01-17 12:38:41,2013-01-17 12:44:51,1,370,1.00,-73.980812,40.785339,-73.968018,40.789619
F6B0E6F93A25D74EB79D804A085C8832,96549A049045E238E54F2B88836C4DF5,CMT,1,N,2013-01-17 12:39:43,2013-01-17 12:57:07,1,1044,2.70,-73.981316,40.779388,-73.982231,40.749535
739540B8D61BB50FBAF51509EECEEA75,292D3E892682FC711CBC1024A944D474,CMT,1,N,2013-01-17 12:40:35,2013-01-17 12:50:27,1,592,1.60,-73.963463,40.777409,-73.98127,40.770199
CD98CA13911488D180A72A1039A44B85,CF72DC38A57DE4A517B4FE23C0B2462A,VTS,1,,2013-01-17 12:42:00,2013-01-17 12:52:00,2,600,1.72,-73.975395,40.759487,-73.982445,40.775703
3C52CFC36C88425F78C399D15131CD36,C5C387AD27C255587105FDDC437D7F09,VTS,1,,2013-01-17 12:46:00,2013-01-17 12:53:00,1,420,.43,-73.971275,40.754562,-73.977806,40.757988
0A39EB3AB3A2F35404F5188655AF4504,73C839CE30F75638FE591C7F07C4C468,CMT,1,N,2013-01-17 12:48:03,2013-01-17 12:57:07,1,544,1.60,-73.968781,40.786091,-73.969353,40.76759
6445A77D0238C473F7DD8B94A6955EA3,E7E6F9F97F18C35E0CC1AC3CCBBB4D08,VTS,1,,2013-01-17 12:50:00,2013-01-17 13:11:00,1,1260,3.04,-73.950127,40.771927,-73.984764,40.76144
90444DF112C5770C8C82DE2A7930C69B,4455B28ACC85731A184353FA7C75FA86,CMT,1,N,2013-01-17 12:50:30,2013-01-17 12:52:46,1,136,.80,-73.973946,40.761307,-73.981735,40.752251
C12D2CAA4235AAE317E6E92C477D3153,E9D86653B8B64046875B88EFC2607111,VTS,1,,2013-01-17 12:51:00,2013-01-17 13:12:00,5,1260,14.54,-73.782257,40.644653,-73.867371,40.770821
83D30B1DDEB63761051E96590CE912D9,B7856DD328B940C70DDB6E5BF8988372,CMT,1,N,2013-01-17 12:51:51,2013-01-17 12:57:20,1,328,.60,-74.000496,40.725544,-73.991959,40.725792
739540B8D61BB50FBAF51509EECEEA75,292D3E892682FC711CBC1024A944D474,CMT,1,N,2013-01-17 12:54:23,2013-01-17 12:55:06,1,43,.10,-73.981888,40.775822,-73.981834,40.776917
90444DF112C5770C8C82DE2A7930C69B,4455B28ACC85731A184353FA7C75FA86,CMT,1,N,2013-01-17 12:54:58,2013-01-17 13:15:18,3,1220,6.50,-73.98539,40.748394,-74.014053,40.708672
CD98CA13911488D180A72A1039A44B85,CF72DC38A57DE4A517B4FE23C0B2462A,VTS,1,,2013-01-17 12:55:00,2013-01-17 12:59:00,2,240,.50,-73.978989,40.777267,-73.985291,40.77845
C569C8910159E5BD1DDF4861EE8D7FF2,B90ED0E0447B0981F2E3C49D370C514C,CMT,1,N,2013-01-17 12:57:41,2013-01-17 13:05:41,1,479,1.50,-73.980247,40.784161,-73.959961,40.774445
83D30B1DDEB63761051E96590CE912D9,B7856DD328B940C70DDB6E5BF8988372,CMT,1,N,2013-01-17 12:58:31,2013-01-17 13:02:16,3,225,.90,-73.991989,40.725967,-73.98204,40.732212
31D5AAB6D05087D01621FCB2586F367C,C88C91AB920728433259DA21DF5815DB,CMT,1,N,2013-01-17 12:59:47,2013-01-17 13:05:50,1,363,1.40,-73.973915,40.750252,-73.958412,40.764824
589A1D907871256955793D7BF5A5FF72,1766DF6DEE8AF002FEAC38177AE4CD49,CMT,1,Y,2013-01-17 13:00:41,2013-01-17 13:18:30,1,1069,1.50,-73.981728,40.766972,-73.979424,40.751259
739540B8D61BB50FBAF51509EECEEA75,292D3E892682FC711CBC1024A944D474,CMT,1,N,2013-01-17 13:01:33,2013-01-17 13:03:35,1,122,.30,-73.977249,40.791248,-73.976395,40.794308
3C52CFC36C88425F78C399D15131CD36,C5C387AD27C255587105FDDC437D7F09,VTS,1,,2013-01-17 13:02:00,2013-01-17 13:16:00,1,840,1.10,-73.991783,40.749989,-73.982185,40.757969
0A39EB3AB3A2F35404F5188655AF4504,73C839CE30F75638FE591C7F07C4C468,CMT,1,N,2013-01-17 13:03:56,2013-01-17 13:18:08,1,851,1.10,-73.968384,40.767895,-73.979965,40.755341
CD98CA13911488D180A72A1039A44B85,CF72DC38A57DE4A517B4FE23C0B2462A,VTS,1,,2013-01-17 13:04:00,2013-01-17 13:08:00,2,240,.64,-73.985138,40.77816,-73.977333,40.780231
F6B0E6F93A25D74EB79D804A085C8832,96549A049045E238E54F2B88836C4DF5,CMT,1,Y,2013-01-17 13:04:31,2013-01-17 13:09:46,1,314,.70,-73.985291,40.743713,-73.978027,40.751572
64AA3412C7E29AA863D269B2A345A039,DD6A3C01E68EA266E1F553B236BBBB1C,CMT,1,Y,2013-01-17 13:04:52,2013-01-17 13:21:44,1,1011,2.60,-73.965851,40.768005,-73.99334,40.743355
C569C8910159E5BD1DDF4861EE8D7FF2,B90ED0E0447B0981F2E3C49D370C514C,CMT,1,N,2013-01-17 13:07:09,2013-01-17 13:21:03,1,833,2.20,-73.959778,40.773933,-73.979782,40.746086
CD98CA13911488D180A72A1039A44B85,CF72DC38A57DE4A517B4FE23C0B2462A,VTS,1,,2013-01-17 13:09:00,2013-01-17 13:15:00,2,360,.93,-73.977211,40.779362,-73.988792,40.778019
83D30B1DDEB63761051E96590CE912D9,B7856DD328B940C70DDB6E5BF8988372,CMT,1,N,2013-01-17 13:10:42,2013-01-17 13:19:33,1,531,.70,-73.976044,40.749172,-73.987411,40.753223
739540B8D61BB50FBAF51509EECEEA75,292D3E892682FC711CBC1024A944D474,CMT,1,N,2013-01-17 13:13:09,2013-01-17 13:17:56,1,286,.90,-73.989441,40.773224,-73.980247,40.765396
31D5AAB6D05087D01621FCB2586F367C,C88C91AB920728433259DA21DF5815DB,CMT,1,N,2013-01-17 13:16:46,2013-01-17 13:43:05,2,1578,9.40,-73.949104,40.772671,-73.844116,40.848267
90444DF112C5770C8C82DE2A7930C69B,4455B28ACC85731A184353FA7C75FA86,CMT,1,N,2013-01-17 13:18:54,2013-01-17 13:32:49,5,835,1.60,-74.012657,40.706802,-74.00087,40.725773
6445A77D0238C473F7DD8B94A6955EA3,E7E6F9F97F18C35E0CC1AC3CCBBB4D08,VTS,1,,2013-01-17 13:20:00,2013-01-17 13:31:00,1,660,1.51,-73.996223,40.753502,-73.98455,40.742573
F6B0E6F93A25D74EB79D804A085C8832,96549A049045E238E54F2B88836C4DF5,CMT,1,N,2013-01-17 13:20:37,2013-01-17 13:25:15,1,277,.60,-73.981728,40.746159,-73.974052,40.748943
739540B8D61BB50FBAF51509EECEEA75,292D3E892682FC711CBC1024A944D474,CMT,1,N,2013-01-17 13:21:29,2013-01-17 13:35:20,1,831,3.20,-73.986877,40.757381,-74.00457,40.716187
C569C8910159E5BD1DDF4861EE8D7FF2,B90ED0E0447B0981F2E3C49D370C514C,CMT,1,N,2013-01-17 13:21:52,2013-01-17 13:35:28,1,816,2.40,-73.979744,40.746269,-74.008896,40.730442
3C52CFC36C88425F78C399D15131CD36,C5C387AD27C255587105FDDC437D7F09,VTS,1,,2013-01-17 13:28:00,2013-01-17 13:33:00,1,300,.73,-73.984642,40.759151,-73.99144,40.749886
F6B0E6F93A25D74EB79D804A085C8832,96549A049045E238E54F2B88836C4DF5,CMT,1,N,2013-01-17 13:28:14,2013-01-17 13:35:55,1,461,.30,-73.979279,40.743774,-73.98465,40.742626
83D30B1DDEB63761051E96590CE912D9,B7856DD328B940C70DDB6E5BF8988372,CMT,1,N,2013-01-17 13:28:41,2013-01-17 13:56:32,2,1671,5.80,-73.982368,40.759747,-74.012825,40.702534
CD98CA13911488D180A72A1039A44B85,CF72DC38A57DE4A517B4FE23C0B2462A,VTS,1,,2013-01-17 13:30:00,2013-01-17 13:39:00,1,540,1.97,-73.982262,40.762478,-73.97187,40.74559
2F7430A075A7A4F9D4DA93F3BF4C49E0,C617C18C8270F35E970788CFA4B976B0,VTS,1,,2013-01-17 13:32:00,2013-01-17 13:47:00,1,900,4.14,-73.992554,40.768742,-74.013397,40.715908
3C52CFC36C88425F78C399D15131CD36,C5C387AD27C255587105FDDC437D7F09,VTS,1,,2013-01-17 13:33:00,2013-01-17 13:58:00,1,1500,3.44,-73.991402,40.749882,-73.954117,40.763969
739540B8D61BB50FBAF51509EECEEA75,292D3E892682FC711CBC1024A944D474,CMT,1,N,2013-01-17 13:36:03,2013-01-17 13:54:18,1,1095,6.70,-74.004448,40.716076,-73.953278,40.771549
0A39EB3AB3A2F35404F5188655AF4504,73C839CE30F75638FE591C7F07C4C468,CMT,1,N,2013-01-17 13:36:14,2013-01-17 13:39:59,1,224,.80,-73.988754,40.77774,-73.976181,40.776279
0A39EB3AB3A2F35404F5188655AF4504,73C839CE30F75638FE591C7F07C4C468,CMT,1,N,2013-01-17 13:40:53,2013-01-17 13:54:13,1,800,2.50,-73.976242,40.775906,-74.002419,40.748569
64AA3412C7E29AA863D269B2A345A039,DD6A3C01E68EA266E1F553B236BBBB1C,CMT,1,N,2013-01-17 13:42:05,2013-01-17 13:52:21,1,616,1.50,-73.984215,40.742619,-73.989281,40.757866
6445A77D0238C473F7DD8B94A6955EA3,E7E6F9F97F18C35E0CC1AC3CCBBB4D08,VTS,1,,2013-01-17 13:49:00,2013-01-17 14:14:00,1,1500,1.76,-73.994064,40.751232,-73.968666,40.750397
80B79425F9C2AB66A8E999D0554D5BE7,9DE07EB42B4AA5A46AB4C66A17D1E432,VTS,1,,2013-01-17 13:53:00,2013-01-17 14:05:00,1,720,1.93,-73.987366,40.750702,-74.005867,40.742088
64AA3412C7E29AA863D269B2A345A039,DD6A3C01E68EA266E1F553B236BBBB1C,CMT,4,N,2013-01-17 13:53:51,2013-01-17 13:57:49,2,238,.70,-73.989296,40.757862,-73.981583,40.763424
739540B8D61BB50FBAF51509EECEEA75,292D3E892682FC711CBC1024A944D474,CMT,1,N,2013-01-17 13:56:25,2013-01-17 13:58:02,1,96,.50,-73.951401,40.774178,-73.946945,40.78022
C569C8910159E5BD1DDF4861EE8D7FF2,B90ED0E0447B0981F2E3C49D370C514C,CMT,1,N,2013-01-17 13:56:48,2013-01-17 14:00:36,1,228,.70,-74.006844,40.730404,-73.998451,40.735104
F6B0E6F93A25D74EB79D804A085C8832,96549A049045E238E54F2B88836C4DF5,CMT,1,N,2013-01-17 13:59:43,2013-01-17 14:13:20,1,816,1.60,-73.986671,40.74271,-73.97226,40.762791
83D30B1DDEB63761051E96590CE912D9,B7856DD328B940C70DDB6E5BF8988372,CMT,1,N,2013-01-17 13:59:56,2013-01-17 14:22:15,2,1339,6.00,-74.004616,40.707424,-73.972374,40.765289
64AA3412C7E29AA863D269B2A345A039,DD6A3C01E68EA266E1F553B236BBBB1C,CMT,1,N,2013-01-17 14:01:24,2013-01-17 14:07:37,2,372,.70,-73.985313,40.756702,-73.991837,40.747082
0A39EB3AB3A2F35404F5188655AF4504,73C839CE30F75638FE591C7F07C4C468,CMT,1,N,2013-01-17 14:01:35,2013-01-17 14:14:40,1,784,1.80,-74.005516,40.748318,-73.985428,40.732601
3C52CFC36C88425F78C399D15131CD36,C5C387AD27C255587105FDDC437D7F09,VTS,1,,2013-01-17 14:02:00,2013-01-17 14:31:00,1,1740,2.89,-73.954437,40.764236,-73.99115,40.755417
2F7430A075A7A4F9D4DA93F3BF4C49E0,C617C18C8270F35E970788CFA4B976B0,VTS,1,,2013-01-17 14:03:00,2013-01-17 14:14:00,1,660,4.29,-74.015396,40.711781,-73.987358,40.72205
739540B8D61BB50FBAF51509EECEEA75,292D3E892682FC711CBC1024A944D474,CMT,1,N,2013-01-17 14:06:00,2013-01-17 14:14:38,1,517,1.10,-73.956085,40.772102,-73.965408,40.758423
80B79425F9C2AB66A8E999D0554D5BE7,9DE07EB42B4AA5A46AB4C66A17D1E432,VTS,1,,2013-01-17 14:08:00,2013-01-17 14:16:00,1,480,.83,-74.001297,40.741325,-73.993935,40.749458
64AA3412C7E29AA863D269B2A345A039,DD6A3C01E68EA266E1F553B236BBBB1C,CMT,1,N,2013-01-17 14:08:27,2013-01-17 14:28:01,1,1173,2.40,-73.991608,40.746941,-73.965591,40.763836
F6B0E6F93A25D74EB79D804A085C8832,96549A049045E238E54F2B88836C4DF5,CMT,1,N,2013-01-17 14:15:00,2013-01-17 14:21:27,1,387,1.20,-73.971863,40.764034,-73.960007,40.778
0A39EB3AB3A2F35404F5188655AF4504,73C839CE30F75638FE591C7F07C4C468,CMT,1,N,2013-01-17 14:15:26,2013-01-17 14:43:17,1,1670,6.30,-73.984634,40.732216,-73.980347,40.681648
6445A77D0238C473F7DD8B94A6955EA3,E7E6F9F97F18C35E0CC1AC3CCBBB4D08,VTS,1,,2013-01-17 14:17:00,2013-01-17 14:33:00,1,960,9.20,-73.972603,40.749443,-73.861206,40.767624
2F7430A075A7A4F9D4DA93F3BF4C49E0,C617C18C8270F35E970788CFA4B976B0,VTS,1,,2013-01-17 14:18:00,2013-01-17 14:24:00,1,360,1.11,-73.987717,40.7243,-74.002457,40.728336
90444DF112C5770C8C82DE2A7930C69B,4455B28ACC85731A184353FA7C75FA86,CMT,1,N,2013-01-17 14:19:15,2013-01-17 14:41:19,1,1323,3.80,-73.985359,40.722084,-73.99015,40.756157
C569C8910159E5BD1DDF4861EE8D7FF2,B90ED0E0447B0981F2E3C49D370C514C,CMT,1,N,2013-01-17 14:19:17,2013-01-17 14:26:30,1,432,1.30,-73.991074,40.755409,-73.987694,40.770432
739540B8D61BB50FBAF51509EECEEA75,292D3E892682FC711CBC1024A944D474,CMT,1,N,2013-01-17 14:23:39,2013-01-17 14:28:12,1,272,.70,-73.958031,40.769428,-73.964058,40.7612
80B79425F9C2AB66A8E999D0554D5BE7,9DE07EB42B4AA5A46AB4C66A17D1E432,VTS,1,,2013-01-17 14:24:00,2013-01-17 14:32:00,2,480,1.13,-73.983208,40.738682,-73.99321,40.727837
C12D2CAA4235AAE317E6E92C477D3153,E9D86653B8B64046875B88EFC2607111,VTS,2,,2013-01-17 14:25:00,2013-01-17 14:26:00,5,60,.01,-73.978943,40.76247,-73.978943,40.76247
F6B0E6F93A25D74EB79D804A085C8832,96549A049045E238E54F2B88836C4DF5,CMT,1,N,2013-01-17 14:25:58,2013-01-17 14:35:31,1,572,1.50,-73.95916,40.780167,-73.970604,40.764107
C569C8910159E5BD1DDF4861EE8D7FF2,B90ED0E0447B0981F2E3C49D370C514C,CMT,1,N,2013-01-17 14:27:18,2013-01-17 14:35:23,1,485,1.20,-73.987671,40.77047,-73.973206,40.764008
C12D2CAA4235AAE317E6E92C477D3153,E9D86653B8B64046875B88EFC2607111,VTS,1,,2013-01-17 14:29:00,2013-01-17 14:40:00,5,660,2.09,-73.97657,40.765129,-73.955544,40.785233
83D30B1DDEB63761051E96590CE912D9,B7856DD328B940C70DDB6E5BF8988372,CMT,1,N,2013-01-17 14:29:05,2013-01-17 14:33:28,2,262,.60,-73.976265,40.760342,-73.977684,40.75367
739540B8D61BB50FBAF51509EECEEA75,292D3E892682FC711CBC1024A944D474,CMT,1,N,2013-01-17 14:33:21,2013-01-17 14:39:59,1,398,1.80,-73.9739,40.751518,-73.955299,40.767464
64AA3412C7E29AA863D269B2A345A039,DD6A3C01E68EA266E1F553B236BBBB1C,CMT,1,N,2013-01-17 14:34:17,2013-01-17 14:41:46,1,448,1.50,-73.971436,40.757008,-73.986084,40.740135
2F7430A075A7A4F9D4DA93F3BF4C49E0,C617C18C8270F35E970788CFA4B976B0,VTS,1,,2013-01-17 14:36:00,2013-01-17 14:59:00,1,1380,2.83,-73.994362,40.732098,-73.973511,40.762733
F6B0E6F93A25D74EB79D804A085C8832,96549A049045E238E54F2B88836C4DF5,CMT,1,Y,2013-01-17 14:36:46,2013-01-17 14:56:14,1,1167,3.20,-73.971176,40.764301,-73.997292,40.724926
C569C8910159E5BD1DDF4861EE8D7FF2,B90ED0E0447B0981F2E3C49D370C514C,CMT,1,N,2013-01-17 14:38:11,2013-01-17 14:52:00,1,829,2.20,-73.973282,40.763813,-73.998177,40.755836
80B79425F9C2AB66A8E999D0554D5BE7,9DE07EB42B4AA5A46AB4C66A17D1E432,VTS,1,,2013-01-17 14:39:00,2013-01-17 15:13:00,1,2040,10.55,-73.989464,40.726093,-73.885162,40.770359
C12D2CAA4235AAE317E6E92C477D3153,E9D86653B8B64046875B88EFC2607111,VTS,1,,2013-01-17 14:41:00,2013-01-17 15:06:00,5,1500,6.21,-73.954796,40.78577,-74.006584,40.737537
64AA3412C7E29AA863D269B2A345A039,DD6A3C01E68EA266E1F553B236BBBB1C,CMT,1,N,2013-01-17 14:43:57,2013-01-17 14:58:38,1,880,3.30,-73.987854,40.740799,-73.982559,40.776585
3C52CFC36C88425F78C399D15131CD36,C5C387AD27C255587105FDDC437D7F09,VTS,1,,2013-01-17 14:44:00,2013-01-17 15:15:00,1,1860,3.37,-73.991714,40.750027,-73.956406,40.775387
739540B8D61BB50FBAF51509EECEEA75,292D3E892682FC711CBC1024A944D474,CMT,1,N,2013-01-17 14:45:06,2013-01-17 14:52:53,1,466,1.40,-73.955994,40.763737,-73.955254,40.778393
0A39EB3AB3A2F35404F5188655AF4504,73C839CE30F75638FE591C7F07C4C468,CMT,1,N,2013-01-17 14:50:54,2013-01-17 15:18:01,1,1626,8.80,-73.980186,40.688011,-73.948929,40.785995
739540B8D61BB50FBAF51509EECEEA75,292D3E892682FC711CBC1024A944D474,CMT,1,N,2013-01-17 14:54:42,2013-01-17 14:57:32,1,169,.50,-73.956612,40.778282,-73.960938,40.772362
739540B8D61BB50FBAF51509EECEEA75,292D3E892682FC711CBC1024A944D474,CMT,1,N,2013-01-17 15:00:21,2013-01-17 15:18:27,1,1086,1.70,-73.964661,40.767418,-73.983337,40.756535
64AA3412C7E29AA863D269B2A345A039,DD6A3C01E68EA266E1F553B236BBBB1C,CMT,1,N,2013-01-17 15:06:08,2013-01-17 15:19:36,3,808,1.70,-73.990318,40.771702,-73.982582,40.757854
CD98CA13911488D180A72A1039A44B85,CF72DC38A57DE4A517B4FE23C0B2462A,VTS,1,,2013-01-17 15:08:00,2013-01-17 15:13:00,2,300,.96,-73.979576,40.752556,-73.971672,40.763386
2F7430A075A7A4F9D4DA93F3BF4C49E0,C617C18C8270F35E970788CFA4B976B0,VTS,1,,2013-01-17 15:08:00,2013-01-17 15:18:00,1,600,1.99,-73.973213,40.763561,-73.971443,40.781868
589A1D907871256955793D7BF5A5FF72,1766DF6DEE8AF002FEAC38177AE4CD49,CMT,1,N,2013-01-17 15:08:34,2013-01-17 15:37:02,1,1707,10.10,-73.872627,40.774216,-73.980469,40.777283
31D5AAB6D05087D01621FCB2586F367C,C88C91AB920728433259DA21DF5815DB,CMT,1,N,2013-01-17 15:11:47,2013-01-17 15:32:25,2,1237,10.20,-73.87262,40.774277,-73.973747,40.757229
90444DF112C5770C8C82DE2A7930C69B,4455B28ACC85731A184353FA7C75FA86,CMT,1,N,2013-01-17 15:13:30,2013-01-17 15:47:53,1,2062,7.00,-73.986084,40.758644,-74.009949,40.705151
CD98CA13911488D180A72A1039A44B85,CF72DC38A57DE4A517B4FE23C0B2462A,VTS,1,,2013-01-17 15:14:00,2013-01-17 15:23:00,2,540,1.27,-73.979576,40.752556,-73.975548,40.75124
3C52CFC36C88425F78C399D15131CD36,C5C387AD27C255587105FDDC437D7F09,VTS,1,,2013-01-17 15:16:00,2013-01-17 15:25:00,1,540,2.17,-73.954788,40.777493,-73.932671,40.799526
6445A77D0238C473F7DD8B94A6955EA3,E7E6F9F97F18C35E0CC1AC3CCBBB4D08,VTS,1,,2013-01-17 15:18:00,2013-01-17 15:56:00,1,2280,11.91,-73.865196,40.770756,-73.975807,40.673977
2F7430A075A7A4F9D4DA93F3BF4C49E0,C617C18C8270F35E970788CFA4B976B0,VTS,1,,2013-01-17 15:19:00,2013-01-17 15:29:00,1,600,2.08,-73.97271,40.780785,-73.992477,40.758533
739540B8D61BB50FBAF51509EECEEA75,292D3E892682FC711CBC1024A944D474,CMT,1,N,2013-01-17 15:20:09,2013-01-17 15:42:19,1,1329,3.30,-73.982864,40.756721,-74.00502,40.719025
0A39EB3AB3A2F35404F5188655AF4504,73C839CE30F75638FE591C7F07C4C468,CMT,1,N,2013-01-17 15:24:49,2013-01-17 15:27:30,1,161,.40,-73.948586,40.782429,-73.951599,40.786209
C12D2CAA4235AAE317E6E92C477D3153,E9D86653B8B64046875B88EFC2607111,VTS,1,,2013-01-17 15:28:00,2013-01-17 15:36:00,5,480,1.03,-74.005943,40.73378,-73.989151,40.734005
2F7430A075A7A4F9D4DA93F3BF4C49E0,C617C18C8270F35E970788CFA4B976B0,VTS,1,,2013-01-17 15:30:00,2013-01-17 15:44:00,1,840,1.47,-73.993141,40.757915,-73.981171,40.745178
CD98CA13911488D180A72A1039A44B85,CF72DC38A57DE4A517B4FE23C0B2462A,VTS,1,,2013-01-17 15:30:00,2013-01-17 15:45:00,2,900,2.78,-73.977272,40.756603,-73.947578,40.779366
80B79425F9C2AB66A8E999D0554D5BE7,9DE07EB42B4AA5A46AB4C66A17D1E432,VTS,1,,2013-01-17 15:32:00,2013-01-17 16:01:00,1,1740,13.89,-73.866341,40.771107,-73.991737,40.723961
3C52CFC36C88425F78C399D15131CD36,C5C387AD27C255587105FDDC437D7F09,VTS,1,,2013-01-17 15:35:00,2013-01-17 15:41:00,1,360,1.67,-73.9459,40.781643,-73.937607,40.801189
C569C8910159E5BD1DDF4861EE8D7FF2,B90ED0E0447B0981F2E3C49D370C514C,CMT,1,N,2013-01-17 15:37:08,2013-01-17 15:38:48,1,99,.50,-73.992638,40.753544,-73.98835,40.759445
0A39EB3AB3A2F35404F5188655AF4504,73C839CE30F75638FE591C7F07C4C468,CMT,1,N,2013-01-17 15:38:41,2013-01-17 15:44:28,1,346,.60,-73.956146,40.784565,-73.957611,40.77673
F6B0E6F93A25D74EB79D804A085C8832,96549A049045E238E54F2B88836C4DF5,CMT,1,N,2013-01-17 15:39:03,2013-01-17 16:02:17,1,1393,5.10,-73.995049,40.74017,-73.966492,40.803307
589A1D907871256955793D7BF5A5FF72,1766DF6DEE8AF002FEAC38177AE4CD49,CMT,1,N,2013-01-17 15:39:30,2013-01-17 15:48:41,1,551,2.60,-73.981873,40.778214,-73.961586,40.81102
C12D2CAA4235AAE317E6E92C477D3153,E9D86653B8B64046875B88EFC2607111,VTS,1,,2013-01-17 15:40:00,2013-01-17 15:53:00,5,780,2.03,-73.983932,40.737617,-73.99781,40.75634
F68264CC7BB246243FAC08F878579C2C,9CE27314187FEB6ED94B02126F2C8122,CMT,1,N,2013-01-17 15:40:33,2013-01-17 15:49:30,4,536,1.10,-73.968346,40.751041,-73.982399,40.751083
3C52CFC36C88425F78C399D15131CD36,C5C387AD27C255587105FDDC437D7F09,VTS,1,,2013-01-17 15:41:00,2013-01-17 15:49:00,1,480,1.13,-73.937187,40.801723,-73.948578,40.800621
739540B8D61BB50FBAF51509EECEEA75,292D3E892682FC711CBC1024A944D474,CMT,1,N,2013-01-17 15:43:29,2013-01-17 15:53:35,1,605,2.90,-74.005005,40.719078,-74.004822,40.751968
C569C8910159E5BD1DDF4861EE8D7FF2,B90ED0E0447B0981F2E3C49D370C514C,CMT,1,N,2013-01-17 15:43:33,2013-01-17 16:11:30,1,1676,9.40,-73.985764,40.757607,-73.870537,40.773766
CD98CA13911488D180A72A1039A44B85,CF72DC38A57DE4A517B4FE23C0B2462A,VTS,1,,2013-01-17 15:46:00,2013-01-17 15:53:00,2,420,.93,-73.94635,40.780697,-73.953224,40.788441
0A39EB3AB3A2F35404F5188655AF4504,73C839CE30F75638FE591C7F07C4C468,CMT,1,N,2013-01-17 15:49:16,2013-01-17 15:53:16,1,240,1.20,-73.95179,40.781841,-73.940552,40.797382
90444DF112C5770C8C82DE2A7930C69B,4455B28ACC85731A184353FA7C75FA86,CMT,1,N,2013-01-17 15:49:59,2013-01-17 16:00:36,1,636,2.40,-74.010109,40.704994,-73.991302,40.702541
2F7430A075A7A4F9D4DA93F3BF4C49E0,C617C18C8270F35E970788CFA4B976B0,VTS,1,,2013-01-17 15:50:00,2013-01-17 16:02:00,1,720,2.64,-73.971756,40.746117,-73.978439,40.772247
F68264CC7BB246243FAC08F878579C2C,9CE27314187FEB6ED94B02126F2C8122,CMT,1,N,2013-01-17 15:51:07,2013-01-17 16:23:06,2,1918,9.20,-73.983376,40.749722,-73.861458,40.768108
589A1D907871256955793D7BF5A5FF72,1766DF6DEE8AF002FEAC38177AE4CD49,CMT,1,N,2013-01-17 15:52:39,2013-01-17 16:04:49,1,729,2.70,-73.965729,40.805748,-73.990761,40.775223
739540B8D61BB50FBAF51509EECEEA75,292D3E892682FC711CBC1024A944D474,CMT,1,N,2013-01-17 15:55:44,2013-01-17 16:12:25,1,1000,2.40,-74.005661,40.750935,-73.981445,40.728905
3C52CFC36C88425F78C399D15131CD36,C5C387AD27C255587105FDDC437D7F09,VTS,1,,2013-01-17 15:58:00,2013-01-17 16:06:00,1,480,1.14,-73.95903,40.783363,-73.967583,40.769207
90444DF112C5770C8C82DE2A7930C69B,4455B28ACC85731A184353FA7C75FA86,CMT,1,N,2013-01-17 16:02:23,2013-01-17 16:15:31,1,788,2.70,-73.987953,40.702442,-74.004593,40.712643
0A39EB3AB3A2F35404F5188655AF4504,73C839CE30F75638FE591C7F07C4C468,CMT,1,N,2013-01-17 16:02:50,2013-01-17 16:12:48,1,598,1.70,-73.949158,40.781647,-73.958176,40.761055
C12D2CAA4235AAE317E6E92C477D3153,E9D86653B8B64046875B88EFC2607111,VTS,1,,2013-01-17 16:06:00,2013-01-17 16:14:00,5,480,1.57,-73.980026,40.760185,-73.988731,40.777718
B3F5EED48959DD8A2BE31E218A170C5D,D90CB340C3357F8A4D216B23C1F104E1,VTS,1,,2013-01-17 16:09:00,2013-01-17 16:32:00,1,1380,4.83,-73.991592,40.735008,-73.947411,40.72686
589A1D907871256955793D7BF5A5FF72,1766DF6DEE8AF002FEAC38177AE4CD49,CMT,1,N,2013-01-17 16:09:16,2013-01-17 16:20:23,1,666,2.10,-73.981415,40.781052,-73.992104,40.754875
739540B8D61BB50FBAF51509EECEEA75,292D3E892682FC711CBC1024A944D474,CMT,1,N,2013-01-17 16:13:40,2013-01-17 16:22:16,1,516,1.40,-73.982262,40.727932,-74.002708,40.728767
3C52CFC36C88425F78C399D15131CD36,C5C387AD27C255587105FDDC437D7F09,VTS,1,,2013-01-17 16:15:00,2013-01-17 16:27:00,1,720,2.01,-73.960304,40.781403,-73.973427,40.757839
6445A77D0238C473F7DD8B94A6955EA3,E7E6F9F97F18C35E0CC1AC3CCBBB4D08,VTS,1,,2013-01-17 16:18:00,2013-01-17 16:37:00,1,1140,3.91,-74.001297,40.716251,-73.976868,40.764832
C12D2CAA4235AAE317E6E92C477D3153,E9D86653B8B64046875B88EFC2607111,VTS,1,,2013-01-17 16:22:00,2013-01-17 16:33:00,5,660,1.83,-73.98671,40.764194,-73.981903,40.746181
F6B0E6F93A25D74EB79D804A085C8832,96549A049045E238E54F2B88836C4DF5,CMT,1,N,2013-01-17 16:22:59,2013-01-17 16:27:52,1,292,1.10,-73.976662,40.775612,-73.975433,40.788036
739540B8D61BB50FBAF51509EECEEA75,292D3E892682FC711CBC1024A944D474,CMT,1,N,2013-01-17 16:23:44,2013-01-17 16:31:14,1,449,1.50,-74.001686,40.730751,-74.005234,40.718491
F68264CC7BB246243FAC08F878579C2C,9CE27314187FEB6ED94B02126F2C8122,CMT,1,N,2013-01-17 16:24:19,2013-01-17 16:56:29,1,1929,11.90,-73.861588,40.768242,-73.787872,40.647469
80B79425F9C2AB66A8E999D0554D5BE7,9DE07EB42B4AA5A46AB4C66A17D1E432,VTS,1,,2013-01-17 16:25:00,2013-01-17 16:38:00,1,780,1.86,-73.986435,40.730476,-73.997421,40.746685
589A1D907871256955793D7BF5A5FF72,1766DF6DEE8AF002FEAC38177AE4CD49,CMT,1,N,2013-01-17 16:26:28,2013-01-17 16:33:05,1,397,1.20,-73.988724,40.758457,-73.98246,40.775116
90444DF112C5770C8C82DE2A7930C69B,4455B28ACC85731A184353FA7C75FA86,CMT,1,N,2013-01-17 16:27:35,2013-01-17 16:33:07,1,331,1.00,-74.005058,40.720055,-73.996246,40.726448
F6B0E6F93A25D74EB79D804A085C8832,96549A049045E238E54F2B88836C4DF5,CMT,1,N,2013-01-17 16:32:19,2013-01-17 16:35:47,1,207,.90,-73.981453,40.778564,-73.974747,40.790409
C12D2CAA4235AAE317E6E92C477D3153,E9D86653B8B64046875B88EFC2607111,VTS,1,,2013-01-17 16:35:00,2013-01-17 16:42:00,5,420,.74,-73.984329,40.745628,-73.978218,40.75441
B3F5EED48959DD8A2BE31E218A170C5D,D90CB340C3357F8A4D216B23C1F104E1,VTS,1,,2013-01-17 16:37:00,2013-01-17 16:44:00,1,420,3.07,-73.946449,40.72205,-73.989029,40.721447
F6B0E6F93A25D74EB79D804A085C8832,96549A049045E238E54F2B88836C4DF5,CMT,1,N,2013-01-17 16:37:08,2013-01-17 17:50:52,1,4423,24.90,-73.974564,40.790646,-73.764168,40.600048
739540B8D61BB50FBAF51509EECEEA75,292D3E892682FC711CBC1024A944D474,CMT,1,N,2013-01-17 16:40:21,2013-01-17 16:49:30,1,549,1.50,-73.998474,40.723309,-73.980865,40.729626
6445A77D0238C473F7DD8B94A6955EA3,E7E6F9F97F18C35E0CC1AC3CCBBB4D08,VTS,1,,2013-01-17 16:43:00,2013-01-17 16:48:00,1,300,1.04,-73.986526,40.756466,-74.001663,40.76181
C12D2CAA4235AAE317E6E92C477D3153,E9D86653B8B64046875B88EFC2607111,VTS,1,,2013-01-17 16:43:00,2013-01-17 16:51:00,5,480,1.42,-73.977089,40.755779,-73.992844,40.767761
90444DF112C5770C8C82DE2A7930C69B,4455B28ACC85731A184353FA7C75FA86,CMT,1,N,2013-01-17 16:43:42,2013-01-17 16:47:52,1,249,2.00,-73.997269,40.716522,-73.983551,40.693295
B3F5EED48959DD8A2BE31E218A170C5D,D90CB340C3357F8A4D216B23C1F104E1,VTS,1,,2013-01-17 16:47:00,2013-01-17 17:03:00,1,960,2.48,-73.986053,40.72646,-73.991341,40.752384
C569C8910159E5BD1DDF4861EE8D7FF2,B90ED0E0447B0981F2E3C49D370C514C,CMT,1,N,2013-01-17 16:51:11,2013-01-17 16:56:58,1,347,1.00,-73.97654,40.751671,-73.993027,40.758656
6445A77D0238C473F7DD8B94A6955EA3,E7E6F9F97F18C35E0CC1AC3CCBBB4D08,VTS,1,,2013-01-17 16:55:00,2013-01-17 16:59:00,1,240,.74,-74.006767,40.749538,-73.997948,40.74588
739540B8D61BB50FBAF51509EECEEA75,292D3E892682FC711CBC1024A944D474,CMT,1,N,2013-01-17 16:56:01,2013-01-17 17:02:00,1,359,.90,-73.983559,40.725906,-73.993797,40.72102
C12D2CAA4235AAE317E6E92C477D3153,E9D86653B8B64046875B88EFC2607111,VTS,1,,2013-01-17 16:58:00,2013-01-17 17:02:00,5,240,.44,-73.983643,40.764229,-73.977776,40.763996
C569C8910159E5BD1DDF4861EE8D7FF2,B90ED0E0447B0981F2E3C49D370C514C,CMT,1,N,2013-01-17 17:02:06,2013-01-17 17:17:15,1,909,3.50,-74.000511,40.757877,-74.015343,40.710041
B3F5EED48959DD8A2BE31E218A170C5D,D90CB340C3357F8A4D216B23C1F104E1,VTS,1,,2013-01-17 17:05:00,2013-01-17 17:22:00,1,1020,2.97,-73.993317,40.752888,-73.97319,40.79258
C12D2CAA4235AAE317E6E92C477D3153,E9D86653B8B64046875B88EFC2607111,VTS,1,,2013-01-17 17:07:00,2013-01-17 17:16:00,5,540,1.75,-73.979713,40.770828,-73.960785,40.775173
7DE03ADA92FBF31073DDF11CE229B9EC,8BF504A2DFD94D3FB000BF49719AAA9B,VTS,1,,2013-01-17 17:15:00,2013-01-17 17:48:00,1,1980,10.38,-73.862709,40.769112,-73.963196,40.761639
C12D2CAA4235AAE317E6E92C477D3153,E9D86653B8B64046875B88EFC2607111,VTS,1,,2013-01-17 17:22:00,2013-01-17 17:24:00,5,120,.59,-73.956879,40.780838,-73.962212,40.773235
B3F5EED48959DD8A2BE31E218A170C5D,D90CB340C3357F8A4D216B23C1F104E1,VTS,1,,2013-01-17 17:27:00,2013-01-17 17:38:00,1,660,2.08,-73.969681,40.789776,-73.941277,40.78841
C12D2CAA4235AAE317E6E92C477D3153,E9D86653B8B64046875B88EFC2607111,VTS,1,,2013-01-17 17:28:00,2013-01-17 17:46:00,5,1080,1.78,-73.96965,40.763206,-73.987724,40.749886
306220DBC5AA9D8B1F972D6C96713E45,5F3BF133BA4A70D99AD877BF9B217B0A,CMT,1,N,2013-01-17 17:31:36,2013-01-17 17:54:47,1,1391,7.80,-73.892883,40.754688,-73.986015,40.726463
B3F5EED48959DD8A2BE31E218A170C5D,D90CB340C3357F8A4D216B23C1F104E1,VTS,1,,2013-01-17 17:45:00,2013-01-17 17:58:00,1,780,1.87,-73.951118,40.77874,-73.979584,40.785408
C12D2CAA4235AAE317E6E92C477D3153,E9D86653B8B64046875B88EFC2607111,VTS,1,,2013-01-17 17:48:00,2013-01-17 18:02:00,5,840,1.87,-73.993172,40.752571,-73.987999,40.735027
7DE03ADA92FBF31073DDF11CE229B9EC,8BF504A2DFD94D3FB000BF49719AAA9B,VTS,1,,2013-01-17 17:52:00,2013-01-17 18:03:00,1,660,1.78,-73.969109,40.762287,-73.949203,40.773392
B3F5EED48959DD8A2BE31E218A170C5D,D90CB340C3357F8A4D216B23C1F104E1,VTS,1,,2013-01-17 18:00:00,2013-01-17 18:03:00,1,180,.44,-73.977898,40.788914,-73.973907,40.794643
B3F5EED48959DD8A2BE31E218A170C5D,D90CB340C3357F8A4D216B23C1F104E1,VTS,1,,2013-01-17 18:04:00,2013-01-17 18:12:00,1,480,1.34,-73.97345,40.795048,-73.962852,40.811111
F68264CC7BB246243FAC08F878579C2C,9CE27314187FEB6ED94B02126F2C8122,CMT,2,N,2013-01-17 18:04:18,2013-01-17 18:49:14,2,2695,17.90,-73.780792,40.645058,-73.988976,40.756893
306220DBC5AA9D8B1F972D6C96713E45,5F3BF133BA4A70D99AD877BF9B217B0A,CMT,1,N,2013-01-17 18:06:11,2013-01-17 18:09:49,1,217,.70,-73.986732,40.739941,-73.980034,40.748585
C12D2CAA4235AAE317E6E92C477D3153,E9D86653B8B64046875B88EFC2607111,VTS,1,,2013-01-17 18:11:00,2013-01-17 18:26:00,5,900,1.56,-73.978294,40.745468,-73.979034,40.761917
7DE03ADA92FBF31073DDF11CE229B9EC,8BF504A2DFD94D3FB000BF49719AAA9B,VTS,1,,2013-01-17 18:11:00,2013-01-17 18:27:00,1,960,3.97,-73.951675,40.769756,-73.991585,40.738743
306220DBC5AA9D8B1F972D6C96713E45,5F3BF133BA4A70D99AD877BF9B217B0A,CMT,1,N,2013-01-17 18:13:56,2013-01-17 18:19:20,1,324,.60,-73.976868,40.750645,-73.971504,40.744579
B3F5EED48959DD8A2BE31E218A170C5D,D90CB340C3357F8A4D216B23C1F104E1,VTS,1,,2013-01-17 18:15:00,2013-01-17 18:20:00,1,300,1.09,-73.964363,40.80748,-73.973465,40.793678
6FC04F89BE153CF9F982ECCB52431760,0BDE24681A08B6B72748AA1BC8A10BE7,CMT,1,N,2013-01-17 18:21:17,2013-01-17 18:35:14,2,836,2.20,-73.984657,40.724705,-73.997704,40.746544
306220DBC5AA9D8B1F972D6C96713E45,5F3BF133BA4A70D99AD877BF9B217B0A,CMT,1,N,2013-01-17 18:22:08,2013-01-17 18:28:49,2,401,.60,-73.972038,40.745766,-73.976692,40.75193
C49E9852F88C785A94E8E57705C90B5C,F1594D359481D3069D9D806D2D501682,CMT,1,N,2013-01-17 18:26:14,2013-01-17 18:31:32,1,317,.60,-73.968735,40.754803,-73.976578,40.751556
7DE03ADA92FBF31073DDF11CE229B9EC,8BF504A2DFD94D3FB000BF49719AAA9B,VTS,1,,2013-01-17 18:28:00,2013-01-17 18:34:00,1,360,.85,-73.993019,40.736973,-74.005692,40.740223
B3F5EED48959DD8A2BE31E218A170C5D,D90CB340C3357F8A4D216B23C1F104E1,VTS,1,,2013-01-17 18:29:00,2013-01-17 18:35:00,1,360,.61,-73.981895,40.77887,-73.989067,40.77438
306220DBC5AA9D8B1F972D6C96713E45,5F3BF133BA4A70D99AD877BF9B217B0A,CMT,1,N,2013-01-17 18:29:35,2013-01-17 18:40:58,1,683,1.60,-73.976974,40.752083,-74.002609,40.760719
C49E9852F88C785A94E8E57705C90B5C,F1594D359481D3069D9D806D2D501682,CMT,1,N,2013-01-17 18:35:50,2013-01-17 18:42:36,1,406,1.10,-73.97625,40.755039,-73.964714,40.768192
7DE03ADA92FBF31073DDF11CE229B9EC,8BF504A2DFD94D3FB000BF49719AAA9B,VTS,1,,2013-01-17 18:36:00,2013-01-17 18:39:00,1,180,.59,-74.006844,40.741604,-74.004189,40.747532
B3F5EED48959DD8A2BE31E218A170C5D,D90CB340C3357F8A4D216B23C1F104E1,VTS,1,,2013-01-17 18:37:00,2013-01-17 19:04:00,1,1620,3.62,-73.990387,40.776001,-73.98365,40.74387
7DE03ADA92FBF31073DDF11CE229B9EC,8BF504A2DFD94D3FB000BF49719AAA9B,VTS,1,,2013-01-17 18:40:00,2013-01-17 18:44:00,1,240,1.08,-74.002838,40.749374,-73.991447,40.754753
7DE03ADA92FBF31073DDF11CE229B9EC,8BF504A2DFD94D3FB000BF49719AAA9B,VTS,1,,2013-01-17 18:45:00,2013-01-17 19:03:00,1,1080,2.76,-73.989113,40.754036,-73.978409,40.782284
306220DBC5AA9D8B1F972D6C96713E45,5F3BF133BA4A70D99AD877BF9B217B0A,CMT,1,N,2013-01-17 18:46:05,2013-01-17 19:11:07,1,1501,10.40,-74.006134,40.751049,-73.871223,40.774334
C49E9852F88C785A94E8E57705C90B5C,F1594D359481D3069D9D806D2D501682,CMT,1,N,2013-01-17 18:47:33,2013-01-17 18:51:53,1,259,.60,-73.969467,40.761021,-73.974594,40.751827
6FC04F89BE153CF9F982ECCB52431760,0BDE24681A08B6B72748AA1BC8A10BE7,CMT,1,N,2013-01-17 18:50:24,2013-01-17 18:55:18,1,294,.80,-74.006584,40.751266,-74.001289,40.742649
F68264CC7BB246243FAC08F878579C2C,9CE27314187FEB6ED94B02126F2C8122,CMT,1,N,2013-01-17 18:52:52,2013-01-17 18:57:20,3,267,1.00,-73.987656,40.755581,-73.992729,40.74284
C49E9852F88C785A94E8E57705C90B5C,F1594D359481D3069D9D806D2D501682,CMT,1,N,2013-01-17 18:52:52,2013-01-17 19:05:50,1,778,4.50,-73.974609,40.751789,-73.998108,40.71302
6FC04F89BE153CF9F982ECCB52431760,0BDE24681A08B6B72748AA1BC8A10BE7,CMT,1,N,2013-01-17 19:01:07,2013-01-17 19:08:35,1,447,1.20,-73.994705,40.75032,-74.005341,40.740185
F68264CC7BB246243FAC08F878579C2C,9CE27314187FEB6ED94B02126F2C8122,CMT,1,N,2013-01-17 19:02:22,2013-01-17 19:05:55,4,213,.70,-73.989792,40.741623,-73.996834,40.7314
7DE03ADA92FBF31073DDF11CE229B9EC,8BF504A2DFD94D3FB000BF49719AAA9B,VTS,1,,2013-01-17 19:05:00,2013-01-17 19:08:00,1,180,.62,-73.97673,40.780125,-73.982147,40.772961
B3F5EED48959DD8A2BE31E218A170C5D,D90CB340C3357F8A4D216B23C1F104E1,VTS,1,,2013-01-17 19:05:00,2013-01-17 19:11:00,1,360,1.00,-73.984833,40.742912,-73.981438,40.754692
B3F5EED48959DD8A2BE31E218A170C5D,D90CB340C3357F8A4D216B23C1F104E1,VTS,1,,2013-01-17 19:11:00,2013-01-17 19:22:00,1,660,1.49,-73.981575,40.754589,-73.982719,40.771839
C49E9852F88C785A94E8E57705C90B5C,F1594D359481D3069D9D806D2D501682,CMT,1,N,2013-01-17 19:11:47,2013-01-17 19:23:37,1,709,1.60,-74.003578,40.722649,-73.990105,40.737858
F68264CC7BB246243FAC08F878579C2C,9CE27314187FEB6ED94B02126F2C8122,CMT,1,N,2013-01-17 19:11:55,2013-01-17 19:41:15,2,1760,5.60,-73.992683,40.729393,-73.956978,40.733574
6FC04F89BE153CF9F982ECCB52431760,0BDE24681A08B6B72748AA1BC8A10BE7,CMT,1,N,2013-01-17 19:18:37,2013-01-17 19:23:18,2,281,.50,-73.996765,40.741657,-73.989487,40.744141
6FC04F89BE153CF9F982ECCB52431760,0BDE24681A08B6B72748AA1BC8A10BE7,CMT,1,N,2013-01-17 19:24:14,2013-01-17 19:29:34,1,320,1.00,-73.988937,40.74382,-73.978317,40.754284
C49E9852F88C785A94E8E57705C90B5C,F1594D359481D3069D9D806D2D501682,CMT,1,N,2013-01-17 19:24:27,2013-01-17 19:40:23,1,955,2.20,-73.990242,40.737389,-74.002708,40.76059
6FC04F89BE153CF9F982ECCB52431760,0BDE24681A08B6B72748AA1BC8A10BE7,CMT,1,N,2013-01-17 19:31:31,2013-01-17 19:41:49,1,618,1.70,-73.977905,40.754845,-73.960464,40.778526
B3F5EED48959DD8A2BE31E218A170C5D,D90CB340C3357F8A4D216B23C1F104E1,VTS,1,,2013-01-17 19:35:00,2013-01-17 19:40:00,1,300,1.44,-73.988304,40.764446,-74.001778,40.745922
7DE03ADA92FBF31073DDF11CE229B9EC,8BF504A2DFD94D3FB000BF49719AAA9B,VTS,1,,2013-01-17 19:37:00,2013-01-17 19:53:00,1,960,4.43,-73.937325,40.748688,-73.86338,40.737911
306220DBC5AA9D8B1F972D6C96713E45,5F3BF133BA4A70D99AD877BF9B217B0A,CMT,1,N,2013-01-17 19:38:04,2013-01-17 19:58:30,1,1226,11.60,-73.865181,40.771259,-73.979462,40.750015
C49E9852F88C785A94E8E57705C90B5C,F1594D359481D3069D9D806D2D501682,CMT,1,N,2013-01-17 19:40:59,2013-01-17 19:50:12,1,553,1.80,-74.002708,40.760586,-73.992287,40.745232
B3F5EED48959DD8A2BE31E218A170C5D,D90CB340C3357F8A4D216B23C1F104E1,VTS,1,,2013-01-17 19:42:00,2013-01-17 19:45:00,1,180,.47,-74.002129,40.745399,-74.007454,40.741089
6FC04F89BE153CF9F982ECCB52431760,0BDE24681A08B6B72748AA1BC8A10BE7,CMT,1,N,2013-01-17 19:42:22,2013-01-17 19:45:06,1,163,.40,-73.960464,40.778519,-73.962723,40.775673
B3F5EED48959DD8A2BE31E218A170C5D,D90CB340C3357F8A4D216B23C1F104E1,VTS,1,,2013-01-17 19:50:00,2013-01-17 20:01:00,1,660,2.24,-74.001984,40.740517,-74.009193,40.721722
6FC04F89BE153CF9F982ECCB52431760,0BDE24681A08B6B72748AA1BC8A10BE7,CMT,1,N,2013-01-17 19:53:33,2013-01-17 20:05:44,1,730,2.10,-73.968422,40.770428,-73.991035,40.749905
C49E9852F88C785A94E8E57705C90B5C,F1594D359481D3069D9D806D2D501682,CMT,1,N,2013-01-17 19:55:09,2013-01-17 20:07:01,1,712,3.10,-73.986992,40.750511,-73.953468,40.77961
306220DBC5AA9D8B1F972D6C96713E45,5F3BF133BA4A70D99AD877BF9B217B0A,CMT,1,N,2013-01-17 20:00:17,2013-01-17 20:14:26,2,848,2.20,-73.979469,40.750011,-74.000214,40.727703
F68264CC7BB246243FAC08F878579C2C,9CE27314187FEB6ED94B02126F2C8122,CMT,1,N,2013-01-17 20:00:21,2013-01-17 20:08:03,1,461,1.20,-73.98233,40.73159,-73.992523,40.724564
B3F5EED48959DD8A2BE31E218A170C5D,D90CB340C3357F8A4D216B23C1F104E1,VTS,1,,2013-01-17 20:03:00,2013-01-17 20:21:00,1,1080,3.85,-74.009598,40.722073,-73.978622,40.752785
6FC04F89BE153CF9F982ECCB52431760,0BDE24681A08B6B72748AA1BC8A10BE7,CMT,1,N,2013-01-17 20:07:06,2013-01-17 20:33:23,1,1576,7.00,-73.991028,40.749722,-73.931274,40.706436
F68264CC7BB246243FAC08F878579C2C,9CE27314187FEB6ED94B02126F2C8122,CMT,1,N,2013-01-17 20:08:40,2013-01-17 20:24:32,1,952,4.00,-73.992546,40.724514,-73.955536,40.771038
C49E9852F88C785A94E8E57705C90B5C,F1594D359481D3069D9D806D2D501682,CMT,1,N,2013-01-17 20:14:00,2013-01-17 20:15:46,1,106,.40,-73.961685,40.774189,-73.962814,40.769505
306220DBC5AA9D8B1F972D6C96713E45,5F3BF133BA4A70D99AD877BF9B217B0A,CMT,1,N,2013-01-17 20:15:58,2013-01-17 20:37:13,2,1274,4.80,-74.001724,40.727909,-73.952087,40.729671
C49E9852F88C785A94E8E57705C90B5C,F1594D359481D3069D9D806D2D501682,CMT,1,N,2013-01-17 20:19:28,2013-01-17 20:39:30,1,1202,3.10,-73.970291,40.759007,-73.997322,40.722176
B3F5EED48959DD8A2BE31E218A170C5D,D90CB340C3357F8A4D216B23C1F104E1,VTS,1,,2013-01-17 20:22:00,2013-01-17 20:37:00,1,900,2.33,-73.977837,40.752392,-73.985306,40.768253
C12D2CAA4235AAE317E6E92C477D3153,E9D86653B8B64046875B88EFC2607111,VTS,1,,2013-01-17 20:27:00,2013-01-17 20:51:00,5,1440,15.97,-73.781403,40.644932,-73.958878,40.60194
6FC04F89BE153CF9F982ECCB52431760,0BDE24681A08B6B72748AA1BC8A10BE7,CMT,1,N,2013-01-17 20:38:00,2013-01-17 20:51:36,1,815,3.10,-73.940826,40.711948,-73.994667,40.723038
306220DBC5AA9D8B1F972D6C96713E45,5F3BF133BA4A70D99AD877BF9B217B0A,CMT,1,N,2013-01-17 20:39:57,2013-01-17 20:49:54,1,597,4.40,-73.952454,40.72662,-73.98539,40.730034
C49E9852F88C785A94E8E57705C90B5C,F1594D359481D3069D9D806D2D501682,CMT,1,N,2013-01-17 20:40:11,2013-01-17 20:49:44,1,572,2.50,-73.997314,40.722191,-73.984444,40.750004
F68264CC7BB246243FAC08F878579C2C,9CE27314187FEB6ED94B02126F2C8122,CMT,1,N,2013-01-17 20:45:00,2013-01-17 20:56:15,1,674,2.40,-73.974091,40.756176,-74.004684,40.740704
C49E9852F88C785A94E8E57705C90B5C,F1594D359481D3069D9D806D2D501682,CMT,1,N,2013-01-17 20:50:26,2013-01-17 20:59:24,1,537,2.40,-73.984352,40.749962,-73.958237,40.772736
306220DBC5AA9D8B1F972D6C96713E45,5F3BF133BA4A70D99AD877BF9B217B0A,CMT,1,N,2013-01-17 20:51:18,2013-01-17 20:58:39,1,440,1.00,-73.986465,40.730423,-74.00296,40.734116
306220DBC5AA9D8B1F972D6C96713E45,5F3BF133BA4A70D99AD877BF9B217B0A,CMT,1,N,2013-01-17 21:00:25,2013-01-17 21:09:29,2,544,2.00,-74.002678,40.734085,-73.978821,40.744629
C49E9852F88C785A94E8E57705C90B5C,F1594D359481D3069D9D806D2D501682,CMT,1,N,2013-01-17 21:00:58,2013-01-17 21:04:32,1,214,.70,-73.957626,40.773308,-73.947922,40.774845
F68264CC7BB246243FAC08F878579C2C,9CE27314187FEB6ED94B02126F2C8122,CMT,1,N,2013-01-17 21:04:06,2013-01-17 21:12:46,1,520,2.50,-74.00605,40.745399,-73.976563,40.763996
306220DBC5AA9D8B1F972D6C96713E45,5F3BF133BA4A70D99AD877BF9B217B0A,CMT,1,N,2013-01-17 21:11:21,2013-01-17 21:16:39,1,317,.90,-73.978241,40.745556,-73.969688,40.757393
F68264CC7BB246243FAC08F878579C2C,9CE27314187FEB6ED94B02126F2C8122,CMT,1,N,2013-01-17 21:13:21,2013-01-17 21:25:17,1,715,3.70,-73.976303,40.763882,-73.947433,40.805077
306220DBC5AA9D8B1F972D6C96713E45,5F3BF133BA4A70D99AD877BF9B217B0A,CMT,1,N,2013-01-17 21:18:12,2013-01-17 21:25:13,2,421,2.30,-73.969398,40.757607,-73.946213,40.780563
6FC04F89BE153CF9F982ECCB52431760,0BDE24681A08B6B72748AA1BC8A10BE7,CMT,1,N,2013-01-17 21:18:53,2013-01-17 21:25:01,2,368,.70,-73.997025,40.720718,-73.989212,40.722977
7DE03ADA92FBF31073DDF11CE229B9EC,8BF504A2DFD94D3FB000BF49719AAA9B,VTS,1,,2013-01-17 21:19:00,2013-01-17 21:50:00,1,1860,20.50,-73.776718,40.645302,-73.990692,40.684422
B3F5EED48959DD8A2BE31E218A170C5D,D90CB340C3357F8A4D216B23C1F104E1,VTS,1,,2013-01-17 21:22:00,2013-01-17 21:29:00,1,420,1.63,-73.996155,40.753529,-73.986694,40.737907
6FC04F89BE153CF9F982ECCB52431760,0BDE24681A08B6B72748AA1BC8A10BE7,CMT,1,N,2013-01-17 21:27:33,2013-01-17 21:31:50,1,257,.50,-73.985786,40.722965,-73.992081,40.725777
B3F5EED48959DD8A2BE31E218A170C5D,D90CB340C3357F8A4D216B23C1F104E1,VTS,1,,2013-01-17 21:30:00,2013-01-17 21:50:00,1,1200,3.65,-73.986626,40.738071,-73.95446,40.777969
306220DBC5AA9D8B1F972D6C96713E45,5F3BF133BA4A70D99AD877BF9B217B0A,CMT,1,N,2013-01-17 21:33:42,2013-01-17 21:36:40,2,177,.60,-73.960304,40.762165,-73.968773,40.76659
F68264CC7BB246243FAC08F878579C2C,9CE27314187FEB6ED94B02126F2C8122,CMT,1,N,2013-01-17 21:35:41,2013-01-17 21:42:44,1,423,1.50,-73.972847,40.764385,-73.955765,40.77655
6FC04F89BE153CF9F982ECCB52431760,0BDE24681A08B6B72748AA1BC8A10BE7,CMT,1,N,2013-01-17 21:37:42,2013-01-17 21:42:37,1,294,1.00,-73.988037,40.738255,-73.977753,40.751713
306220DBC5AA9D8B1F972D6C96713E45,5F3BF133BA4A70D99AD877BF9B217B0A,CMT,1,N,2013-01-17 21:41:56,2013-01-17 21:47:43,3,346,.80,-73.966843,40.7701,-73.95607,40.766155
F68264CC7BB246243FAC08F878579C2C,9CE27314187FEB6ED94B02126F2C8122,CMT,1,N,2013-01-17 21:45:07,2013-01-17 21:53:56,1,529,2.60,-73.951874,40.781887,-73.983429,40.764946
6FC04F89BE153CF9F982ECCB52431760,0BDE24681A08B6B72748AA1BC8A10BE7,CMT,1,N,2013-01-17 21:46:22,2013-01-17 21:54:56,1,513,1.20,-73.974838,40.753681,-73.985214,40.764683
C12D2CAA4235AAE317E6E92C477D3153,E9D86653B8B64046875B88EFC2607111,VTS,2,,2013-01-17 21:50:00,2013-01-17 21:50:00,5,0,.00,-73.966728,40.764236,-73.966736,40.764233
306220DBC5AA9D8B1F972D6C96713E45,5F3BF133BA4A70D99AD877BF9B217B0A,CMT,1,N,2013-01-17 21:54:22,2013-01-17 21:57:44,2,202,1.10,-73.965843,40.7621,-73.953178,40.770065
C12D2CAA4235AAE317E6E92C477D3153,E9D86653B8B64046875B88EFC2607111,VTS,1,,2013-01-17 21:57:00,2013-01-17 22:12:00,5,900,3.13,-73.965652,40.771294,-73.988823,40.734932
F68264CC7BB246243FAC08F878579C2C,9CE27314187FEB6ED94B02126F2C8122,CMT,1,N,2013-01-17 21:57:05,2013-01-17 22:03:17,1,371,1.50,-73.980156,40.765781,-73.96106,40.774731
6FC04F89BE153CF9F982ECCB52431760,0BDE24681A08B6B72748AA1BC8A10BE7,CMT,1,N,2013-01-17 22:00:17,2013-01-17 22:07:20,1,422,.90,-73.982468,40.758984,-73.974579,40.749069
B3F5EED48959DD8A2BE31E218A170C5D,D90CB340C3357F8A4D216B23C1F104E1,VTS,1,,2013-01-17 22:05:00,2013-01-17 22:09:00,1,240,1.17,-73.974022,40.753471,-73.981644,40.763504
F68264CC7BB246243FAC08F878579C2C,9CE27314187FEB6ED94B02126F2C8122,CMT,1,N,2013-01-17 22:05:20,2013-01-17 22:17:07,2,706,2.10,-73.959587,40.774235,-73.983894,40.757744
7DE03ADA92FBF31073DDF11CE229B9EC,8BF504A2DFD94D3FB000BF49719AAA9B,VTS,1,,2013-01-17 22:06:00,2013-01-17 22:30:00,1,1440,7.10,-74.012199,40.704117,-73.97747,40.787148
306220DBC5AA9D8B1F972D6C96713E45,5F3BF133BA4A70D99AD877BF9B217B0A,CMT,1,N,2013-01-17 22:06:31,2013-01-17 22:15:45,1,553,2.50,-73.968018,40.762348,-73.993813,40.738503
B3F5EED48959DD8A2BE31E218A170C5D,D90CB340C3357F8A4D216B23C1F104E1,VTS,1,,2013-01-17 22:11:00,2013-01-17 22:26:00,1,900,3.77,-73.981812,40.763718,-74.011253,40.715439
C49E9852F88C785A94E8E57705C90B5C,F1594D359481D3069D9D806D2D501682,CMT,1,N,2013-01-17 22:12:24,2013-01-17 22:22:43,1,619,2.90,-73.98835,40.73737,-73.959328,40.769199
6FC04F89BE153CF9F982ECCB52431760,0BDE24681A08B6B72748AA1BC8A10BE7,CMT,1,N,2013-01-17 22:14:42,2013-01-17 22:25:00,1,617,1.50,-73.968407,40.75893,-73.986732,40.761368
C12D2CAA4235AAE317E6E92C477D3153,E9D86653B8B64046875B88EFC2607111,VTS,1,,2013-01-17 22:17:00,2013-01-17 22:20:00,5,180,.91,-73.981354,40.741383,-73.975647,40.752003
306220DBC5AA9D8B1F972D6C96713E45,5F3BF133BA4A70D99AD877BF9B217B0A,CMT,1,N,2013-01-17 22:18:40,2013-01-17 22:23:55,1,315,1.10,-73.99469,40.740295,-74.001213,40.731903
F68264CC7BB246243FAC08F878579C2C,9CE27314187FEB6ED94B02126F2C8122,CMT,1,N,2013-01-17 22:19:39,2013-01-17 22:44:06,1,1467,6.60,-73.985046,40.758202,-73.970161,40.677952
6FC04F89BE153CF9F982ECCB52431760,0BDE24681A08B6B72748AA1BC8A10BE7,CMT,1,N,2013-01-17 22:25:35,2013-01-17 22:29:19,2,223,.70,-73.986771,40.761345,-73.982063,40.771427
306220DBC5AA9D8B1F972D6C96713E45,5F3BF133BA4A70D99AD877BF9B217B0A,CMT,1,N,2013-01-17 22:26:52,2013-01-17 22:37:43,2,650,2.20,-73.999626,40.734016,-74.009155,40.713947
C49E9852F88C785A94E8E57705C90B5C,F1594D359481D3069D9D806D2D501682,CMT,1,N,2013-01-17 22:29:41,2013-01-17 22:41:01,1,680,2.10,-73.969498,40.753536,-73.992737,40.747772
6FC04F89BE153CF9F982ECCB52431760,0BDE24681A08B6B72748AA1BC8A10BE7,CMT,1,N,2013-01-17 22:30:20,2013-01-17 22:46:09,2,948,3.80,-73.98217,40.771729,-73.950409,40.811275
B3F5EED48959DD8A2BE31E218A170C5D,D90CB340C3357F8A4D216B23C1F104E1,VTS,1,,2013-01-17 22:32:00,2013-01-17 22:45:00,1,780,5.84,-74.01506,40.714294,-73.98082,40.744926
306220DBC5AA9D8B1F972D6C96713E45,5F3BF133BA4A70D99AD877BF9B217B0A,CMT,1,N,2013-01-17 22:41:17,2013-01-17 22:44:06,1,168,.70,-74.00901,40.713642,-74.001602,40.722294
C49E9852F88C785A94E8E57705C90B5C,F1594D359481D3069D9D806D2D501682,CMT,1,N,2013-01-17 22:41:49,2013-01-17 22:48:47,1,417,1.40,-73.99292,40.747749,-73.974464,40.746971
306220DBC5AA9D8B1F972D6C96713E45,5F3BF133BA4A70D99AD877BF9B217B0A,CMT,1,N,2013-01-17 22:44:57,2013-01-17 22:48:54,1,237,.70,-74.001602,40.722359,-74.010483,40.720146
306220DBC5AA9D8B1F972D6C96713E45,5F3BF133BA4A70D99AD877BF9B217B0A,CMT,1,N,2013-01-17 22:50:53,2013-01-17 22:55:39,1,286,1.00,-74.010117,40.720669,-74.001343,40.726017
B3F5EED48959DD8A2BE31E218A170C5D,D90CB340C3357F8A4D216B23C1F104E1,VTS,1,,2013-01-17 22:53:00,2013-01-17 22:56:00,1,180,.81,-73.990448,40.737236,-74.001648,40.733856
C12D2CAA4235AAE317E6E92C477D3153,E9D86653B8B64046875B88EFC2607111,VTS,1,,2013-01-17 22:54:00,2013-01-17 23:01:00,5,420,2.52,-73.977814,40.755016,-73.952736,40.779621
6FC04F89BE153CF9F982ECCB52431760,0BDE24681A08B6B72748AA1BC8A10BE7,CMT,1,N,2013-01-17 22:55:21,2013-01-17 23:05:30,1,609,3.20,-73.970749,40.788387,-73.983971,40.755672
B3F5EED48959DD8A2BE31E218A170C5D,D90CB340C3357F8A4D216B23C1F104E1,VTS,1,,2013-01-17 22:58:00,2013-01-17 23:16:00,1,1080,4.83,-74.002571,40.73365,-73.9785,40.785648
306220DBC5AA9D8B1F972D6C96713E45,5F3BF133BA4A70D99AD877BF9B217B0A,CMT,1,N,2013-01-17 22:59:12,2013-01-17 23:09:06,1,594,2.50,-74.0019,40.729534,-73.990242,40.75684
C12D2CAA4235AAE317E6E92C477D3153,E9D86653B8B64046875B88EFC2607111,VTS,1,,2013-01-17 23:03:00,2013-01-17 23:06:00,5,180,.88,-73.955872,40.779751,-73.952309,40.789829
C12D2CAA4235AAE317E6E92C477D3153,E9D86653B8B64046875B88EFC2607111,VTS,1,,2013-01-17 23:06:00,2013-01-17 23:21:00,5,900,3.74,-73.952362,40.789837,-73.9375,40.832718
F68264CC7BB246243FAC08F878579C2C,9CE27314187FEB6ED94B02126F2C8122,CMT,1,N,2013-01-17 23:07:03,2013-01-17 23:17:18,1,614,2.70,-73.981056,40.741901,-73.953613,40.771297
6FC04F89BE153CF9F982ECCB52431760,0BDE24681A08B6B72748AA1BC8A10BE7,CMT,1,N,2013-01-17 23:09:21,2013-01-17 23:19:14,1,593,1.80,-73.989159,40.758118,-74.0009,40.737019
6FC04F89BE153CF9F982ECCB52431760,0BDE24681A08B6B72748AA1BC8A10BE7,CMT,1,N,2013-01-17 23:23:26,2013-01-17 23:30:57,1,450,1.50,-74.006111,40.73592,-73.983078,40.736423
306220DBC5AA9D8B1F972D6C96713E45,5F3BF133BA4A70D99AD877BF9B217B0A,CMT,5,N,2013-01-17 23:25:19,2013-01-17 23:25:51,1,32,.00,-74.036087,40.742348,-74.036087,40.742348
C49E9852F88C785A94E8E57705C90B5C,F1594D359481D3069D9D806D2D501682,CMT,1,N,2013-01-17 23:31:24,2013-01-17 23:33:50,1,145,.60,-73.986511,40.730286,-73.978241,40.729477
F68264CC7BB246243FAC08F878579C2C,9CE27314187FEB6ED94B02126F2C8122,CMT,1,N,2013-01-17 23:31:46,2013-01-17 23:35:03,1,196,.70,-73.970253,40.75967,-73.971222,40.750999
F68264CC7BB246243FAC08F878579C2C,9CE27314187FEB6ED94B02126F2C8122,CMT,1,N,2013-01-17 23:36:47,2013-01-17 23:40:27,3,219,.50,-73.971664,40.750381,-73.97065,40.756035
B3F5EED48959DD8A2BE31E218A170C5D,D90CB340C3357F8A4D216B23C1F104E1,VTS,1,,2013-01-17 23:38:00,2013-01-17 23:48:00,1,600,3.14,-73.990135,40.76181,-73.964066,40.798065
6FC04F89BE153CF9F982ECCB52431760,0BDE24681A08B6B72748AA1BC8A10BE7,CMT,1,N,2013-01-17 23:38:28,2013-01-17 23:41:17,2,168,.70,-73.985443,40.738564,-73.980186,40.746601
7DE03ADA92FBF31073DDF11CE229B9EC,8BF504A2DFD94D3FB000BF49719AAA9B,VTS,2,,2013-01-17 23:42:00,2013-01-18 00:20:00,1,2280,19.25,-73.790894,40.645309,-73.965317,40.790859
B3F5EED48959DD8A2BE31E218A170C5D,D90CB340C3357F8A4D216B23C1F104E1,VTS,1,,2013-01-17 23:51:00,2013-01-17 23:54:00,1,180,.50,-73.970306,40.788948,-73.972916,40.792847
C49E9852F88C785A94E8E57705C90B5C,F1594D359481D3069D9D806D2D501682,CMT,1,N,2013-01-17 23:52:31,2013-01-17 23:59:57,1,445,1.30,-74.003677,40.723564,-73.988373,40.728844
306220DBC5AA9D8B1F972D6C96713E45,5F3BF133BA4A70D99AD877BF9B217B0A,CMT,1,N,2013-01-17 23:53:04,2013-01-17 23:59:26,1,381,2.50,-73.981041,40.759197,-73.952148,40.776295
