6FC04F89BE153CF9F982ECCB52431760,0BDE24681A08B6B72748AA1BC8A10BE7,CMT,1,N,2013-01-18 00:19:08,2013-01-18 00:39:57,2,1249,3.70,-73.982147,40.743351,-73.993652,40.715363
C49E9852F88C785A94E8E57705C90B5C,F1594D359481D3069D9D806D2D501682,CMT,1,N,2013-01-18 00:24:39,2013-01-18 00:30:34,1,355,1.40,-74.007416,40.743263,-73.98658,40.737255
B3F5EED48959DD8A2BE31E218A170C5D,D90CB340C3357F8A4D216B23C1F104E1,VTS,1,,2013-01-18 00:25:00,2013-01-18 00:34:00,1,540,1.62,-73.986137,40.748447,-73.986404,40.76215
B3F5EED48959DD8A2BE31E218A170C5D,D90CB340C3357F8A4D216B23C1F104E1,VTS,1,,2013-01-18 00:41:00,2013-01-18 00:55:00,1,840,3.98,-73.987144,40.760426,-73.979179,40.721062
C49E9852F88C785A94E8E57705C90B5C,F1594D359481D3069D9D806D2D501682,CMT,1,N,2013-01-18 00:43:03,2013-01-18 00:57:55,1,891,2.80,-74.00692,40.743176,-73.991745,40.71521
B3F5EED48959DD8A2BE31E218A170C5D,D90CB340C3357F8A4D216B23C1F104E1,VTS,1,,2013-01-18 00:56:00,2013-01-18 01:03:00,1,420,1.10,-73.97937,40.72113,-73.988625,40.731125
306220DBC5AA9D8B1F972D6C96713E45,5F3BF133BA4A70D99AD877BF9B217B0A,CMT,1,N,2013-01-18 00:59:32,2013-01-18 01:20:37,1,1265,6.90,-73.974182,40.762836,-73.949356,40.695343
6FC04F89BE153CF9F982ECCB52431760,0BDE24681A08B6B72748AA1BC8A10BE7,CMT,5,N,2013-01-18 01:05:27,2013-01-18 01:24:50,1,1162,3.80,-73.982048,40.759911,-74.042641,40.715992
C49E9852F88C785A94E8E57705C90B5C,F1594D359481D3069D9D806D2D501682,CMT,1,N,2013-01-18 01:08:30,2013-01-18 01:28:42,1,1211,7.50,-73.980118,40.726955,-73.951286,40.80777
B3F5EED48959DD8A2BE31E218A170C5D,D90CB340C3357F8A4D216B23C1F104E1,VTS,1,,2013-01-18 01:18:00,2013-01-18 01:22:00,1,240,1.37,-73.998024,40.74588,-73.98893,40.762756
C49E9852F88C785A94E8E57705C90B5C,F1594D359481D3069D9D806D2D501682,CMT,1,N,2013-01-18 01:32:18,2013-01-18 01:42:17,1,599,3.40,-73.957626,40.800438,-73.982574,40.762417
C49E9852F88C785A94E8E57705C90B5C,F1594D359481D3069D9D806D2D501682,CMT,1,N,2013-01-18 02:35:56,2013-01-18 02:41:45,1,348,2.80,-73.951614,40.778137,-73.98175,40.751469
6FC04F89BE153CF9F982ECCB52431760,0BDE24681A08B6B72748AA1BC8A10BE7,CMT,5,N,2013-01-18 02:44:11,2013-01-18 02:55:38,1,687,.00,-73.984741,40.761002,-74.032822,40.74688
0DA4DCB0E5C0987E4F27F4DFF345AABB,A3BDDA114A27319BA9BE2BFEAF348E8B,CMT,1,N,2013-01-18 04:15:14,2013-01-18 04:17:02,1,108,.80,-73.982216,40.731731,-73.97538,40.741489
0DA4DCB0E5C0987E4F27F4DFF345AABB,A3BDDA114A27319BA9BE2BFEAF348E8B,CMT,1,N,2013-01-18 04:30:04,2013-01-18 04:36:23,1,378,.30,-73.951286,40.782524,-73.948395,40.781326
3246AA03B718062309B61CEFEDA6C60A,79F8BC483D5BD960CCF3169E6A42793C,VTS,1,,2013-01-18 04:44:00,2013-01-18 04:55:00,1,660,4.44,-73.978539,40.745213,-74.00634,40.709644
0DA4DCB0E5C0987E4F27F4DFF345AABB,A3BDDA114A27319BA9BE2BFEAF348E8B,CMT,1,N,2013-01-18 04:46:34,2013-01-18 04:48:09,1,95,.70,-73.956917,40.766533,-73.949806,40.77354
0DA4DCB0E5C0987E4F27F4DFF345AABB,A3BDDA114A27319BA9BE2BFEAF348E8B,CMT,1,N,2013-01-18 04:51:11,2013-01-18 05:04:45,1,813,8.10,-73.952164,40.768772,-73.870277,40.773445
4CF38C0C5DE00C68B5AFFF44857FE359,73C839CE30F75638FE591C7F07C4C468,CMT,1,N,2013-01-18 04:57:07,2013-01-18 05:01:21,1,254,.60,-73.9879,40.76498,-73.980591,40.759872
3246AA03B718062309B61CEFEDA6C60A,79F8BC483D5BD960CCF3169E6A42793C,VTS,1,,2013-01-18 05:08:00,2013-01-18 05:14:00,1,360,2.02,-73.987427,40.724792,-73.985367,40.711674
3246AA03B718062309B61CEFEDA6C60A,79F8BC483D5BD960CCF3169E6A42793C,VTS,1,,2013-01-18 05:18:00,2013-01-18 05:26:00,1,480,2.66,-73.989639,40.720322,-73.975632,40.751698
0DA4DCB0E5C0987E4F27F4DFF345AABB,A3BDDA114A27319BA9BE2BFEAF348E8B,CMT,1,N,2013-01-18 05:20:18,2013-01-18 05:31:16,1,658,5.20,-73.987793,40.724049,-73.942024,40.789635
64AA3412C7E29AA863D269B2A345A039,DD6A3C01E68EA266E1F553B236BBBB1C,CMT,1,N,2013-01-18 05:27:13,2013-01-18 05:36:16,1,542,3.00,-74.006187,40.72723,-73.986259,40.757908
3246AA03B718062309B61CEFEDA6C60A,79F8BC483D5BD960CCF3169E6A42793C,VTS,1,,2013-01-18 05:32:00,2013-01-18 05:52:00,1,1200,12.46,-73.98365,40.757591,-73.861954,40.765079
0DA4DCB0E5C0987E4F27F4DFF345AABB,A3BDDA114A27319BA9BE2BFEAF348E8B,CMT,1,N,2013-01-18 05:33:08,2013-01-18 05:48:31,3,923,4.50,-73.944855,40.787281,-73.973076,40.738514
4CF38C0C5DE00C68B5AFFF44857FE359,73C839CE30F75638FE591C7F07C4C468,CMT,1,N,2013-01-18 05:36:04,2013-01-18 05:44:48,1,523,2.60,-73.974266,40.793888,-73.998451,40.76078
64AA3412C7E29AA863D269B2A345A039,DD6A3C01E68EA266E1F553B236BBBB1C,CMT,1,N,2013-01-18 05:37:23,2013-01-18 05:45:54,1,511,1.40,-73.979561,40.754456,-73.994377,40.750538
B3F5EED48959DD8A2BE31E218A170C5D,D90CB340C3357F8A4D216B23C1F104E1,VTS,1,,2013-01-18 05:50:00,2013-01-18 06:00:00,1,600,2.26,-73.975716,40.752441,-74.00605,40.748547
FE546F9EEE639C4A85F489A99D125B89,4C21B8D3AFE2DB018412199EFE80DFAB,CMT,1,N,2013-01-18 05:51:35,2013-01-18 06:11:00,1,1164,5.40,-73.988609,40.722683,-74.003838,40.740364
0DA4DCB0E5C0987E4F27F4DFF345AABB,A3BDDA114A27319BA9BE2BFEAF348E8B,CMT,1,N,2013-01-18 05:52:22,2013-01-18 05:54:07,1,105,.90,-73.971947,40.745697,-73.966805,40.756638
0DA4DCB0E5C0987E4F27F4DFF345AABB,A3BDDA114A27319BA9BE2BFEAF348E8B,CMT,1,N,2013-01-18 05:55:53,2013-01-18 05:58:22,1,148,.50,-73.969933,40.758873,-73.96138,40.756805
64AA3412C7E29AA863D269B2A345A039,DD6A3C01E68EA266E1F553B236BBBB1C,CMT,1,N,2013-01-18 05:55:53,2013-01-18 06:00:34,1,281,1.20,-73.997696,40.75642,-73.994415,40.745831
0DA4DCB0E5C0987E4F27F4DFF345AABB,A3BDDA114A27319BA9BE2BFEAF348E8B,CMT,1,N,2013-01-18 06:04:21,2013-01-18 06:12:34,1,493,2.50,-73.954056,40.770287,-73.972748,40.793209
83D30B1DDEB63761051E96590CE912D9,B7856DD328B940C70DDB6E5BF8988372,CMT,1,N,2013-01-18 06:05:49,2013-01-18 06:09:17,1,208,.90,-73.859497,40.735771,-73.85685,40.732254
3246AA03B718062309B61CEFEDA6C60A,79F8BC483D5BD960CCF3169E6A42793C,VTS,1,,2013-01-18 06:08:00,2013-01-18 06:21:00,1,780,5.92,-73.989685,40.719147,-73.936111,40.736637
4CF38C0C5DE00C68B5AFFF44857FE359,73C839CE30F75638FE591C7F07C4C468,CMT,1,N,2013-01-18 06:09:24,2013-01-18 06:16:11,1,406,1.70,-73.988815,40.777092,-74.002235,40.755939
64AA3412C7E29AA863D269B2A345A039,DD6A3C01E68EA266E1F553B236BBBB1C,CMT,1,N,2013-01-18 06:09:42,2013-01-18 06:15:58,1,375,2.60,-73.993416,40.745255,-74.013428,40.716663
0DA4DCB0E5C0987E4F27F4DFF345AABB,A3BDDA114A27319BA9BE2BFEAF348E8B,CMT,1,N,2013-01-18 06:18:16,2013-01-18 06:24:13,1,357,2.70,-73.974548,40.783688,-74.002716,40.760605
FE546F9EEE639C4A85F489A99D125B89,4C21B8D3AFE2DB018412199EFE80DFAB,CMT,1,N,2013-01-18 06:23:43,2013-01-18 06:29:03,1,319,1.10,-73.994003,40.751167,-74.000618,40.761894
4CF38C0C5DE00C68B5AFFF44857FE359,73C839CE30F75638FE591C7F07C4C468,CMT,1,N,2013-01-18 06:23:49,2013-01-18 06:27:29,1,219,.90,-73.99958,40.76228,-73.985832,40.760464
64AA3412C7E29AA863D269B2A345A039,DD6A3C01E68EA266E1F553B236BBBB1C,CMT,1,N,2013-01-18 06:25:36,2013-01-18 06:34:11,1,514,2.80,-74.006111,40.734962,-73.978218,40.759663
4CF38C0C5DE00C68B5AFFF44857FE359,73C839CE30F75638FE591C7F07C4C468,CMT,1,N,2013-01-18 06:32:00,2013-01-18 06:40:57,1,537,1.80,-73.987236,40.760918,-73.974419,40.744164
0DA4DCB0E5C0987E4F27F4DFF345AABB,A3BDDA114A27319BA9BE2BFEAF348E8B,CMT,1,N,2013-01-18 06:32:06,2013-01-18 06:35:12,1,185,.90,-73.997147,40.757114,-73.986603,40.762341
B3F5EED48959DD8A2BE31E218A170C5D,D90CB340C3357F8A4D216B23C1F104E1,VTS,1,,2013-01-18 06:34:00,2013-01-18 06:38:00,1,240,.76,-73.975685,40.754726,-73.980858,40.749786
83D30B1DDEB63761051E96590CE912D9,B7856DD328B940C70DDB6E5BF8988372,CMT,1,N,2013-01-18 06:34:56,2013-01-18 06:36:41,1,104,.70,-73.946114,40.773254,-73.952286,40.765087
64AA3412C7E29AA863D269B2A345A039,DD6A3C01E68EA266E1F553B236BBBB1C,CMT,1,N,2013-01-18 06:38:18,2013-01-18 06:44:07,1,349,.70,-73.983154,40.760921,-73.972862,40.759239
3246AA03B718062309B61CEFEDA6C60A,79F8BC483D5BD960CCF3169E6A42793C,VTS,1,,2013-01-18 06:41:00,2013-01-18 06:52:00,1,660,2.31,-73.985672,40.735031,-73.979073,40.759068
83D30B1DDEB63761051E96590CE912D9,B7856DD328B940C70DDB6E5BF8988372,CMT,1,N,2013-01-18 06:41:35,2013-01-18 06:46:50,1,314,3.00,-73.946037,40.77821,-73.971252,40.746155
CD98CA13911488D180A72A1039A44B85,CF72DC38A57DE4A517B4FE23C0B2462A,VTS,1,,2013-01-18 06:44:00,2013-01-18 06:52:00,2,480,2.02,-73.948738,40.797497,-73.95797,40.774673
4CF38C0C5DE00C68B5AFFF44857FE359,73C839CE30F75638FE591C7F07C4C468,CMT,1,N,2013-01-18 06:48:55,2013-01-18 06:57:10,1,495,1.90,-73.981598,40.730965,-73.977715,40.753529
64AA3412C7E29AA863D269B2A345A039,DD6A3C01E68EA266E1F553B236BBBB1C,CMT,1,N,2013-01-18 06:50:11,2013-01-18 06:53:16,1,184,.50,-73.982689,40.741615,-73.979179,40.737045
B3F5EED48959DD8A2BE31E218A170C5D,D90CB340C3357F8A4D216B23C1F104E1,VTS,1,,2013-01-18 06:51:00,2013-01-18 07:08:00,1,1020,4.07,-73.975502,40.753162,-74.01384,40.714817
83D30B1DDEB63761051E96590CE912D9,B7856DD328B940C70DDB6E5BF8988372,CMT,1,N,2013-01-18 06:53:08,2013-01-18 06:56:57,1,229,.50,-73.972435,40.747387,-73.976646,40.752331
FE546F9EEE639C4A85F489A99D125B89,4C21B8D3AFE2DB018412199EFE80DFAB,CMT,1,N,2013-01-18 06:53:10,2013-01-18 07:01:30,1,499,1.60,-73.981766,40.779655,-73.979698,40.759502
31D5AAB6D05087D01621FCB2586F367C,C88C91AB920728433259DA21DF5815DB,CMT,1,N,2013-01-18 06:54:24,2013-01-18 06:58:06,1,222,.90,-73.985703,40.745911,-73.977371,40.755562
3246AA03B718062309B61CEFEDA6C60A,79F8BC483D5BD960CCF3169E6A42793C,VTS,1,,2013-01-18 06:56:00,2013-01-18 07:03:00,1,420,.82,-73.989792,40.754452,-73.981667,40.762245
CD98CA13911488D180A72A1039A44B85,CF72DC38A57DE4A517B4FE23C0B2462A,VTS,1,,2013-01-18 06:56:00,2013-01-18 07:08:00,1,720,2.06,-73.956993,40.770741,-73.980438,40.758957
64AA3412C7E29AA863D269B2A345A039,DD6A3C01E68EA266E1F553B236BBBB1C,CMT,1,N,2013-01-18 06:57:36,2013-01-18 07:02:08,1,272,1.40,-73.981438,40.741096,-73.975822,40.758759
0DA4DCB0E5C0987E4F27F4DFF345AABB,A3BDDA114A27319BA9BE2BFEAF348E8B,CMT,1,Y,2013-01-18 07:00:45,2013-01-18 07:15:15,1,869,4.10,-74.001106,40.74152,-73.955315,40.772541
83D30B1DDEB63761051E96590CE912D9,B7856DD328B940C70DDB6E5BF8988372,CMT,1,N,2013-01-18 07:04:19,2013-01-18 07:11:38,1,439,1.50,-73.988869,40.741554,-73.971893,40.754059
64AA3412C7E29AA863D269B2A345A039,DD6A3C01E68EA266E1F553B236BBBB1C,CMT,1,N,2013-01-18 07:06:05,2013-01-18 07:15:50,1,584,3.20,-73.980873,40.753811,-74.00988,40.720238
31D5AAB6D05087D01621FCB2586F367C,C88C91AB920728433259DA21DF5815DB,CMT,1,N,2013-01-18 07:09:24,2013-01-18 07:12:49,1,205,.60,-73.988556,40.740196,-73.980011,40.743065
B3F5EED48959DD8A2BE31E218A170C5D,D90CB340C3357F8A4D216B23C1F104E1,VTS,1,,2013-01-18 07:12:00,2013-01-18 07:34:00,1,1320,7.93,-74.015549,40.717953,-73.956276,40.770439
3246AA03B718062309B61CEFEDA6C60A,79F8BC483D5BD960CCF3169E6A42793C,VTS,1,,2013-01-18 07:13:00,2013-01-18 07:20:00,1,420,1.54,-73.987038,40.760841,-73.970688,40.761665
4CF38C0C5DE00C68B5AFFF44857FE359,73C839CE30F75638FE591C7F07C4C468,CMT,1,N,2013-01-18 07:13:28,2013-01-18 07:22:28,1,540,2.40,-74.005638,40.748482,-73.975098,40.758755
64AA3412C7E29AA863D269B2A345A039,DD6A3C01E68EA266E1F553B236BBBB1C,CMT,1,N,2013-01-18 07:18:18,2013-01-18 07:20:57,1,158,.60,-74.009743,40.721367,-74.007263,40.718094
83D30B1DDEB63761051E96590CE912D9,B7856DD328B940C70DDB6E5BF8988372,CMT,1,N,2013-01-18 07:18:23,2013-01-18 07:25:51,1,447,1.50,-73.961174,40.756702,-73.946304,40.772568
FE546F9EEE639C4A85F489A99D125B89,4C21B8D3AFE2DB018412199EFE80DFAB,CMT,1,N,2013-01-18 07:19:31,2013-01-18 07:27:46,1,494,1.40,-73.959854,40.766876,-73.977364,40.759598
CD98CA13911488D180A72A1039A44B85,CF72DC38A57DE4A517B4FE23C0B2462A,VTS,1,,2013-01-18 07:20:00,2013-01-18 07:33:00,2,780,2.00,-73.992897,40.763386,-73.970581,40.765846
0DA4DCB0E5C0987E4F27F4DFF345AABB,A3BDDA114A27319BA9BE2BFEAF348E8B,CMT,1,N,2013-01-18 07:20:37,2013-01-18 07:30:12,3,574,1.70,-73.946754,40.776676,-73.973007,40.7869
C569C8910159E5BD1DDF4861EE8D7FF2,B90ED0E0447B0981F2E3C49D370C514C,CMT,1,N,2013-01-18 07:27:15,2013-01-18 07:36:21,1,545,1.50,-73.992844,40.752533,-73.983093,40.770828
80B79425F9C2AB66A8E999D0554D5BE7,9DE07EB42B4AA5A46AB4C66A17D1E432,VTS,1,,2013-01-18 07:28:00,2013-01-18 07:41:00,1,780,3.02,-73.99836,40.720203,-73.974937,40.757263
64AA3412C7E29AA863D269B2A345A039,DD6A3C01E68EA266E1F553B236BBBB1C,CMT,1,N,2013-01-18 07:28:17,2013-01-18 07:36:16,1,478,2.10,-74.004372,40.737637,-73.983658,40.761597
3246AA03B718062309B61CEFEDA6C60A,79F8BC483D5BD960CCF3169E6A42793C,VTS,1,,2013-01-18 07:32:00,2013-01-18 07:59:00,1,1620,8.10,-73.975945,40.744617,-73.985596,40.670582
83D30B1DDEB63761051E96590CE912D9,B7856DD328B940C70DDB6E5BF8988372,CMT,1,N,2013-01-18 07:33:45,2013-01-18 07:38:18,1,272,.70,-73.94957,40.772152,-73.959412,40.770283
0DA4DCB0E5C0987E4F27F4DFF345AABB,A3BDDA114A27319BA9BE2BFEAF348E8B,CMT,1,N,2013-01-18 07:34:46,2013-01-18 07:48:52,1,845,2.60,-73.974716,40.783199,-73.97084,40.755817
739540B8D61BB50FBAF51509EECEEA75,292D3E892682FC711CBC1024A944D474,CMT,1,N,2013-01-18 07:35:33,2013-01-18 07:40:25,1,291,1.10,-73.989059,40.748268,-73.97847,40.762455
B3F5EED48959DD8A2BE31E218A170C5D,D90CB340C3357F8A4D216B23C1F104E1,VTS,1,,2013-01-18 07:38:00,2013-01-18 07:45:00,1,420,1.48,-73.960594,40.77235,-73.974823,40.753635
4CF38C0C5DE00C68B5AFFF44857FE359,73C839CE30F75638FE591C7F07C4C468,CMT,1,N,2013-01-18 07:39:12,2013-01-18 07:45:50,1,397,1.50,-74.005959,40.748501,-73.994225,40.735149
83D30B1DDEB63761051E96590CE912D9,B7856DD328B940C70DDB6E5BF8988372,CMT,1,N,2013-01-18 07:40:13,2013-01-18 07:43:43,1,210,1.00,-73.957779,40.773773,-73.956985,40.784279
FE546F9EEE639C4A85F489A99D125B89,4C21B8D3AFE2DB018412199EFE80DFAB,CMT,1,N,2013-01-18 07:40:17,2013-01-18 07:46:24,1,366,.50,-73.958908,40.764069,-73.966011,40.765305
C569C8910159E5BD1DDF4861EE8D7FF2,B90ED0E0447B0981F2E3C49D370C514C,CMT,1,N,2013-01-18 07:40:33,2013-01-18 07:49:43,1,550,1.60,-73.984718,40.768433,-73.981834,40.752514
2F7430A075A7A4F9D4DA93F3BF4C49E0,C617C18C8270F35E970788CFA4B976B0,VTS,1,,2013-01-18 07:41:00,2013-01-18 07:56:00,1,900,6.12,-73.870895,40.773666,-73.935928,40.802883
31D5AAB6D05087D01621FCB2586F367C,C88C91AB920728433259DA21DF5815DB,CMT,1,N,2013-01-18 07:43:42,2013-01-18 07:50:19,1,397,1.50,-73.991882,40.738312,-73.98291,40.756599
739540B8D61BB50FBAF51509EECEEA75,292D3E892682FC711CBC1024A944D474,CMT,1,N,2013-01-18 07:44:09,2013-01-18 07:50:03,1,353,.80,-73.981323,40.763752,-73.97403,40.75647
64AA3412C7E29AA863D269B2A345A039,DD6A3C01E68EA266E1F553B236BBBB1C,CMT,2,N,2013-01-18 07:44:26,2013-01-18 08:23:02,2,2315,17.90,-73.994507,40.758915,-73.776299,40.645721
6445A77D0238C473F7DD8B94A6955EA3,E7E6F9F97F18C35E0CC1AC3CCBBB4D08,VTS,1,,2013-01-18 07:45:00,2013-01-18 07:59:00,1,840,3.69,-73.997726,40.691338,-73.990776,40.663933
B3F5EED48959DD8A2BE31E218A170C5D,D90CB340C3357F8A4D216B23C1F104E1,VTS,1,,2013-01-18 07:46:00,2013-01-18 07:55:00,1,540,1.33,-73.975113,40.753162,-73.974609,40.738453
FE546F9EEE639C4A85F489A99D125B89,4C21B8D3AFE2DB018412199EFE80DFAB,CMT,1,N,2013-01-18 07:47:23,2013-01-18 07:59:14,1,711,2.20,-73.966675,40.764931,-73.969757,40.788029
4CF38C0C5DE00C68B5AFFF44857FE359,73C839CE30F75638FE591C7F07C4C468,CMT,1,N,2013-01-18 07:49:58,2013-01-18 08:04:14,1,856,2.60,-74.000092,40.733082,-73.973282,40.761478
CD98CA13911488D180A72A1039A44B85,CF72DC38A57DE4A517B4FE23C0B2462A,VTS,1,,2013-01-18 07:52:00,2013-01-18 08:19:00,2,1620,10.62,-73.960358,40.775745,-73.870216,40.773132
0DA4DCB0E5C0987E4F27F4DFF345AABB,A3BDDA114A27319BA9BE2BFEAF348E8B,CMT,1,N,2013-01-18 07:52:27,2013-01-18 08:03:34,3,666,1.50,-73.965958,40.755466,-73.957405,40.77264
C569C8910159E5BD1DDF4861EE8D7FF2,B90ED0E0447B0981F2E3C49D370C514C,CMT,1,N,2013-01-18 07:54:32,2013-01-18 07:59:04,1,272,.40,-73.986427,40.750477,-73.992516,40.750835
31D5AAB6D05087D01621FCB2586F367C,C88C91AB920728433259DA21DF5815DB,CMT,1,N,2013-01-18 07:56:43,2013-01-18 08:07:07,1,623,1.90,-73.979195,40.747337,-74.001907,40.733814
80B79425F9C2AB66A8E999D0554D5BE7,9DE07EB42B4AA5A46AB4C66A17D1E432,VTS,1,,2013-01-18 07:57:00,2013-01-18 08:03:00,1,360,1.19,-73.986855,40.729733,-73.990196,40.740177
739540B8D61BB50FBAF51509EECEEA75,292D3E892682FC711CBC1024A944D474,CMT,1,N,2013-01-18 07:57:15,2013-01-18 08:05:32,1,496,1.10,-73.964134,40.756542,-73.952675,40.768353
C569C8910159E5BD1DDF4861EE8D7FF2,B90ED0E0447B0981F2E3C49D370C514C,CMT,1,N,2013-01-18 08:01:55,2013-01-18 08:14:21,1,745,1.90,-73.993187,40.75293,-73.980202,40.738773
B3F5EED48959DD8A2BE31E218A170C5D,D90CB340C3357F8A4D216B23C1F104E1,VTS,1,,2013-01-18 08:03:00,2013-01-18 08:09:00,1,360,.82,-73.973183,40.74424,-73.971321,40.753628
FE546F9EEE639C4A85F489A99D125B89,4C21B8D3AFE2DB018412199EFE80DFAB,CMT,1,N,2013-01-18 08:03:37,2013-01-18 08:38:24,1,2086,9.00,-73.978394,40.786438,-74.001457,40.680069
83D30B1DDEB63761051E96590CE912D9,B7856DD328B940C70DDB6E5BF8988372,CMT,1,N,2013-01-18 08:04:10,2013-01-18 08:15:45,1,694,3.20,-73.944298,40.78056,-73.975204,40.748585
2F7430A075A7A4F9D4DA93F3BF4C49E0,C617C18C8270F35E970788CFA4B976B0,VTS,1,,2013-01-18 08:05:00,2013-01-18 08:08:00,1,180,.49,-73.949875,40.780594,-73.951851,40.777931
0DA4DCB0E5C0987E4F27F4DFF345AABB,A3BDDA114A27319BA9BE2BFEAF348E8B,CMT,1,N,2013-01-18 08:05:18,2013-01-18 08:19:09,1,831,2.30,-73.958015,40.77356,-73.983322,40.761929
80B79425F9C2AB66A8E999D0554D5BE7,9DE07EB42B4AA5A46AB4C66A17D1E432,VTS,1,,2013-01-18 08:07:00,2013-01-18 08:16:00,1,540,1.29,-73.997978,40.746136,-74.00457,40.742126
739540B8D61BB50FBAF51509EECEEA75,292D3E892682FC711CBC1024A944D474,CMT,1,N,2013-01-18 08:08:12,2013-01-18 08:22:59,1,886,2.30,-73.954247,40.77132,-73.980423,40.756527
2F7430A075A7A4F9D4DA93F3BF4C49E0,C617C18C8270F35E970788CFA4B976B0,VTS,1,,2013-01-18 08:09:00,2013-01-18 08:18:00,1,540,1.71,-73.949875,40.780594,-73.968483,40.755035
31D5AAB6D05087D01621FCB2586F367C,C88C91AB920728433259DA21DF5815DB,CMT,1,N,2013-01-18 08:09:47,2013-01-18 08:26:39,1,1011,3.20,-74.003799,40.732456,-73.9702,40.76231
F6B0E6F93A25D74EB79D804A085C8832,96549A049045E238E54F2B88836C4DF5,CMT,1,N,2013-01-18 08:11:31,2013-01-18 08:22:13,1,641,2.00,-73.965538,40.762882,-73.986168,40.748001
4CF38C0C5DE00C68B5AFFF44857FE359,73C839CE30F75638FE591C7F07C4C468,CMT,1,N,2013-01-18 08:12:11,2013-01-18 08:19:13,1,422,1.00,-73.981705,40.767036,-73.979637,40.754902
C569C8910159E5BD1DDF4861EE8D7FF2,B90ED0E0447B0981F2E3C49D370C514C,CMT,1,N,2013-01-18 08:15:10,2013-01-18 08:25:17,1,607,2.10,-73.980377,40.738541,-74.003937,40.723373
6445A77D0238C473F7DD8B94A6955EA3,E7E6F9F97F18C35E0CC1AC3CCBBB4D08,VTS,1,,2013-01-18 08:21:00,2013-01-18 08:27:00,1,360,1.79,-73.988869,40.700714,-74.008537,40.711727
0DA4DCB0E5C0987E4F27F4DFF345AABB,A3BDDA114A27319BA9BE2BFEAF348E8B,CMT,1,N,2013-01-18 08:21:52,2013-01-18 08:26:04,1,251,.60,-73.985275,40.763443,-73.97673,40.764355
4CF38C0C5DE00C68B5AFFF44857FE359,73C839CE30F75638FE591C7F07C4C468,CMT,1,N,2013-01-18 08:23:03,2013-01-18 08:28:22,1,319,.80,-73.985046,40.747288,-73.98336,40.738853
C569C8910159E5BD1DDF4861EE8D7FF2,B90ED0E0447B0981F2E3C49D370C514C,CMT,1,N,2013-01-18 08:26:30,2013-01-18 08:43:28,1,1018,3.40,-74.004913,40.722279,-73.975578,40.761921
B3F5EED48959DD8A2BE31E218A170C5D,D90CB340C3357F8A4D216B23C1F104E1,VTS,1,,2013-01-18 08:28:00,2013-01-18 08:31:00,1,180,.48,-73.990646,40.756176,-73.988037,40.761936
80B79425F9C2AB66A8E999D0554D5BE7,9DE07EB42B4AA5A46AB4C66A17D1E432,VTS,1,,2013-01-18 08:28:00,2013-01-18 08:34:00,1,360,.64,-74.017342,40.707062,-74.014313,40.712677
4CF38C0C5DE00C68B5AFFF44857FE359,73C839CE30F75638FE591C7F07C4C468,CMT,1,N,2013-01-18 08:29:31,2013-01-18 08:42:31,1,779,1.50,-73.983025,40.738636,-73.991699,40.749184
739540B8D61BB50FBAF51509EECEEA75,292D3E892682FC711CBC1024A944D474,CMT,1,N,2013-01-18 08:29:48,2013-01-18 08:35:51,1,362,.90,-73.991585,40.750214,-73.985191,40.742126
31D5AAB6D05087D01621FCB2586F367C,C88C91AB920728433259DA21DF5815DB,CMT,1,N,2013-01-18 08:30:35,2013-01-18 08:35:55,1,320,.60,-73.964859,40.763927,-73.968262,40.770496
B3F5EED48959DD8A2BE31E218A170C5D,D90CB340C3357F8A4D216B23C1F104E1,VTS,1,,2013-01-18 08:32:00,2013-01-18 08:41:00,1,540,1.84,-73.989876,40.762386,-73.991074,40.742004
83D30B1DDEB63761051E96590CE912D9,B7856DD328B940C70DDB6E5BF8988372,CMT,1,N,2013-01-18 08:32:21,2013-01-18 08:46:13,1,832,1.70,-73.965836,40.75444,-73.985039,40.741592
6445A77D0238C473F7DD8B94A6955EA3,E7E6F9F97F18C35E0CC1AC3CCBBB4D08,VTS,1,,2013-01-18 08:36:00,2013-01-18 08:40:00,1,240,.88,-74.004929,40.723232,-73.99659,40.726887
31D5AAB6D05087D01621FCB2586F367C,C88C91AB920728433259DA21DF5815DB,CMT,1,N,2013-01-18 08:37:03,2013-01-18 08:52:35,1,932,4.00,-73.968544,40.770325,-73.916916,40.760258
2F7430A075A7A4F9D4DA93F3BF4C49E0,C617C18C8270F35E970788CFA4B976B0,VTS,1,,2013-01-18 08:39:00,2013-01-18 09:01:00,1,1320,4.05,-73.921204,40.772957,-73.959457,40.740376
F6B0E6F93A25D74EB79D804A085C8832,96549A049045E238E54F2B88836C4DF5,CMT,1,N,2013-01-18 08:39:18,2013-01-18 08:54:42,1,923,2.10,-73.99662,40.742088,-73.974205,40.758121
739540B8D61BB50FBAF51509EECEEA75,292D3E892682FC711CBC1024A944D474,CMT,1,N,2013-01-18 08:41:43,2013-01-18 08:53:18,1,695,1.70,-73.990593,40.745411,-73.973206,40.758442
B3F5EED48959DD8A2BE31E218A170C5D,D90CB340C3357F8A4D216B23C1F104E1,VTS,1,,2013-01-18 08:42:00,2013-01-18 08:58:00,1,960,2.85,-73.990219,40.742123,-73.964195,40.775551
80B79425F9C2AB66A8E999D0554D5BE7,9DE07EB42B4AA5A46AB4C66A17D1E432,VTS,1,,2013-01-18 08:43:00,2013-01-18 08:52:00,1,540,1.83,-74.006668,40.731758,-73.991745,40.738739
6445A77D0238C473F7DD8B94A6955EA3,E7E6F9F97F18C35E0CC1AC3CCBBB4D08,VTS,1,,2013-01-18 08:43:00,2013-01-18 08:55:00,1,720,1.71,-73.991577,40.729664,-73.99041,40.748669
FE546F9EEE639C4A85F489A99D125B89,4C21B8D3AFE2DB018412199EFE80DFAB,CMT,1,N,2013-01-18 08:45:39,2013-01-18 09:21:02,1,2122,18.70,-73.995476,40.688118,-73.789925,40.646976
0DA4DCB0E5C0987E4F27F4DFF345AABB,A3BDDA114A27319BA9BE2BFEAF348E8B,CMT,1,N,2013-01-18 08:46:33,2013-01-18 09:08:49,1,1336,4.70,-73.945198,40.778423,-73.993881,40.740513
4CF38C0C5DE00C68B5AFFF44857FE359,73C839CE30F75638FE591C7F07C4C468,CMT,1,N,2013-01-18 08:47:14,2013-01-18 09:07:46,1,1232,1.50,-73.994087,40.751236,-73.975571,40.756134
83D30B1DDEB63761051E96590CE912D9,B7856DD328B940C70DDB6E5BF8988372,CMT,1,N,2013-01-18 08:48:38,2013-01-18 09:01:08,1,749,1.50,-73.984108,40.743328,-73.980301,40.761017
C569C8910159E5BD1DDF4861EE8D7FF2,B90ED0E0447B0981F2E3C49D370C514C,CMT,1,N,2013-01-18 08:48:47,2013-01-18 08:57:32,1,525,1.30,-73.975281,40.75927,-73.987877,40.750687
80B79425F9C2AB66A8E999D0554D5BE7,9DE07EB42B4AA5A46AB4C66A17D1E432,VTS,1,,2013-01-18 08:54:00,2013-01-18 09:07:00,1,780,1.86,-73.995972,40.737137,-73.981865,40.757427
6445A77D0238C473F7DD8B94A6955EA3,E7E6F9F97F18C35E0CC1AC3CCBBB4D08,VTS,1,,2013-01-18 08:58:00,2013-01-18 09:09:00,1,660,1.33,-73.993225,40.752304,-73.977036,40.757095
F6B0E6F93A25D74EB79D804A085C8832,96549A049045E238E54F2B88836C4DF5,CMT,1,N,2013-01-18 09:03:39,2013-01-18 09:08:54,1,314,.40,-73.982445,40.767586,-73.974213,40.765079
83D30B1DDEB63761051E96590CE912D9,B7856DD328B940C70DDB6E5BF8988372,CMT,1,N,2013-01-18 09:05:00,2013-01-18 09:14:15,1,554,.70,-73.974739,40.765316,-73.978806,40.755772
C569C8910159E5BD1DDF4861EE8D7FF2,B90ED0E0447B0981F2E3C49D370C514C,CMT,1,N,2013-01-18 09:06:13,2013-01-18 09:22:02,1,949,1.50,-73.991478,40.750084,-73.978767,40.762756
B3F5EED48959DD8A2BE31E218A170C5D,D90CB340C3357F8A4D216B23C1F104E1,VTS,1,,2013-01-18 09:07:00,2013-01-18 09:22:00,1,900,1.37,-73.963699,40.768566,-73.975883,40.750999
0DA4DCB0E5C0987E4F27F4DFF345AABB,A3BDDA114A27319BA9BE2BFEAF348E8B,CMT,1,N,2013-01-18 09:09:38,2013-01-18 09:22:17,1,759,1.60,-73.994308,40.74107,-73.979546,40.761475
739540B8D61BB50FBAF51509EECEEA75,292D3E892682FC711CBC1024A944D474,CMT,1,N,2013-01-18 09:09:58,2013-01-18 09:37:27,1,1648,2.50,-73.963966,40.761345,-73.990982,40.739567
CD98CA13911488D180A72A1039A44B85,CF72DC38A57DE4A517B4FE23C0B2462A,VTS,1,,2013-01-18 09:13:00,2013-01-18 09:42:00,2,1740,11.73,-73.866257,40.770988,-73.976051,40.751511
4CF38C0C5DE00C68B5AFFF44857FE359,73C839CE30F75638FE591C7F07C4C468,CMT,1,N,2013-01-18 09:18:29,2013-01-18 09:26:30,1,481,.70,-73.983391,40.743858,-73.992813,40.741478
6445A77D0238C473F7DD8B94A6955EA3,E7E6F9F97F18C35E0CC1AC3CCBBB4D08,VTS,1,,2013-01-18 09:22:00,2013-01-18 09:35:00,1,780,2.20,-73.97673,40.74984,-74.001938,40.739571
80B79425F9C2AB66A8E999D0554D5BE7,9DE07EB42B4AA5A46AB4C66A17D1E432,VTS,1,,2013-01-18 09:24:00,2013-01-18 10:02:00,1,2280,6.81,-73.997704,40.765392,-73.888763,40.753223
64AA3412C7E29AA863D269B2A345A039,DD6A3C01E68EA266E1F553B236BBBB1C,CMT,1,N,2013-01-18 09:24:41,2013-01-18 09:29:13,1,272,.80,-74.002342,40.72422,-73.996002,40.732971
B3F5EED48959DD8A2BE31E218A170C5D,D90CB340C3357F8A4D216B23C1F104E1,VTS,1,,2013-01-18 09:25:00,2013-01-18 09:31:00,1,360,.70,-73.981247,40.743393,-73.988319,40.736252
C569C8910159E5BD1DDF4861EE8D7FF2,B90ED0E0447B0981F2E3C49D370C514C,CMT,1,N,2013-01-18 09:25:15,2013-01-18 09:41:56,1,1001,1.20,-73.975861,40.765686,-73.985329,40.756561
4CF38C0C5DE00C68B5AFFF44857FE359,73C839CE30F75638FE591C7F07C4C468,CMT,1,N,2013-01-18 09:30:25,2013-01-18 09:48:12,1,1067,1.80,-73.990715,40.744942,-73.966743,40.752537
83D30B1DDEB63761051E96590CE912D9,B7856DD328B940C70DDB6E5BF8988372,CMT,1,N,2013-01-18 09:30:51,2013-01-18 09:41:30,1,638,.80,-73.961975,40.75975,-73.95266,40.766579
0DA4DCB0E5C0987E4F27F4DFF345AABB,A3BDDA114A27319BA9BE2BFEAF348E8B,CMT,1,N,2013-01-18 09:32:06,2013-01-18 09:36:12,1,245,.70,-73.959473,40.771667,-73.967506,40.766628
64AA3412C7E29AA863D269B2A345A039,DD6A3C01E68EA266E1F553B236BBBB1C,CMT,1,N,2013-01-18 09:33:17,2013-01-18 09:59:59,2,1601,2.80,-73.999794,40.734737,-73.968941,40.759628
6445A77D0238C473F7DD8B94A6955EA3,E7E6F9F97F18C35E0CC1AC3CCBBB4D08,VTS,1,,2013-01-18 09:36:00,2013-01-18 09:40:00,1,240,.71,-74.0056,40.741177,-74.004539,40.747204
B3F5EED48959DD8A2BE31E218A170C5D,D90CB340C3357F8A4D216B23C1F104E1,VTS,1,,2013-01-18 09:37:00,2013-01-18 09:43:00,1,360,.51,-73.986359,40.737698,-73.990746,40.736687
739540B8D61BB50FBAF51509EECEEA75,292D3E892682FC711CBC1024A944D474,CMT,1,N,2013-01-18 09:40:40,2013-01-18 09:44:35,1,235,.40,-73.994728,40.736717,-73.988037,40.734776
CD98CA13911488D180A72A1039A44B85,CF72DC38A57DE4A517B4FE23C0B2462A,VTS,1,,2013-01-18 09:44:00,2013-01-18 09:57:00,2,780,1.04,-73.977448,40.752571,-73.992081,40.756096
B3F5EED48959DD8A2BE31E218A170C5D,D90CB340C3357F8A4D216B23C1F104E1,VTS,1,,2013-01-18 09:45:00,2013-01-18 09:55:00,1,600,1.14,-73.991051,40.736019,-73.985626,40.741604
83D30B1DDEB63761051E96590CE912D9,B7856DD328B940C70DDB6E5BF8988372,CMT,1,N,2013-01-18 09:45:27,2013-01-18 09:57:23,1,716,1.80,-73.953949,40.76709,-73.981514,40.779686
0DA4DCB0E5C0987E4F27F4DFF345AABB,A3BDDA114A27319BA9BE2BFEAF348E8B,CMT,1,N,2013-01-18 09:45:50,2013-01-18 10:00:24,1,873,2.10,-73.959282,40.771751,-73.978577,40.762173
C569C8910159E5BD1DDF4861EE8D7FF2,B90ED0E0447B0981F2E3C49D370C514C,CMT,1,N,2013-01-18 09:48:13,2013-01-18 09:58:35,1,621,1.10,-73.994614,40.755981,-73.982635,40.765991
739540B8D61BB50FBAF51509EECEEA75,292D3E892682FC711CBC1024A944D474,CMT,1,N,2013-01-18 09:48:30,2013-01-18 09:57:14,1,524,1.30,-73.982979,40.739044,-73.972061,40.755695
F6B0E6F93A25D74EB79D804A085C8832,96549A049045E238E54F2B88836C4DF5,CMT,1,N,2013-01-18 09:49:09,2013-01-18 09:53:49,1,280,.90,-73.954903,40.78846,-73.953651,40.778656
2F7430A075A7A4F9D4DA93F3BF4C49E0,C617C18C8270F35E970788CFA4B976B0,VTS,1,,2013-01-18 09:53:00,2013-01-18 10:19:00,1,1560,7.66,-73.872704,40.774055,-73.97506,40.763428
4CF38C0C5DE00C68B5AFFF44857FE359,73C839CE30F75638FE591C7F07C4C468,CMT,1,N,2013-01-18 09:53:59,2013-01-18 10:00:09,1,370,.60,-73.960098,40.758312,-73.968086,40.757095
F6B0E6F93A25D74EB79D804A085C8832,96549A049045E238E54F2B88836C4DF5,CMT,1,N,2013-01-18 09:56:27,2013-01-18 10:09:33,1,785,2.50,-73.95005,40.776772,-73.981606,40.773487
B3F5EED48959DD8A2BE31E218A170C5D,D90CB340C3357F8A4D216B23C1F104E1,VTS,1,,2013-01-18 09:58:00,2013-01-18 09:59:00,1,60,.01,-73.981209,40.747437,-73.981133,40.747459
B3F5EED48959DD8A2BE31E218A170C5D,D90CB340C3357F8A4D216B23C1F104E1,VTS,1,,2013-01-18 09:59:00,2013-01-18 09:59:00,1,0,.00,-73.980896,40.747875,-73.980873,40.747879
6445A77D0238C473F7DD8B94A6955EA3,E7E6F9F97F18C35E0CC1AC3CCBBB4D08,VTS,1,,2013-01-18 10:00:00,2013-01-18 10:22:00,1,1320,4.79,-73.998795,40.76104,-74.010193,40.703228
B3F5EED48959DD8A2BE31E218A170C5D,D90CB340C3357F8A4D216B23C1F104E1,VTS,2,,2013-01-18 10:00:00,2013-01-18 10:34:00,1,2040,15.94,-73.980843,40.747879,-73.789482,40.644611
C569C8910159E5BD1DDF4861EE8D7FF2,B90ED0E0447B0981F2E3C49D370C514C,CMT,1,Y,2013-01-18 10:00:58,2013-01-18 10:08:15,1,437,.80,-73.982376,40.765255,-73.968735,40.762989
4CF38C0C5DE00C68B5AFFF44857FE359,73C839CE30F75638FE591C7F07C4C468,CMT,1,N,2013-01-18 10:05:13,2013-01-18 10:12:47,1,454,1.00,-73.96553,40.762936,-73.976257,40.751705
739540B8D61BB50FBAF51509EECEEA75,292D3E892682FC711CBC1024A944D474,CMT,1,N,2013-01-18 10:05:13,2013-01-18 10:16:33,1,680,.80,-73.961273,40.756851,-73.973282,40.758991
CD98CA13911488D180A72A1039A44B85,CF72DC38A57DE4A517B4FE23C0B2462A,VTS,1,,2013-01-18 10:10:00,2013-01-18 10:16:00,2,360,.92,-73.992851,40.761871,-73.981056,40.759266
C569C8910159E5BD1DDF4861EE8D7FF2,B90ED0E0447B0981F2E3C49D370C514C,CMT,1,N,2013-01-18 10:10:14,2013-01-18 10:34:35,1,1461,4.80,-73.9711,40.759037,-74.01001,40.721603
FE546F9EEE639C4A85F489A99D125B89,4C21B8D3AFE2DB018412199EFE80DFAB,CMT,1,N,2013-01-18 10:11:49,2013-01-18 10:25:07,1,798,2.30,-73.985367,40.718552,-73.993523,40.738033
0DA4DCB0E5C0987E4F27F4DFF345AABB,A3BDDA114A27319BA9BE2BFEAF348E8B,CMT,1,N,2013-01-18 10:12:09,2013-01-18 10:15:53,1,224,.70,-73.962692,40.769684,-73.969421,40.760353
83D30B1DDEB63761051E96590CE912D9,B7856DD328B940C70DDB6E5BF8988372,CMT,1,N,2013-01-18 10:15:53,2013-01-18 10:35:58,1,1204,3.30,-73.976891,40.790455,-73.980766,40.754044
64AA3412C7E29AA863D269B2A345A039,DD6A3C01E68EA266E1F553B236BBBB1C,CMT,1,N,2013-01-18 10:16:41,2013-01-18 10:26:40,1,599,1.30,-73.951111,40.774208,-73.965714,40.774151
CD98CA13911488D180A72A1039A44B85,CF72DC38A57DE4A517B4FE23C0B2462A,VTS,1,,2013-01-18 10:17:00,2013-01-18 10:28:00,2,660,1.80,-73.979782,40.761639,-73.959618,40.770901
4CF38C0C5DE00C68B5AFFF44857FE359,73C839CE30F75638FE591C7F07C4C468,CMT,1,N,2013-01-18 10:22:00,2013-01-18 10:33:58,1,718,1.50,-73.986961,40.742527,-73.983589,40.76033
F6B0E6F93A25D74EB79D804A085C8832,96549A049045E238E54F2B88836C4DF5,CMT,1,N,2013-01-18 10:22:55,2013-01-18 10:35:43,1,768,2.60,-73.978813,40.785187,-73.986176,40.753613
3246AA03B718062309B61CEFEDA6C60A,79F8BC483D5BD960CCF3169E6A42793C,VTS,1,,2013-01-18 10:25:00,2013-01-18 10:37:00,1,720,2.03,-73.952057,40.777706,-73.972816,40.759693
FE546F9EEE639C4A85F489A99D125B89,4C21B8D3AFE2DB018412199EFE80DFAB,CMT,1,N,2013-01-18 10:26:16,2013-01-18 10:44:04,1,1067,2.80,-73.992699,40.737892,-73.968643,40.762463
64AA3412C7E29AA863D269B2A345A039,DD6A3C01E68EA266E1F553B236BBBB1C,CMT,1,N,2013-01-18 10:27:44,2013-01-18 10:36:37,1,533,1.30,-73.96579,40.77404,-73.977806,40.758331
2F7430A075A7A4F9D4DA93F3BF4C49E0,C617C18C8270F35E970788CFA4B976B0,VTS,3,,2013-01-18 10:28:00,2013-01-18 11:01:00,1,1980,17.04,-73.984619,40.766991,-74.18409,40.688862
31D5AAB6D05087D01621FCB2586F367C,C88C91AB920728433259DA21DF5815DB,CMT,1,N,2013-01-18 10:30:38,2013-01-18 10:56:24,4,1546,10.60,-73.870239,40.773933,-73.978424,40.762848
6445A77D0238C473F7DD8B94A6955EA3,E7E6F9F97F18C35E0CC1AC3CCBBB4D08,VTS,1,,2013-01-18 10:33:00,2013-01-18 10:50:00,1,1020,10.93,-73.989861,40.688873,-73.863113,40.767151
C569C8910159E5BD1DDF4861EE8D7FF2,B90ED0E0447B0981F2E3C49D370C514C,CMT,1,N,2013-01-18 10:35:35,2013-01-18 10:39:32,1,236,.50,-74.010117,40.720924,-74.009354,40.714939
739540B8D61BB50FBAF51509EECEEA75,292D3E892682FC711CBC1024A944D474,CMT,1,N,2013-01-18 10:35:44,2013-01-18 10:43:53,1,488,1.80,-73.99855,40.760479,-73.993385,40.743187
F6B0E6F93A25D74EB79D804A085C8832,96549A049045E238E54F2B88836C4DF5,CMT,1,N,2013-01-18 10:38:08,2013-01-18 10:44:49,1,401,.80,-73.984718,40.752396,-73.977203,40.758484
CD98CA13911488D180A72A1039A44B85,CF72DC38A57DE4A517B4FE23C0B2462A,VTS,1,,2013-01-18 10:39:00,2013-01-18 10:43:00,2,240,.85,-73.952309,40.777157,-73.959015,40.767757
64AA3412C7E29AA863D269B2A345A039,DD6A3C01E68EA266E1F553B236BBBB1C,CMT,1,N,2013-01-18 10:40:32,2013-01-18 10:44:02,1,209,.70,-73.981346,40.753483,-73.980728,40.761234
83D30B1DDEB63761051E96590CE912D9,B7856DD328B940C70DDB6E5BF8988372,CMT,1,N,2013-01-18 10:41:51,2013-01-18 10:55:04,1,793,1.80,-73.989845,40.739136,-74.006134,40.723965
3246AA03B718062309B61CEFEDA6C60A,79F8BC483D5BD960CCF3169E6A42793C,VTS,1,,2013-01-18 10:46:00,2013-01-18 10:56:00,1,600,1.70,-73.982918,40.750935,-73.969711,40.766247
64AA3412C7E29AA863D269B2A345A039,DD6A3C01E68EA266E1F553B236BBBB1C,CMT,1,N,2013-01-18 10:46:22,2013-01-18 10:55:58,1,576,.90,-73.980003,40.763348,-73.976311,40.752037
CD98CA13911488D180A72A1039A44B85,CF72DC38A57DE4A517B4FE23C0B2462A,VTS,1,,2013-01-18 10:47:00,2013-01-18 10:54:00,2,420,.80,-73.968254,40.762344,-73.968887,40.75444
C569C8910159E5BD1DDF4861EE8D7FF2,B90ED0E0447B0981F2E3C49D370C514C,CMT,1,N,2013-01-18 10:49:24,2013-01-18 11:17:26,1,1682,5.40,-74.004082,40.722031,-73.959053,40.783421
739540B8D61BB50FBAF51509EECEEA75,292D3E892682FC711CBC1024A944D474,CMT,1,N,2013-01-18 10:51:02,2013-01-18 10:57:43,1,401,1.00,-73.992989,40.743053,-74.005188,40.751373
F6B0E6F93A25D74EB79D804A085C8832,96549A049045E238E54F2B88836C4DF5,CMT,1,N,2013-01-18 10:52:50,2013-01-18 10:56:57,1,246,.40,-73.976555,40.756382,-73.980133,40.760601
FE546F9EEE639C4A85F489A99D125B89,4C21B8D3AFE2DB018412199EFE80DFAB,CMT,1,N,2013-01-18 10:53:37,2013-01-18 11:22:10,1,1713,3.90,-73.950813,40.783043,-73.99556,40.765034
64AA3412C7E29AA863D269B2A345A039,DD6A3C01E68EA266E1F553B236BBBB1C,CMT,1,N,2013-01-18 10:56:48,2013-01-18 11:03:23,1,395,1.70,-73.976311,40.752033,-73.958389,40.764847
31D5AAB6D05087D01621FCB2586F367C,C88C91AB920728433259DA21DF5815DB,CMT,1,N,2013-01-18 10:58:02,2013-01-18 11:03:07,1,305,1.00,-73.978653,40.762718,-73.990295,40.752151
3246AA03B718062309B61CEFEDA6C60A,79F8BC483D5BD960CCF3169E6A42793C,VTS,1,,2013-01-18 10:59:00,2013-01-18 11:02:00,1,180,.31,-73.971855,40.766243,-73.973969,40.762905
64AA3412C7E29AA863D269B2A345A039,DD6A3C01E68EA266E1F553B236BBBB1C,CMT,1,N,2013-01-18 11:04:34,2013-01-18 11:26:52,1,1337,5.20,-73.957947,40.765236,-74.001083,40.727745
4CF38C0C5DE00C68B5AFFF44857FE359,73C839CE30F75638FE591C7F07C4C468,CMT,1,N,2013-01-18 11:05:44,2013-01-18 11:25:40,1,1196,3.50,-73.988815,40.77776,-73.975662,40.744629
3246AA03B718062309B61CEFEDA6C60A,79F8BC483D5BD960CCF3169E6A42793C,VTS,1,,2013-01-18 11:09:00,2013-01-18 11:13:00,1,240,.84,-73.979073,40.753231,-73.972092,40.76265
F6B0E6F93A25D74EB79D804A085C8832,96549A049045E238E54F2B88836C4DF5,CMT,1,N,2013-01-18 11:09:54,2013-01-18 11:22:11,1,737,1.90,-73.98394,40.78038,-73.966454,40.770473
31D5AAB6D05087D01621FCB2586F367C,C88C91AB920728433259DA21DF5815DB,CMT,1,N,2013-01-18 11:10:19,2013-01-18 11:29:48,1,1168,8.10,-73.982948,40.751167,-73.885345,40.773045
739540B8D61BB50FBAF51509EECEEA75,292D3E892682FC711CBC1024A944D474,CMT,1,N,2013-01-18 11:11:35,2013-01-18 11:20:33,1,538,1.20,-73.997421,40.756321,-73.978615,40.752674
CD98CA13911488D180A72A1039A44B85,CF72DC38A57DE4A517B4FE23C0B2462A,VTS,1,,2013-01-18 11:12:00,2013-01-18 11:28:00,2,960,1.76,-73.98658,40.758003,-73.966759,40.761261
C569C8910159E5BD1DDF4861EE8D7FF2,B90ED0E0447B0981F2E3C49D370C514C,CMT,1,N,2013-01-18 11:19:36,2013-01-18 11:33:11,1,815,2.50,-73.959526,40.782864,-73.982323,40.751656
3246AA03B718062309B61CEFEDA6C60A,79F8BC483D5BD960CCF3169E6A42793C,VTS,1,,2013-01-18 11:21:00,2013-01-18 11:26:00,1,300,.91,-73.982124,40.752232,-73.981422,40.758778
FE546F9EEE639C4A85F489A99D125B89,4C21B8D3AFE2DB018412199EFE80DFAB,CMT,1,N,2013-01-18 11:25:06,2013-01-18 11:42:16,1,1029,2.70,-73.992546,40.763344,-73.993706,40.73428
83D30B1DDEB63761051E96590CE912D9,B7856DD328B940C70DDB6E5BF8988372,CMT,1,N,2013-01-18 11:27:41,2013-01-18 11:36:21,2,520,1.10,-74.007706,40.705441,-74.000633,40.714481
64AA3412C7E29AA863D269B2A345A039,DD6A3C01E68EA266E1F553B236BBBB1C,CMT,1,N,2013-01-18 11:28:54,2013-01-18 11:37:53,1,539,1.50,-74.001907,40.729748,-73.986961,40.744858
3246AA03B718062309B61CEFEDA6C60A,79F8BC483D5BD960CCF3169E6A42793C,VTS,1,,2013-01-18 11:30:00,2013-01-18 11:45:00,1,900,2.64,-73.979752,40.76598,-73.993484,40.734402
2F7430A075A7A4F9D4DA93F3BF4C49E0,C617C18C8270F35E970788CFA4B976B0,VTS,1,,2013-01-18 11:31:00,2013-01-18 11:43:00,1,720,3.01,-74.010117,40.72047,-73.999191,40.755463
739540B8D61BB50FBAF51509EECEEA75,292D3E892682FC711CBC1024A944D474,CMT,1,N,2013-01-18 11:32:00,2013-01-18 12:00:17,1,1696,3.30,-73.996025,40.732964,-73.967079,40.765903
F6B0E6F93A25D74EB79D804A085C8832,96549A049045E238E54F2B88836C4DF5,CMT,1,N,2013-01-18 11:32:34,2013-01-18 11:51:23,1,1129,2.30,-73.963043,40.769032,-73.98909,40.757519
C569C8910159E5BD1DDF4861EE8D7FF2,B90ED0E0447B0981F2E3C49D370C514C,CMT,1,N,2013-01-18 11:33:54,2013-01-18 11:44:32,1,637,2.50,-73.982468,40.751183,-74.007286,40.725121
0DA4DCB0E5C0987E4F27F4DFF345AABB,A3BDDA114A27319BA9BE2BFEAF348E8B,CMT,1,N,2013-01-18 11:35:06,2013-01-18 11:42:43,3,457,1.40,-73.977684,40.752537,-74.000687,40.758255
4CF38C0C5DE00C68B5AFFF44857FE359,73C839CE30F75638FE591C7F07C4C468,CMT,1,N,2013-01-18 11:37:39,2013-01-18 11:43:13,1,333,1.10,-73.987373,40.724682,-73.976089,40.732525
83D30B1DDEB63761051E96590CE912D9,B7856DD328B940C70DDB6E5BF8988372,CMT,1,N,2013-01-18 11:37:39,2013-01-18 11:59:31,4,1312,3.30,-74.001862,40.715088,-73.98526,40.75642
80B79425F9C2AB66A8E999D0554D5BE7,9DE07EB42B4AA5A46AB4C66A17D1E432,VTS,1,,2013-01-18 11:41:00,2013-01-18 12:23:00,1,2520,20.55,-73.870987,40.773678,-73.933472,40.585953
64AA3412C7E29AA863D269B2A345A039,DD6A3C01E68EA266E1F553B236BBBB1C,CMT,1,N,2013-01-18 11:42:46,2013-01-18 11:53:30,1,643,1.80,-73.984795,40.74509,-73.998314,40.724522
FE546F9EEE639C4A85F489A99D125B89,4C21B8D3AFE2DB018412199EFE80DFAB,CMT,1,N,2013-01-18 11:43:55,2013-01-18 11:51:46,1,470,.90,-73.991928,40.733444,-73.981361,40.741226
CD98CA13911488D180A72A1039A44B85,CF72DC38A57DE4A517B4FE23C0B2462A,VTS,1,,2013-01-18 11:45:00,2013-01-18 11:50:00,2,300,.81,-73.973953,40.754185,-73.982796,40.748692
C569C8910159E5BD1DDF4861EE8D7FF2,B90ED0E0447B0981F2E3C49D370C514C,CMT,1,N,2013-01-18 11:45:24,2013-01-18 11:52:35,1,430,1.60,-74.007607,40.725868,-74.005775,40.745647
2F7430A075A7A4F9D4DA93F3BF4C49E0,C617C18C8270F35E970788CFA4B976B0,VTS,1,,2013-01-18 11:50:00,2013-01-18 12:02:00,1,720,2.43,-74.001984,40.745724,-74.010948,40.716099
4CF38C0C5DE00C68B5AFFF44857FE359,73C839CE30F75638FE591C7F07C4C468,CMT,1,N,2013-01-18 11:50:45,2013-01-18 12:03:01,1,736,1.70,-73.980492,40.737877,-73.971451,40.758461
3246AA03B718062309B61CEFEDA6C60A,79F8BC483D5BD960CCF3169E6A42793C,VTS,1,,2013-01-18 11:53:00,2013-01-18 12:09:00,1,960,3.90,-73.983978,40.737656,-73.952187,40.773064
F6B0E6F93A25D74EB79D804A085C8832,96549A049045E238E54F2B88836C4DF5,CMT,1,N,2013-01-18 11:53:08,2013-01-18 11:57:35,1,267,.60,-73.98909,40.757519,-73.982933,40.766434
C569C8910159E5BD1DDF4861EE8D7FF2,B90ED0E0447B0981F2E3C49D370C514C,CMT,1,N,2013-01-18 11:56:47,2013-01-18 12:06:33,1,585,.90,-74.002823,40.74968,-73.989731,40.744144
CD98CA13911488D180A72A1039A44B85,CF72DC38A57DE4A517B4FE23C0B2462A,VTS,1,,2013-01-18 11:58:00,2013-01-18 12:29:00,2,1860,12.28,-73.985352,40.744259,-73.864723,40.770306
64AA3412C7E29AA863D269B2A345A039,DD6A3C01E68EA266E1F553B236BBBB1C,CMT,1,N,2013-01-18 11:58:46,2013-01-18 12:07:58,2,552,2.30,-73.998062,40.729408,-74.015297,40.709808
0DA4DCB0E5C0987E4F27F4DFF345AABB,A3BDDA114A27319BA9BE2BFEAF348E8B,CMT,1,N,2013-01-18 12:01:12,2013-01-18 12:10:20,1,548,1.10,-73.989136,40.752132,-73.989273,40.743076
83D30B1DDEB63761051E96590CE912D9,B7856DD328B940C70DDB6E5BF8988372,CMT,1,N,2013-01-18 12:03:00,2013-01-18 12:34:11,1,1870,10.50,-73.988052,40.755619,-73.870583,40.773754
739540B8D61BB50FBAF51509EECEEA75,292D3E892682FC711CBC1024A944D474,CMT,1,N,2013-01-18 12:03:08,2013-01-18 12:23:58,1,1250,3.50,-73.968948,40.761063,-74.00795,40.746014
4CF38C0C5DE00C68B5AFFF44857FE359,73C839CE30F75638FE591C7F07C4C468,CMT,1,N,2013-01-18 12:06:16,2013-01-18 12:12:48,1,391,1.10,-73.969215,40.760937,-73.984177,40.754753
F6B0E6F93A25D74EB79D804A085C8832,96549A049045E238E54F2B88836C4DF5,CMT,1,N,2013-01-18 12:06:29,2013-01-18 12:09:55,1,205,.70,-73.982864,40.781868,-73.975601,40.791851
2F7430A075A7A4F9D4DA93F3BF4C49E0,C617C18C8270F35E970788CFA4B976B0,VTS,1,,2013-01-18 12:08:00,2013-01-18 12:14:00,1,360,1.69,-74.015862,40.711117,-74.003822,40.722244
FE546F9EEE639C4A85F489A99D125B89,4C21B8D3AFE2DB018412199EFE80DFAB,CMT,1,N,2013-01-18 12:08:13,2013-01-18 12:26:51,1,1117,1.30,-73.971977,40.750259,-73.991135,40.751656
F6B0E6F93A25D74EB79D804A085C8832,96549A049045E238E54F2B88836C4DF5,CMT,1,N,2013-01-18 12:11:11,2013-01-18 12:23:31,1,739,2.00,-73.975487,40.791988,-73.951157,40.777557
3246AA03B718062309B61CEFEDA6C60A,79F8BC483D5BD960CCF3169E6A42793C,VTS,1,,2013-01-18 12:12:00,2013-01-18 12:23:00,1,660,2.94,-73.945122,40.778549,-73.973648,40.756252
0DA4DCB0E5C0987E4F27F4DFF345AABB,A3BDDA114A27319BA9BE2BFEAF348E8B,CMT,1,N,2013-01-18 12:12:19,2013-01-18 12:27:18,1,898,3.10,-73.99099,40.745411,-73.962189,40.778133
4CF38C0C5DE00C68B5AFFF44857FE359,73C839CE30F75638FE591C7F07C4C468,CMT,1,N,2013-01-18 12:14:16,2013-01-18 12:31:59,1,1062,4.40,-73.983826,40.754734,-74.013863,40.715939
64AA3412C7E29AA863D269B2A345A039,DD6A3C01E68EA266E1F553B236BBBB1C,CMT,1,N,2013-01-18 12:14:18,2013-01-18 12:35:04,2,1244,3.60,-74.011902,40.711449,-73.982254,40.757927
2F7430A075A7A4F9D4DA93F3BF4C49E0,C617C18C8270F35E970788CFA4B976B0,VTS,1,,2013-01-18 12:17:00,2013-01-18 12:34:00,1,1020,3.11,-74.001244,40.725956,-73.97747,40.763973
C12D2CAA4235AAE317E6E92C477D3153,E9D86653B8B64046875B88EFC2607111,VTS,1,,2013-01-18 12:18:00,2013-01-18 12:25:00,5,420,.87,-73.981628,40.780827,-73.973923,40.789726
31D5AAB6D05087D01621FCB2586F367C,C88C91AB920728433259DA21DF5815DB,CMT,1,N,2013-01-18 12:18:59,2013-01-18 12:36:54,1,1074,5.30,-73.874535,40.773968,-73.949112,40.754211
FE546F9EEE639C4A85F489A99D125B89,4C21B8D3AFE2DB018412199EFE80DFAB,CMT,1,N,2013-01-18 12:28:22,2013-01-18 12:44:41,2,978,1.30,-73.99144,40.750072,-73.983841,40.759468
0DA4DCB0E5C0987E4F27F4DFF345AABB,A3BDDA114A27319BA9BE2BFEAF348E8B,CMT,1,N,2013-01-18 12:30:12,2013-01-18 12:36:11,1,359,1.10,-73.963493,40.777382,-73.973587,40.763454
3246AA03B718062309B61CEFEDA6C60A,79F8BC483D5BD960CCF3169E6A42793C,VTS,1,,2013-01-18 12:32:00,2013-01-18 12:34:00,1,120,.33,-73.974083,40.757225,-73.971252,40.757553
3246AA03B718062309B61CEFEDA6C60A,79F8BC483D5BD960CCF3169E6A42793C,VTS,1,,2013-01-18 12:36:00,2013-01-18 12:42:00,1,360,1.34,-73.969345,40.757801,-73.954247,40.767029
64AA3412C7E29AA863D269B2A345A039,DD6A3C01E68EA266E1F553B236BBBB1C,CMT,1,N,2013-01-18 12:38:25,2013-01-18 12:42:58,2,273,.30,-73.984985,40.759144,-73.984978,40.761284
0DA4DCB0E5C0987E4F27F4DFF345AABB,A3BDDA114A27319BA9BE2BFEAF348E8B,CMT,1,N,2013-01-18 12:39:00,2013-01-18 12:54:47,3,946,1.50,-73.978096,40.757565,-73.996719,40.751022
2F7430A075A7A4F9D4DA93F3BF4C49E0,C617C18C8270F35E970788CFA4B976B0,VTS,1,,2013-01-18 12:41:00,2013-01-18 12:47:00,1,360,.91,-73.973892,40.764408,-73.978218,40.754002
4CF38C0C5DE00C68B5AFFF44857FE359,73C839CE30F75638FE591C7F07C4C468,CMT,1,N,2013-01-18 12:41:36,2013-01-18 13:10:38,1,1741,4.60,-74.010162,40.720749,-73.973885,40.752205
3246AA03B718062309B61CEFEDA6C60A,79F8BC483D5BD960CCF3169E6A42793C,VTS,1,,2013-01-18 12:45:00,2013-01-18 13:01:00,1,960,4.53,-73.953629,40.771122,-73.99115,40.732937
64AA3412C7E29AA863D269B2A345A039,DD6A3C01E68EA266E1F553B236BBBB1C,CMT,1,N,2013-01-18 12:46:59,2013-01-18 13:02:34,1,935,3.80,-73.986038,40.757191,-74.010689,40.723728
2F7430A075A7A4F9D4DA93F3BF4C49E0,C617C18C8270F35E970788CFA4B976B0,VTS,1,,2013-01-18 12:49:00,2013-01-18 12:56:00,1,420,1.08,-73.977936,40.753536,-73.973549,40.764771
739540B8D61BB50FBAF51509EECEEA75,292D3E892682FC711CBC1024A944D474,CMT,1,N,2013-01-18 12:49:02,2013-01-18 12:57:14,1,492,1.10,-73.988319,40.75354,-73.974945,40.751186
FE546F9EEE639C4A85F489A99D125B89,4C21B8D3AFE2DB018412199EFE80DFAB,CMT,1,N,2013-01-18 12:50:07,2013-01-18 13:10:10,2,1202,2.80,-73.991539,40.750114,-73.972923,40.780296
0DA4DCB0E5C0987E4F27F4DFF345AABB,A3BDDA114A27319BA9BE2BFEAF348E8B,CMT,1,N,2013-01-18 12:56:12,2013-01-18 13:06:49,2,637,1.70,-73.996758,40.751038,-73.98616,40.749878
2F7430A075A7A4F9D4DA93F3BF4C49E0,C617C18C8270F35E970788CFA4B976B0,VTS,1,,2013-01-18 12:57:00,2013-01-18 13:07:00,1,600,1.85,-73.977936,40.753536,-73.988029,40.74366
739540B8D61BB50FBAF51509EECEEA75,292D3E892682FC711CBC1024A944D474,CMT,1,N,2013-01-18 12:58:59,2013-01-18 13:13:36,1,876,1.20,-73.973885,40.750767,-73.981468,40.762142
31D5AAB6D05087D01621FCB2586F367C,C88C91AB920728433259DA21DF5815DB,CMT,1,N,2013-01-18 13:02:06,2013-01-18 13:31:14,1,1747,9.70,-73.870819,40.773781,-73.976906,40.775063
3246AA03B718062309B61CEFEDA6C60A,79F8BC483D5BD960CCF3169E6A42793C,VTS,1,,2013-01-18 13:05:00,2013-01-18 13:19:00,1,840,1.94,-73.999084,40.734352,-73.978638,40.752392
80B79425F9C2AB66A8E999D0554D5BE7,9DE07EB42B4AA5A46AB4C66A17D1E432,VTS,1,,2013-01-18 13:05:00,2013-01-18 13:31:00,1,1560,11.63,-73.862732,40.769001,-73.981056,40.763447
F6B0E6F93A25D74EB79D804A085C8832,96549A049045E238E54F2B88836C4DF5,CMT,1,N,2013-01-18 13:07:31,2013-01-18 13:21:15,1,824,3.00,-73.970566,40.796516,-73.97361,40.763348
64AA3412C7E29AA863D269B2A345A039,DD6A3C01E68EA266E1F553B236BBBB1C,CMT,1,N,2013-01-18 13:08:22,2013-01-18 13:23:49,1,927,7.30,-74.009254,40.720741,-73.970604,40.758095
2F7430A075A7A4F9D4DA93F3BF4C49E0,C617C18C8270F35E970788CFA4B976B0,VTS,1,,2013-01-18 13:09:00,2013-01-18 13:36:00,1,1620,5.02,-73.990074,40.740757,-73.993393,40.683033
0DA4DCB0E5C0987E4F27F4DFF345AABB,A3BDDA114A27319BA9BE2BFEAF348E8B,CMT,1,N,2013-01-18 13:11:06,2013-01-18 13:20:24,1,558,.80,-73.985367,40.75499,-73.996918,40.756153
4CF38C0C5DE00C68B5AFFF44857FE359,73C839CE30F75638FE591C7F07C4C468,CMT,1,N,2013-01-18 13:12:54,2013-01-18 13:23:21,1,627,1.50,-73.970657,40.756454,-73.985878,40.741123
FE546F9EEE639C4A85F489A99D125B89,4C21B8D3AFE2DB018412199EFE80DFAB,CMT,1,N,2013-01-18 13:15:06,2013-01-18 13:22:55,1,469,1.60,-73.980209,40.7756,-73.975975,40.793751
739540B8D61BB50FBAF51509EECEEA75,292D3E892682FC711CBC1024A944D474,CMT,1,N,2013-01-18 13:15:57,2013-01-18 13:21:11,1,313,.90,-73.982819,40.761024,-73.991035,40.750355
F6B0E6F93A25D74EB79D804A085C8832,96549A049045E238E54F2B88836C4DF5,CMT,1,N,2013-01-18 13:22:22,2013-01-18 13:39:14,1,1012,.60,-73.973709,40.763191,-73.972717,40.756081
739540B8D61BB50FBAF51509EECEEA75,292D3E892682FC711CBC1024A944D474,CMT,1,N,2013-01-18 13:22:33,2013-01-18 13:32:50,1,617,1.40,-73.991692,40.749874,-73.98777,40.735508
83D30B1DDEB63761051E96590CE912D9,B7856DD328B940C70DDB6E5BF8988372,CMT,1,N,2013-01-18 13:23:19,2013-01-18 13:42:38,1,1159,8.60,-73.873055,40.774101,-73.976891,40.756893
FE546F9EEE639C4A85F489A99D125B89,4C21B8D3AFE2DB018412199EFE80DFAB,CMT,1,N,2013-01-18 13:24:00,2013-01-18 13:35:59,2,718,2.10,-73.976265,40.794888,-73.964912,40.775291
4CF38C0C5DE00C68B5AFFF44857FE359,73C839CE30F75638FE591C7F07C4C468,CMT,1,N,2013-01-18 13:24:55,2013-01-18 13:35:38,1,643,1.50,-73.985962,40.740589,-74.006851,40.73436
64AA3412C7E29AA863D269B2A345A039,DD6A3C01E68EA266E1F553B236BBBB1C,CMT,1,N,2013-01-18 13:25:08,2013-01-18 13:36:22,1,674,.90,-73.971481,40.757076,-73.983681,40.754753
3246AA03B718062309B61CEFEDA6C60A,79F8BC483D5BD960CCF3169E6A42793C,VTS,1,,2013-01-18 13:27:00,2013-01-18 13:32:00,1,300,1.08,-73.97773,40.754581,-73.98735,40.748535
0DA4DCB0E5C0987E4F27F4DFF345AABB,A3BDDA114A27319BA9BE2BFEAF348E8B,CMT,1,N,2013-01-18 13:32:45,2013-01-18 13:38:32,1,347,1.70,-73.982361,40.762054,-73.968109,40.770897
80B79425F9C2AB66A8E999D0554D5BE7,9DE07EB42B4AA5A46AB4C66A17D1E432,VTS,1,,2013-01-18 13:33:00,2013-01-18 13:40:00,1,420,1.01,-73.983521,40.76247,-73.989883,40.751919
FE546F9EEE639C4A85F489A99D125B89,4C21B8D3AFE2DB018412199EFE80DFAB,CMT,1,N,2013-01-18 13:36:34,2013-01-18 13:54:23,1,1069,3.00,-73.964912,40.775276,-74.000587,40.758286
739540B8D61BB50FBAF51509EECEEA75,292D3E892682FC711CBC1024A944D474,CMT,1,N,2013-01-18 13:37:02,2013-01-18 13:55:13,1,1090,5.50,-73.991898,40.732922,-73.999222,40.675377
31D5AAB6D05087D01621FCB2586F367C,C88C91AB920728433259DA21DF5815DB,CMT,1,N,2013-01-18 13:37:56,2013-01-18 13:42:49,1,292,.50,-73.98204,40.777767,-73.988174,40.779305
3246AA03B718062309B61CEFEDA6C60A,79F8BC483D5BD960CCF3169E6A42793C,VTS,1,,2013-01-18 13:38:00,2013-01-18 13:41:00,1,180,.72,-73.986328,40.75135,-73.979424,40.757847
64AA3412C7E29AA863D269B2A345A039,DD6A3C01E68EA266E1F553B236BBBB1C,CMT,1,N,2013-01-18 13:38:10,2013-01-18 13:52:44,1,874,2.70,-73.985626,40.754898,-73.965027,40.77512
4CF38C0C5DE00C68B5AFFF44857FE359,73C839CE30F75638FE591C7F07C4C468,CMT,1,N,2013-01-18 13:38:46,2013-01-18 13:44:42,1,356,.60,-74.005638,40.740604,-74.006195,40.746086
C569C8910159E5BD1DDF4861EE8D7FF2,B90ED0E0447B0981F2E3C49D370C514C,CMT,1,N,2013-01-18 13:39:12,2013-01-18 13:51:27,1,735,1.80,-73.980476,40.734352,-73.990273,40.751011
0DA4DCB0E5C0987E4F27F4DFF345AABB,A3BDDA114A27319BA9BE2BFEAF348E8B,CMT,1,N,2013-01-18 13:39:55,2013-01-18 13:56:50,1,1014,5.00,-73.968651,40.770222,-74.007828,40.729591
F6B0E6F93A25D74EB79D804A085C8832,96549A049045E238E54F2B88836C4DF5,CMT,1,N,2013-01-18 13:42:34,2013-01-18 13:54:38,1,723,.90,-73.974777,40.75153,-73.989189,40.753242
3246AA03B718062309B61CEFEDA6C60A,79F8BC483D5BD960CCF3169E6A42793C,VTS,1,,2013-01-18 13:43:00,2013-01-18 13:47:00,1,240,1.03,-73.976768,40.756947,-73.980461,40.745487
83D30B1DDEB63761051E96590CE912D9,B7856DD328B940C70DDB6E5BF8988372,CMT,1,N,2013-01-18 13:44:19,2013-01-18 13:54:46,3,627,1.60,-73.976784,40.757484,-74.000488,40.758488
6445A77D0238C473F7DD8B94A6955EA3,E7E6F9F97F18C35E0CC1AC3CCBBB4D08,VTS,1,,2013-01-18 13:45:00,2013-01-18 13:49:00,1,240,1.07,-73.995995,40.753998,-74.004005,40.742062
31D5AAB6D05087D01621FCB2586F367C,C88C91AB920728433259DA21DF5815DB,CMT,1,N,2013-01-18 13:45:46,2013-01-18 13:50:23,1,276,1.00,-73.98954,40.774479,-73.978981,40.785767
80B79425F9C2AB66A8E999D0554D5BE7,9DE07EB42B4AA5A46AB4C66A17D1E432,VTS,1,,2013-01-18 13:46:00,2013-01-18 14:03:00,1,1020,1.25,-73.993256,40.747753,-73.980103,40.754913
3246AA03B718062309B61CEFEDA6C60A,79F8BC483D5BD960CCF3169E6A42793C,VTS,1,,2013-01-18 13:50:00,2013-01-18 13:57:00,1,420,1.38,-73.985329,40.741322,-73.972633,40.75491
4CF38C0C5DE00C68B5AFFF44857FE359,73C839CE30F75638FE591C7F07C4C468,CMT,1,N,2013-01-18 13:51:51,2013-01-18 13:57:15,1,324,.60,-74.001472,40.746418,-74.008133,40.739037
2F7430A075A7A4F9D4DA93F3BF4C49E0,C617C18C8270F35E970788CFA4B976B0,VTS,1,,2013-01-18 13:52:00,2013-01-18 14:01:00,1,540,1.98,-73.989624,40.702492,-73.996101,40.681835
C569C8910159E5BD1DDF4861EE8D7FF2,B90ED0E0447B0981F2E3C49D370C514C,CMT,1,N,2013-01-18 13:52:23,2013-01-18 13:55:18,1,174,.70,-73.991676,40.751457,-74.000259,40.757629
31D5AAB6D05087D01621FCB2586F367C,C88C91AB920728433259DA21DF5815DB,CMT,1,N,2013-01-18 13:52:44,2013-01-18 13:57:43,1,298,1.20,-73.975189,40.789684,-73.964813,40.806499
6445A77D0238C473F7DD8B94A6955EA3,E7E6F9F97F18C35E0CC1AC3CCBBB4D08,VTS,2,,2013-01-18 13:55:00,2013-01-18 14:39:00,1,2640,17.91,-73.996223,40.732498,-73.776558,40.644997
0DA4DCB0E5C0987E4F27F4DFF345AABB,A3BDDA114A27319BA9BE2BFEAF348E8B,CMT,1,N,2013-01-18 13:57:40,2013-01-18 14:00:01,1,141,.60,-74.006989,40.729713,-74.001869,40.735348
F6B0E6F93A25D74EB79D804A085C8832,96549A049045E238E54F2B88836C4DF5,CMT,1,N,2013-01-18 13:57:56,2013-01-18 14:09:30,1,693,.60,-73.990463,40.753559,-73.991646,40.74939
C569C8910159E5BD1DDF4861EE8D7FF2,B90ED0E0447B0981F2E3C49D370C514C,CMT,1,N,2013-01-18 13:59:19,2013-01-18 14:12:02,1,763,1.30,-73.993912,40.755718,-73.975143,40.754482
0DA4DCB0E5C0987E4F27F4DFF345AABB,A3BDDA114A27319BA9BE2BFEAF348E8B,CMT,1,N,2013-01-18 14:01:00,2013-01-18 14:18:29,1,1048,2.70,-74.002663,40.734116,-73.973938,40.756268
83D30B1DDEB63761051E96590CE912D9,B7856DD328B940C70DDB6E5BF8988372,CMT,1,N,2013-01-18 14:01:14,2013-01-18 14:09:04,1,470,.60,-74.000816,40.758083,-73.991753,40.758125
2F7430A075A7A4F9D4DA93F3BF4C49E0,C617C18C8270F35E970788CFA4B976B0,VTS,1,,2013-01-18 14:05:00,2013-01-18 14:12:00,1,420,.98,-73.99054,40.686607,-73.977646,40.680965
FE546F9EEE639C4A85F489A99D125B89,4C21B8D3AFE2DB018412199EFE80DFAB,CMT,1,N,2013-01-18 14:05:13,2013-01-18 14:16:18,1,664,.90,-73.997948,40.756214,-73.984024,40.755009
80B79425F9C2AB66A8E999D0554D5BE7,9DE07EB42B4AA5A46AB4C66A17D1E432,VTS,1,,2013-01-18 14:06:00,2013-01-18 14:15:00,1,540,2.58,-73.977936,40.75494,-73.971321,40.781746
64AA3412C7E29AA863D269B2A345A039,DD6A3C01E68EA266E1F553B236BBBB1C,CMT,1,Y,2013-01-18 14:07:30,2013-01-18 14:15:44,1,493,1.50,-73.973427,40.762314,-73.987907,40.743408
4CF38C0C5DE00C68B5AFFF44857FE359,73C839CE30F75638FE591C7F07C4C468,CMT,1,N,2013-01-18 14:10:23,2013-01-18 14:18:10,1,466,1.70,-74.003036,40.744202,-74.005775,40.720154
83D30B1DDEB63761051E96590CE912D9,B7856DD328B940C70DDB6E5BF8988372,CMT,1,N,2013-01-18 14:11:19,2013-01-18 14:16:29,1,309,.50,-73.988701,40.756557,-73.991295,40.750446
739540B8D61BB50FBAF51509EECEEA75,292D3E892682FC711CBC1024A944D474,CMT,1,N,2013-01-18 14:11:23,2013-01-18 14:30:15,1,1132,3.40,-74.003288,40.713936,-73.982941,40.756542
C569C8910159E5BD1DDF4861EE8D7FF2,B90ED0E0447B0981F2E3C49D370C514C,CMT,1,N,2013-01-18 14:14:35,2013-01-18 14:37:39,1,1384,4.10,-73.973534,40.753433,-73.969009,40.798298
64AA3412C7E29AA863D269B2A345A039,DD6A3C01E68EA266E1F553B236BBBB1C,CMT,1,N,2013-01-18 14:16:32,2013-01-18 14:27:03,2,630,1.70,-73.989288,40.742222,-74.001762,40.723179
FE546F9EEE639C4A85F489A99D125B89,4C21B8D3AFE2DB018412199EFE80DFAB,CMT,1,N,2013-01-18 14:17:07,2013-01-18 14:30:13,1,786,2.60,-73.983749,40.75544,-73.953896,40.770653
2F7430A075A7A4F9D4DA93F3BF4C49E0,C617C18C8270F35E970788CFA4B976B0,VTS,1,,2013-01-18 14:18:00,2013-01-18 14:33:00,1,900,3.01,-73.980614,40.688541,-73.995316,40.72802
4CF38C0C5DE00C68B5AFFF44857FE359,73C839CE30F75638FE591C7F07C4C468,CMT,1,N,2013-01-18 14:19:14,2013-01-18 14:37:29,1,1094,2.80,-74.005074,40.719864,-73.978722,40.751408
83D30B1DDEB63761051E96590CE912D9,B7856DD328B940C70DDB6E5BF8988372,CMT,1,N,2013-01-18 14:19:41,2013-01-18 14:30:13,1,632,1.00,-73.991547,40.750317,-74.000046,40.757481
80B79425F9C2AB66A8E999D0554D5BE7,9DE07EB42B4AA5A46AB4C66A17D1E432,VTS,1,,2013-01-18 14:20:00,2013-01-18 14:27:00,1,420,1.04,-73.978203,40.773197,-73.966194,40.765427
CD98CA13911488D180A72A1039A44B85,CF72DC38A57DE4A517B4FE23C0B2462A,VTS,1,,2013-01-18 14:26:00,2013-01-18 14:55:00,2,1740,9.76,-73.874413,40.77396,-74.001183,40.746506
31D5AAB6D05087D01621FCB2586F367C,C88C91AB920728433259DA21DF5815DB,CMT,1,N,2013-01-18 14:26:38,2013-01-18 14:33:40,1,421,1.50,-73.998947,40.760326,-73.987511,40.775631
64AA3412C7E29AA863D269B2A345A039,DD6A3C01E68EA266E1F553B236BBBB1C,CMT,1,N,2013-01-18 14:28:05,2013-01-18 14:35:15,1,429,1.00,-74.002632,40.723114,-73.991936,40.734467
80B79425F9C2AB66A8E999D0554D5BE7,9DE07EB42B4AA5A46AB4C66A17D1E432,VTS,1,,2013-01-18 14:31:00,2013-01-18 14:38:00,1,420,1.13,-73.967926,40.759804,-73.955002,40.76395
FE546F9EEE639C4A85F489A99D125B89,4C21B8D3AFE2DB018412199EFE80DFAB,CMT,1,N,2013-01-18 14:34:17,2013-01-18 14:44:43,1,625,1.80,-73.951904,40.769402,-73.975601,40.765591
739540B8D61BB50FBAF51509EECEEA75,292D3E892682FC711CBC1024A944D474,CMT,1,N,2013-01-18 14:34:27,2013-01-18 14:40:28,1,360,.50,-73.985077,40.75782,-73.990036,40.751919
2F7430A075A7A4F9D4DA93F3BF4C49E0,C617C18C8270F35E970788CFA4B976B0,VTS,1,,2013-01-18 14:36:00,2013-01-18 14:53:00,1,1020,2.36,-73.999001,40.729851,-73.980942,40.75082
31D5AAB6D05087D01621FCB2586F367C,C88C91AB920728433259DA21DF5815DB,CMT,1,N,2013-01-18 14:36:01,2013-01-18 14:39:20,1,198,.80,-73.985497,40.778267,-73.976463,40.78561
64AA3412C7E29AA863D269B2A345A039,DD6A3C01E68EA266E1F553B236BBBB1C,CMT,1,N,2013-01-18 14:37:02,2013-01-18 14:43:04,1,362,.60,-73.991676,40.734932,-73.982269,40.731934
83D30B1DDEB63761051E96590CE912D9,B7856DD328B940C70DDB6E5BF8988372,CMT,1,N,2013-01-18 14:38:02,2013-01-18 14:49:04,2,662,1.20,-74.003494,40.748722,-74.005966,40.745083
80B79425F9C2AB66A8E999D0554D5BE7,9DE07EB42B4AA5A46AB4C66A17D1E432,VTS,1,,2013-01-18 14:39:00,2013-01-18 15:06:00,1,1620,3.90,-73.967926,40.759804,-73.991852,40.747593
4CF38C0C5DE00C68B5AFFF44857FE359,73C839CE30F75638FE591C7F07C4C468,CMT,1,N,2013-01-18 14:39:44,2013-01-18 14:42:25,1,160,.50,-73.976799,40.751862,-73.980019,40.744884
C569C8910159E5BD1DDF4861EE8D7FF2,B90ED0E0447B0981F2E3C49D370C514C,CMT,1,N,2013-01-18 14:40:32,2013-01-18 15:01:56,1,1283,5.90,-73.969414,40.798077,-73.989609,40.739635
3246AA03B718062309B61CEFEDA6C60A,79F8BC483D5BD960CCF3169E6A42793C,VTS,1,,2013-01-18 14:41:00,2013-01-18 15:11:00,1,1800,6.02,-74.00383,40.70787,-73.952393,40.769718
31D5AAB6D05087D01621FCB2586F367C,C88C91AB920728433259DA21DF5815DB,CMT,1,Y,2013-01-18 14:41:37,2013-01-18 15:00:13,1,1115,1.30,-73.975021,40.787502,-73.958794,40.782581
4CF38C0C5DE00C68B5AFFF44857FE359,73C839CE30F75638FE591C7F07C4C468,CMT,1,N,2013-01-18 14:44:35,2013-01-18 15:16:25,1,1909,4.50,-73.977547,40.746555,-73.970062,40.797016
739540B8D61BB50FBAF51509EECEEA75,292D3E892682FC711CBC1024A944D474,CMT,2,N,2013-01-18 14:44:54,2013-01-18 15:44:02,1,3546,15.80,-73.994781,40.74543,-73.787476,40.653748
64AA3412C7E29AA863D269B2A345A039,DD6A3C01E68EA266E1F553B236BBBB1C,CMT,1,N,2013-01-18 14:45:47,2013-01-18 14:49:05,1,198,.60,-73.985077,40.732536,-73.984772,40.728535
F6B0E6F93A25D74EB79D804A085C8832,96549A049045E238E54F2B88836C4DF5,CMT,2,N,2013-01-18 14:46:16,2013-01-18 15:41:00,1,3283,20.90,-73.993225,40.736813,-73.781937,40.644341
83D30B1DDEB63761051E96590CE912D9,B7856DD328B940C70DDB6E5BF8988372,CMT,2,N,2013-01-18 14:49:41,2013-01-18 15:51:58,2,3736,16.80,-74.005135,40.746323,-73.789207,40.641731
FE546F9EEE639C4A85F489A99D125B89,4C21B8D3AFE2DB018412199EFE80DFAB,CMT,1,N,2013-01-18 14:50:10,2013-01-18 15:12:14,2,1324,3.50,-73.982498,40.762478,-74.008087,40.717041
2F7430A075A7A4F9D4DA93F3BF4C49E0,C617C18C8270F35E970788CFA4B976B0,VTS,1,,2013-01-18 14:54:00,2013-01-18 15:17:00,1,1380,1.93,-73.979675,40.752708,-73.956497,40.763008
64AA3412C7E29AA863D269B2A345A039,DD6A3C01E68EA266E1F553B236BBBB1C,CMT,1,N,2013-01-18 14:55:10,2013-01-18 15:11:26,1,976,3.10,-73.990105,40.735168,-73.963219,40.774246
CD98CA13911488D180A72A1039A44B85,CF72DC38A57DE4A517B4FE23C0B2462A,VTS,1,,2013-01-18 15:00:00,2013-01-18 15:04:00,2,240,.59,-74.00209,40.745251,-73.996254,40.74826
C569C8910159E5BD1DDF4861EE8D7FF2,B90ED0E0447B0981F2E3C49D370C514C,CMT,1,N,2013-01-18 15:04:44,2013-01-18 15:12:26,1,461,1.20,-73.989487,40.739471,-74.0075,40.74279
CD98CA13911488D180A72A1039A44B85,CF72DC38A57DE4A517B4FE23C0B2462A,VTS,1,,2013-01-18 15:05:00,2013-01-18 15:17:00,2,720,1.33,-73.995811,40.748737,-73.9841,40.764622
31D5AAB6D05087D01621FCB2586F367C,C88C91AB920728433259DA21DF5815DB,CMT,1,N,2013-01-18 15:11:45,2013-01-18 15:23:43,1,717,1.70,-73.955978,40.784676,-73.967186,40.763702
64AA3412C7E29AA863D269B2A345A039,DD6A3C01E68EA266E1F553B236BBBB1C,CMT,1,N,2013-01-18 15:12:38,2013-01-18 15:19:03,1,384,.50,-73.962578,40.774864,-73.960091,40.771301
C569C8910159E5BD1DDF4861EE8D7FF2,B90ED0E0447B0981F2E3C49D370C514C,CMT,1,N,2013-01-18 15:13:20,2013-01-18 15:21:48,1,507,1.10,-74.007446,40.742725,-73.994972,40.750175
FE546F9EEE639C4A85F489A99D125B89,4C21B8D3AFE2DB018412199EFE80DFAB,CMT,1,N,2013-01-18 15:15:22,2013-01-18 15:34:07,1,1124,3.50,-74.00515,40.718929,-73.977486,40.764008
80B79425F9C2AB66A8E999D0554D5BE7,9DE07EB42B4AA5A46AB4C66A17D1E432,VTS,1,,2013-01-18 15:17:00,2013-01-18 15:22:00,1,300,.75,-73.997375,40.73642,-74.007553,40.735607
6445A77D0238C473F7DD8B94A6955EA3,E7E6F9F97F18C35E0CC1AC3CCBBB4D08,VTS,2,,2013-01-18 15:17:00,2013-01-18 15:59:00,1,2520,17.25,-73.786789,40.64106,-73.978203,40.75238
2F7430A075A7A4F9D4DA93F3BF4C49E0,C617C18C8270F35E970788CFA4B976B0,VTS,1,,2013-01-18 15:18:00,2013-01-18 15:38:00,1,1200,2.78,-73.95562,40.764362,-73.981461,40.786163
64AA3412C7E29AA863D269B2A345A039,DD6A3C01E68EA266E1F553B236BBBB1C,CMT,1,N,2013-01-18 15:20:19,2013-01-18 15:27:21,1,421,.90,-73.959618,40.771297,-73.968819,40.762161
CD98CA13911488D180A72A1039A44B85,CF72DC38A57DE4A517B4FE23C0B2462A,VTS,1,,2013-01-18 15:21:00,2013-01-18 15:29:00,2,480,.96,-73.982971,40.76152,-73.99131,40.750027
4CF38C0C5DE00C68B5AFFF44857FE359,73C839CE30F75638FE591C7F07C4C468,CMT,1,N,2013-01-18 15:24:39,2013-01-18 15:30:25,1,345,1.10,-73.974388,40.790104,-73.985954,40.777786
31D5AAB6D05087D01621FCB2586F367C,C88C91AB920728433259DA21DF5815DB,CMT,1,N,2013-01-18 15:24:53,2013-01-18 15:28:13,1,199,.50,-73.967888,40.762939,-73.963249,40.757477
CD98CA13911488D180A72A1039A44B85,CF72DC38A57DE4A517B4FE23C0B2462A,VTS,1,,2013-01-18 15:30:00,2013-01-18 15:41:00,2,660,1.16,-73.991692,40.749157,-73.983948,40.757069
31D5AAB6D05087D01621FCB2586F367C,C88C91AB920728433259DA21DF5815DB,CMT,1,N,2013-01-18 15:30:44,2013-01-18 15:38:55,1,490,.60,-73.963669,40.756939,-73.956764,40.762669
64AA3412C7E29AA863D269B2A345A039,DD6A3C01E68EA266E1F553B236BBBB1C,CMT,1,N,2013-01-18 15:30:50,2013-01-18 15:40:33,1,583,1.00,-73.970978,40.757099,-73.982658,40.750473
80B79425F9C2AB66A8E999D0554D5BE7,9DE07EB42B4AA5A46AB4C66A17D1E432,VTS,1,,2013-01-18 15:32:00,2013-01-18 15:38:00,1,360,.88,-73.992027,40.742428,-73.980072,40.737579
4CF38C0C5DE00C68B5AFFF44857FE359,73C839CE30F75638FE591C7F07C4C468,CMT,1,N,2013-01-18 15:32:26,2013-01-18 15:40:09,1,463,1.60,-73.988914,40.777481,-73.986572,40.764118
FE546F9EEE639C4A85F489A99D125B89,4C21B8D3AFE2DB018412199EFE80DFAB,CMT,1,N,2013-01-18 15:37:09,2013-01-18 15:43:11,1,362,.80,-73.973534,40.763466,-73.981194,40.753277
2F7430A075A7A4F9D4DA93F3BF4C49E0,C617C18C8270F35E970788CFA4B976B0,VTS,1,,2013-01-18 15:39:00,2013-01-18 15:43:00,1,240,1.11,-73.980133,40.785923,-73.989182,40.773232
80B79425F9C2AB66A8E999D0554D5BE7,9DE07EB42B4AA5A46AB4C66A17D1E432,VTS,1,,2013-01-18 15:39:00,2013-01-18 15:51:00,1,720,3.14,-73.976677,40.736012,-74.000984,40.710213
C569C8910159E5BD1DDF4861EE8D7FF2,B90ED0E0447B0981F2E3C49D370C514C,CMT,1,N,2013-01-18 15:39:23,2013-01-18 15:46:48,1,444,1.30,-73.999062,40.754768,-73.979866,40.751751
B395FD78CE1C5433FF5AC2CBC53D7512,9CE27314187FEB6ED94B02126F2C8122,CMT,1,N,2013-01-18 15:41:56,2013-01-18 16:04:52,1,1375,3.40,-73.972778,40.752853,-73.980957,40.786846
4CF38C0C5DE00C68B5AFFF44857FE359,73C839CE30F75638FE591C7F07C4C468,CMT,1,N,2013-01-18 15:42:01,2013-01-18 15:58:18,1,977,2.00,-73.984947,40.76384,-73.981651,40.784443
FE546F9EEE639C4A85F489A99D125B89,4C21B8D3AFE2DB018412199EFE80DFAB,CMT,1,N,2013-01-18 15:46:40,2013-01-18 15:51:29,2,289,.80,-73.979408,40.75301,-73.986298,40.746471
C12D2CAA4235AAE317E6E92C477D3153,E9D86653B8B64046875B88EFC2607111,VTS,1,,2013-01-18 15:51:00,2013-01-18 16:19:00,5,1680,2.27,-73.973122,40.763367,-73.996223,40.753193
C569C8910159E5BD1DDF4861EE8D7FF2,B90ED0E0447B0981F2E3C49D370C514C,CMT,1,N,2013-01-18 15:51:25,2013-01-18 16:00:36,1,551,.80,-73.978554,40.747974,-73.990555,40.751038
FE546F9EEE639C4A85F489A99D125B89,4C21B8D3AFE2DB018412199EFE80DFAB,CMT,1,N,2013-01-18 15:58:08,2013-01-18 16:03:29,1,320,.80,-73.980583,40.750645,-73.974716,40.756886
6445A77D0238C473F7DD8B94A6955EA3,E7E6F9F97F18C35E0CC1AC3CCBBB4D08,VTS,1,,2013-01-18 16:01:00,2013-01-18 16:09:00,1,480,.89,-73.981781,40.753826,-73.991714,40.749466
739540B8D61BB50FBAF51509EECEEA75,292D3E892682FC711CBC1024A944D474,CMT,2,N,2013-01-18 16:04:47,2013-01-18 16:59:28,1,3280,15.80,-73.776581,40.645824,-74.009163,40.710907
CD98CA13911488D180A72A1039A44B85,CF72DC38A57DE4A517B4FE23C0B2462A,VTS,1,,2013-01-18 16:07:00,2013-01-18 16:25:00,2,1080,2.81,-73.985649,40.763306,-73.978752,40.736237
C569C8910159E5BD1DDF4861EE8D7FF2,B90ED0E0447B0981F2E3C49D370C514C,CMT,1,N,2013-01-18 16:07:45,2013-01-18 16:12:36,1,290,.70,-73.991623,40.754574,-73.983795,40.75901
B395FD78CE1C5433FF5AC2CBC53D7512,9CE27314187FEB6ED94B02126F2C8122,CMT,1,N,2013-01-18 16:10:00,2013-01-18 16:17:24,1,444,1.10,-73.987206,40.775574,-73.985786,40.763779
BD7DDBAFAF0C3619EAABB85DDB742879,E89F453D50A9FFE22DF4560F9659BC87,CMT,1,N,2013-01-18 16:10:23,2013-01-18 16:19:13,2,530,1.40,-73.991608,40.764935,-73.977661,40.784218
6445A77D0238C473F7DD8B94A6955EA3,E7E6F9F97F18C35E0CC1AC3CCBBB4D08,VTS,1,,2013-01-18 16:11:00,2013-01-18 16:30:00,1,1140,2.28,-73.992035,40.749096,-73.964241,40.754551
B3F5EED48959DD8A2BE31E218A170C5D,D90CB340C3357F8A4D216B23C1F104E1,VTS,3,,2013-01-18 16:14:00,2013-01-18 16:53:00,1,2340,13.62,-74.009933,40.720905,-74.17704,40.695019
C569C8910159E5BD1DDF4861EE8D7FF2,B90ED0E0447B0981F2E3C49D370C514C,CMT,1,N,2013-01-18 16:19:47,2013-01-18 16:29:35,1,588,1.50,-73.98317,40.750229,-74.003471,40.747505
B395FD78CE1C5433FF5AC2CBC53D7512,9CE27314187FEB6ED94B02126F2C8122,CMT,1,N,2013-01-18 16:21:29,2013-01-18 16:45:14,2,1424,3.40,-73.979836,40.761227,-73.995415,40.723274
BD7DDBAFAF0C3619EAABB85DDB742879,E89F453D50A9FFE22DF4560F9659BC87,CMT,1,N,2013-01-18 16:21:53,2013-01-18 16:30:18,1,505,1.40,-73.973129,40.790245,-73.956749,40.77784
F6B0E6F93A25D74EB79D804A085C8832,96549A049045E238E54F2B88836C4DF5,CMT,1,N,2013-01-18 16:23:36,2013-01-18 17:18:07,1,3270,12.00,-73.78997,40.646896,-73.964417,40.6507
C12D2CAA4235AAE317E6E92C477D3153,E9D86653B8B64046875B88EFC2607111,VTS,1,,2013-01-18 16:32:00,2013-01-18 16:38:00,5,360,1.08,-73.986412,40.761898,-73.982315,40.775867
6445A77D0238C473F7DD8B94A6955EA3,E7E6F9F97F18C35E0CC1AC3CCBBB4D08,VTS,1,,2013-01-18 16:32:00,2013-01-18 16:40:00,1,480,1.32,-73.963905,40.754547,-73.959251,40.769192
BD7DDBAFAF0C3619EAABB85DDB742879,E89F453D50A9FFE22DF4560F9659BC87,CMT,1,N,2013-01-18 16:33:54,2013-01-18 16:37:51,1,236,.70,-73.958344,40.775673,-73.964539,40.765278
CD98CA13911488D180A72A1039A44B85,CF72DC38A57DE4A517B4FE23C0B2462A,VTS,1,,2013-01-18 16:39:00,2013-01-18 17:02:00,2,1380,2.10,-73.977783,40.738071,-73.959312,40.763496
7DE03ADA92FBF31073DDF11CE229B9EC,8BF504A2DFD94D3FB000BF49719AAA9B,VTS,1,,2013-01-18 16:42:00,2013-01-18 17:06:00,1,1440,9.14,-73.866043,40.77124,-73.968987,40.752857
6445A77D0238C473F7DD8B94A6955EA3,E7E6F9F97F18C35E0CC1AC3CCBBB4D08,VTS,1,,2013-01-18 16:43:00,2013-01-18 16:48:00,1,300,1.10,-73.960403,40.769634,-73.972977,40.764656
C12D2CAA4235AAE317E6E92C477D3153,E9D86653B8B64046875B88EFC2607111,VTS,1,,2013-01-18 16:44:00,2013-01-18 16:47:00,5,180,.86,-73.978836,40.785164,-73.969986,40.789639
6445A77D0238C473F7DD8B94A6955EA3,E7E6F9F97F18C35E0CC1AC3CCBBB4D08,VTS,1,,2013-01-18 16:49:00,2013-01-18 16:54:00,1,300,.87,-73.973434,40.763721,-73.969299,40.755341
C12D2CAA4235AAE317E6E92C477D3153,E9D86653B8B64046875B88EFC2607111,VTS,1,,2013-01-18 16:49:00,2013-01-18 16:55:00,5,360,1.40,-73.970856,40.787586,-73.95121,40.785816
B395FD78CE1C5433FF5AC2CBC53D7512,9CE27314187FEB6ED94B02126F2C8122,CMT,1,N,2013-01-18 16:49:19,2013-01-18 16:54:28,1,308,.80,-73.990265,40.733681,-73.977364,40.727474
6445A77D0238C473F7DD8B94A6955EA3,E7E6F9F97F18C35E0CC1AC3CCBBB4D08,VTS,1,,2013-01-18 16:55:00,2013-01-18 16:58:00,1,180,.54,-73.973434,40.763721,-73.973946,40.754536
C12D2CAA4235AAE317E6E92C477D3153,E9D86653B8B64046875B88EFC2607111,VTS,1,,2013-01-18 16:56:00,2013-01-18 17:31:00,5,2100,6.13,-73.951019,40.785873,-74.009338,40.716518
BD7DDBAFAF0C3619EAABB85DDB742879,E89F453D50A9FFE22DF4560F9659BC87,CMT,2,N,2013-01-18 16:56:57,2013-01-18 16:57:46,1,49,.00,-73.988365,40.74305,-73.988281,40.742931
BD7DDBAFAF0C3619EAABB85DDB742879,E89F453D50A9FFE22DF4560F9659BC87,CMT,1,N,2013-01-18 16:58:11,2013-01-18 17:15:13,1,1022,2.40,-73.989815,40.743591,-74.009758,40.717991
6445A77D0238C473F7DD8B94A6955EA3,E7E6F9F97F18C35E0CC1AC3CCBBB4D08,VTS,1,,2013-01-18 17:00:00,2013-01-18 17:01:00,1,60,.43,-73.976479,40.751083,-73.978592,40.748203
C569C8910159E5BD1DDF4861EE8D7FF2,B90ED0E0447B0981F2E3C49D370C514C,CMT,1,N,2013-01-18 17:01:11,2013-01-18 17:05:52,1,280,.70,-74.002396,40.739864,-73.994896,40.746166
B395FD78CE1C5433FF5AC2CBC53D7512,9CE27314187FEB6ED94B02126F2C8122,CMT,1,N,2013-01-18 17:05:56,2013-01-18 17:18:48,2,771,1.70,-73.97831,40.737877,-73.987144,40.720848
7DE03ADA92FBF31073DDF11CE229B9EC,8BF504A2DFD94D3FB000BF49719AAA9B,VTS,1,,2013-01-18 17:08:00,2013-01-18 17:28:00,1,1200,1.96,-73.96981,40.752338,-73.990799,40.766155
739540B8D61BB50FBAF51509EECEEA75,292D3E892682FC711CBC1024A944D474,CMT,1,N,2013-01-18 17:08:07,2013-01-18 17:14:40,1,392,1.10,-74.007011,40.71217,-73.98954,40.713421
739540B8D61BB50FBAF51509EECEEA75,292D3E892682FC711CBC1024A944D474,CMT,1,N,2013-01-18 17:16:04,2013-01-18 17:22:20,1,376,.80,-73.988327,40.712971,-73.989639,40.72044
BD7DDBAFAF0C3619EAABB85DDB742879,E89F453D50A9FFE22DF4560F9659BC87,CMT,1,N,2013-01-18 17:16:46,2013-01-18 17:22:19,1,333,.70,-74.00885,40.718586,-74.008064,40.730358
B3F5EED48959DD8A2BE31E218A170C5D,D90CB340C3357F8A4D216B23C1F104E1,VTS,1,,2013-01-18 17:17:00,2013-01-18 17:42:00,1,1500,3.35,-74.008514,40.720734,-73.977921,40.748482
B395FD78CE1C5433FF5AC2CBC53D7512,9CE27314187FEB6ED94B02126F2C8122,CMT,1,N,2013-01-18 17:25:04,2013-01-18 17:29:54,1,289,.70,-73.986824,40.72546,-73.977135,40.726368
BD7DDBAFAF0C3619EAABB85DDB742879,E89F453D50A9FFE22DF4560F9659BC87,CMT,1,N,2013-01-18 17:25:11,2013-01-18 17:34:51,1,580,1.60,-74.006622,40.731827,-74.008179,40.748661
B395FD78CE1C5433FF5AC2CBC53D7512,9CE27314187FEB6ED94B02126F2C8122,CMT,1,N,2013-01-18 17:33:30,2013-01-18 17:42:48,1,558,1.10,-73.982361,40.731281,-73.989227,40.721889
C12D2CAA4235AAE317E6E92C477D3153,E9D86653B8B64046875B88EFC2607111,VTS,1,,2013-01-18 17:36:00,2013-01-18 18:06:00,5,1800,5.56,-74.007492,40.72718,-73.952217,40.778198
6FC04F89BE153CF9F982ECCB52431760,0BDE24681A08B6B72748AA1BC8A10BE7,CMT,1,N,2013-01-18 17:36:16,2013-01-18 17:40:15,2,238,.50,-73.976021,40.744686,-73.983574,40.742298
BD7DDBAFAF0C3619EAABB85DDB742879,E89F453D50A9FFE22DF4560F9659BC87,CMT,1,N,2013-01-18 17:36:54,2013-01-18 17:46:31,4,577,1.10,-74.00843,40.746254,-73.993095,40.742626
7DE03ADA92FBF31073DDF11CE229B9EC,8BF504A2DFD94D3FB000BF49719AAA9B,VTS,1,,2013-01-18 17:38:00,2013-01-18 18:03:00,1,1500,4.02,-73.983391,40.758152,-74.010315,40.719311
B3F5EED48959DD8A2BE31E218A170C5D,D90CB340C3357F8A4D216B23C1F104E1,VTS,1,,2013-01-18 17:43:00,2013-01-18 17:54:00,1,660,1.63,-73.979698,40.746532,-73.99511,40.727345
6FC04F89BE153CF9F982ECCB52431760,0BDE24681A08B6B72748AA1BC8A10BE7,CMT,1,N,2013-01-18 17:46:51,2013-01-18 17:53:29,1,398,1.10,-73.975945,40.754387,-73.960922,40.759205
B395FD78CE1C5433FF5AC2CBC53D7512,9CE27314187FEB6ED94B02126F2C8122,CMT,1,N,2013-01-18 17:47:05,2013-01-18 18:02:59,1,954,2.20,-73.987427,40.724693,-73.999832,40.745842
BD7DDBAFAF0C3619EAABB85DDB742879,E89F453D50A9FFE22DF4560F9659BC87,CMT,1,N,2013-01-18 17:47:31,2013-01-18 17:57:21,1,590,1.10,-73.993126,40.742619,-73.981567,40.755676
B3F5EED48959DD8A2BE31E218A170C5D,D90CB340C3357F8A4D216B23C1F104E1,VTS,1,,2013-01-18 17:55:00,2013-01-18 18:12:00,1,1020,2.74,-73.995949,40.726608,-73.972237,40.760124
BD7DDBAFAF0C3619EAABB85DDB742879,E89F453D50A9FFE22DF4560F9659BC87,CMT,1,N,2013-01-18 17:57:58,2013-01-18 18:09:27,1,689,1.30,-73.981514,40.755604,-73.991608,40.760078
6FC04F89BE153CF9F982ECCB52431760,0BDE24681A08B6B72748AA1BC8A10BE7,CMT,1,N,2013-01-18 18:05:15,2013-01-18 18:11:37,1,382,1.40,-73.972176,40.755905,-73.961098,40.770084
7DE03ADA92FBF31073DDF11CE229B9EC,8BF504A2DFD94D3FB000BF49719AAA9B,VTS,1,,2013-01-18 18:10:00,2013-01-18 18:17:00,1,420,.79,-74.011421,40.715504,-74.01403,40.709156
B395FD78CE1C5433FF5AC2CBC53D7512,9CE27314187FEB6ED94B02126F2C8122,CMT,1,N,2013-01-18 18:10:10,2013-01-18 18:19:42,2,572,1.50,-73.992577,40.748585,-73.989952,40.732876
B3F5EED48959DD8A2BE31E218A170C5D,D90CB340C3357F8A4D216B23C1F104E1,VTS,1,,2013-01-18 18:13:00,2013-01-18 18:33:00,1,1200,2.96,-73.972099,40.760052,-73.976349,40.780888
6FC04F89BE153CF9F982ECCB52431760,0BDE24681A08B6B72748AA1BC8A10BE7,CMT,1,N,2013-01-18 18:18:05,2013-01-18 18:25:56,1,471,1.00,-73.954872,40.764076,-73.968002,40.762428
7DE03ADA92FBF31073DDF11CE229B9EC,8BF504A2DFD94D3FB000BF49719AAA9B,VTS,1,,2013-01-18 18:23:00,2013-01-18 18:40:00,1,1020,4.36,-74.011902,40.70755,-74.002327,40.760509
B395FD78CE1C5433FF5AC2CBC53D7512,9CE27314187FEB6ED94B02126F2C8122,CMT,1,N,2013-01-18 18:26:35,2013-01-18 18:49:47,1,1391,3.70,-73.985977,40.74078,-73.945892,40.775497
6FC04F89BE153CF9F982ECCB52431760,0BDE24681A08B6B72748AA1BC8A10BE7,CMT,1,N,2013-01-18 18:28:59,2013-01-18 18:39:25,1,626,2.40,-73.971138,40.758972,-73.995453,40.733677
B3F5EED48959DD8A2BE31E218A170C5D,D90CB340C3357F8A4D216B23C1F104E1,VTS,2,,2013-01-18 18:36:00,2013-01-18 19:18:00,1,2520,18.47,-73.976944,40.779907,-73.776421,40.645004
6FC04F89BE153CF9F982ECCB52431760,0BDE24681A08B6B72748AA1BC8A10BE7,CMT,1,N,2013-01-18 18:41:46,2013-01-18 18:51:23,1,577,1.40,-73.99855,40.734776,-74.001968,40.719425
C49E9852F88C785A94E8E57705C90B5C,F1594D359481D3069D9D806D2D501682,CMT,1,N,2013-01-18 18:43:28,2013-01-18 18:48:50,1,322,1.10,-73.965073,40.759106,-73.976051,40.74448
7DE03ADA92FBF31073DDF11CE229B9EC,8BF504A2DFD94D3FB000BF49719AAA9B,VTS,1,,2013-01-18 18:44:00,2013-01-18 18:51:00,1,420,.64,-73.998573,40.760818,-73.989586,40.757496
BD7DDBAFAF0C3619EAABB85DDB742879,E89F453D50A9FFE22DF4560F9659BC87,CMT,2,N,2013-01-18 18:51:35,2013-01-18 18:51:53,1,18,1.30,-73.786407,40.639725,-73.786407,40.639725
7DE03ADA92FBF31073DDF11CE229B9EC,8BF504A2DFD94D3FB000BF49719AAA9B,VTS,1,,2013-01-18 18:53:00,2013-01-18 18:58:00,1,300,.74,-73.987183,40.756264,-73.97982,40.749603
B395FD78CE1C5433FF5AC2CBC53D7512,9CE27314187FEB6ED94B02126F2C8122,CMT,1,N,2013-01-18 18:54:24,2013-01-18 19:16:14,1,1309,3.30,-73.953407,40.772522,-73.991898,40.758072
7DE03ADA92FBF31073DDF11CE229B9EC,8BF504A2DFD94D3FB000BF49719AAA9B,VTS,1,,2013-01-18 19:01:00,2013-01-18 19:15:00,1,840,2.09,-73.98349,40.750118,-73.982208,40.771309
C49E9852F88C785A94E8E57705C90B5C,F1594D359481D3069D9D806D2D501682,CMT,1,N,2013-01-18 19:01:20,2013-01-18 19:09:09,1,468,.90,-73.975937,40.748619,-73.990311,40.756264
6FC04F89BE153CF9F982ECCB52431760,0BDE24681A08B6B72748AA1BC8A10BE7,CMT,1,N,2013-01-18 19:10:32,2013-01-18 19:21:09,2,637,1.30,-74.007507,40.716965,-74.005959,40.73576
B395FD78CE1C5433FF5AC2CBC53D7512,9CE27314187FEB6ED94B02126F2C8122,CMT,1,N,2013-01-18 19:18:30,2013-01-18 19:25:55,2,445,1.10,-73.989082,40.75758,-73.982079,40.772522
6FC04F89BE153CF9F982ECCB52431760,0BDE24681A08B6B72748AA1BC8A10BE7,CMT,1,N,2013-01-18 19:30:54,2013-01-18 19:37:43,1,409,1.00,-73.994026,40.751163,-73.976692,40.748592
B395FD78CE1C5433FF5AC2CBC53D7512,9CE27314187FEB6ED94B02126F2C8122,CMT,1,N,2013-01-18 19:33:40,2013-01-18 19:52:59,1,1158,3.20,-73.988731,40.763901,-73.993408,40.726288
C49E9852F88C785A94E8E57705C90B5C,F1594D359481D3069D9D806D2D501682,CMT,1,N,2013-01-18 19:35:59,2013-01-18 19:40:22,1,262,.60,-73.997536,40.724091,-73.995529,40.730759
6FC04F89BE153CF9F982ECCB52431760,0BDE24681A08B6B72748AA1BC8A10BE7,CMT,1,N,2013-01-18 19:39:43,2013-01-18 19:53:44,1,840,.00,-73.974358,40.750584,-73.915764,40.764225
6FC04F89BE153CF9F982ECCB52431760,0BDE24681A08B6B72748AA1BC8A10BE7,CMT,1,N,2013-01-18 19:56:54,2013-01-18 19:56:56,1,2,.00,-73.913086,40.764774,-73.913086,40.764774
B3F5EED48959DD8A2BE31E218A170C5D,D90CB340C3357F8A4D216B23C1F104E1,VTS,1,,2013-01-18 20:13:00,2013-01-18 20:26:00,1,780,2.00,-73.97934,40.748798,-74.005119,40.741291
C49E9852F88C785A94E8E57705C90B5C,F1594D359481D3069D9D806D2D501682,CMT,1,N,2013-01-18 20:21:21,2013-01-18 20:31:13,1,591,.60,-73.981194,40.746902,-73.990669,40.75042
B395FD78CE1C5433FF5AC2CBC53D7512,9CE27314187FEB6ED94B02126F2C8122,CMT,1,N,2013-01-18 20:25:40,2013-01-18 20:44:59,2,1159,5.60,-73.98394,40.729553,-73.922539,40.763905
6FC04F89BE153CF9F982ECCB52431760,0BDE24681A08B6B72748AA1BC8A10BE7,CMT,1,N,2013-01-18 20:31:11,2013-01-18 20:55:56,1,1484,9.90,-73.874405,40.774055,-73.995491,40.730835
B3F5EED48959DD8A2BE31E218A170C5D,D90CB340C3357F8A4D216B23C1F104E1,VTS,1,,2013-01-18 20:34:00,2013-01-18 20:38:00,1,240,.43,-74.005112,40.74078,-73.997742,40.737846
C49E9852F88C785A94E8E57705C90B5C,F1594D359481D3069D9D806D2D501682,CMT,1,N,2013-01-18 20:35:00,2013-01-18 20:54:18,1,1158,3.80,-73.990868,40.750225,-73.950356,40.773102
BD7DDBAFAF0C3619EAABB85DDB742879,E89F453D50A9FFE22DF4560F9659BC87,CMT,2,N,2013-01-18 20:36:32,2013-01-18 20:36:38,1,6,1.30,-73.997391,40.720814,-73.997391,40.720814
B3F5EED48959DD8A2BE31E218A170C5D,D90CB340C3357F8A4D216B23C1F104E1,VTS,1,,2013-01-18 20:41:00,2013-01-18 20:59:00,1,1080,3.44,-73.996796,40.737293,-73.959404,40.760448
C12D2CAA4235AAE317E6E92C477D3153,E9D86653B8B64046875B88EFC2607111,VTS,2,,2013-01-18 20:42:00,2013-01-18 20:45:00,5,180,.06,-73.982605,40.737843,-73.981537,40.737366
BD7DDBAFAF0C3619EAABB85DDB742879,E89F453D50A9FFE22DF4560F9659BC87,CMT,1,N,2013-01-18 20:46:30,2013-01-18 20:56:16,1,585,1.20,-74.006775,40.73114,-73.995758,40.721748
C12D2CAA4235AAE317E6E92C477D3153,E9D86653B8B64046875B88EFC2607111,VTS,1,,2013-01-18 20:49:00,2013-01-18 20:59:00,5,600,2.03,-73.978363,40.741444,-73.990089,40.717102
C49E9852F88C785A94E8E57705C90B5C,F1594D359481D3069D9D806D2D501682,CMT,1,N,2013-01-18 20:56:22,2013-01-18 21:11:49,1,926,4.60,-73.951431,40.773663,-73.911674,40.762302
BD7DDBAFAF0C3619EAABB85DDB742879,E89F453D50A9FFE22DF4560F9659BC87,CMT,1,N,2013-01-18 20:58:12,2013-01-18 21:13:06,1,893,3.70,-73.994316,40.722324,-73.97496,40.675133
B395FD78CE1C5433FF5AC2CBC53D7512,9CE27314187FEB6ED94B02126F2C8122,CMT,1,N,2013-01-18 20:59:53,2013-01-18 21:15:33,1,939,8.40,-73.862762,40.769066,-73.952164,40.777287
B3F5EED48959DD8A2BE31E218A170C5D,D90CB340C3357F8A4D216B23C1F104E1,VTS,1,,2013-01-18 21:02:00,2013-01-18 21:05:00,1,180,.60,-73.960014,40.761864,-73.954605,40.769592
C12D2CAA4235AAE317E6E92C477D3153,E9D86653B8B64046875B88EFC2607111,VTS,1,,2013-01-18 21:02:00,2013-01-18 21:07:00,5,300,.47,-73.987076,40.720638,-73.982361,40.724033
B3F5EED48959DD8A2BE31E218A170C5D,D90CB340C3357F8A4D216B23C1F104E1,VTS,1,,2013-01-18 21:06:00,2013-01-18 21:11:00,1,300,.80,-73.954094,40.770245,-73.958,40.778183
6FC04F89BE153CF9F982ECCB52431760,0BDE24681A08B6B72748AA1BC8A10BE7,CMT,1,N,2013-01-18 21:16:23,2013-01-18 21:24:49,2,505,1.10,-73.981682,40.745983,-73.990898,40.755981
B3F5EED48959DD8A2BE31E218A170C5D,D90CB340C3357F8A4D216B23C1F104E1,VTS,1,,2013-01-18 21:19:00,2013-01-18 21:25:00,1,360,.69,-73.971657,40.760342,-73.983109,40.763554
B395FD78CE1C5433FF5AC2CBC53D7512,9CE27314187FEB6ED94B02126F2C8122,CMT,1,N,2013-01-18 21:22:13,2013-01-18 21:32:35,1,621,3.20,-73.963585,40.761623,-73.924049,40.73798
6FC04F89BE153CF9F982ECCB52431760,0BDE24681A08B6B72748AA1BC8A10BE7,CMT,1,N,2013-01-18 21:28:48,2013-01-18 21:40:54,2,726,2.50,-73.985153,40.763702,-73.957512,40.78252
B3F5EED48959DD8A2BE31E218A170C5D,D90CB340C3357F8A4D216B23C1F104E1,VTS,1,,2013-01-18 21:34:00,2013-01-18 21:49:00,1,900,3.48,-73.98735,40.760544,-73.945824,40.778229
BD7DDBAFAF0C3619EAABB85DDB742879,E89F453D50A9FFE22DF4560F9659BC87,CMT,1,N,2013-01-18 21:35:27,2013-01-18 21:42:19,2,412,1.20,-74.006813,40.731075,-73.987152,40.729961
BD7DDBAFAF0C3619EAABB85DDB742879,E89F453D50A9FFE22DF4560F9659BC87,CMT,1,N,2013-01-18 21:43:44,2013-01-18 22:05:18,2,1293,4.40,-73.986893,40.729706,-73.974014,40.672283
6FC04F89BE153CF9F982ECCB52431760,0BDE24681A08B6B72748AA1BC8A10BE7,CMT,1,N,2013-01-18 21:45:38,2013-01-18 21:47:40,1,121,.60,-73.963165,40.775093,-73.954758,40.780815
B395FD78CE1C5433FF5AC2CBC53D7512,9CE27314187FEB6ED94B02126F2C8122,CMT,1,N,2013-01-18 21:47:49,2013-01-18 22:03:55,1,965,9.20,-73.86274,40.769051,-73.983932,40.743202
B3F5EED48959DD8A2BE31E218A170C5D,D90CB340C3357F8A4D216B23C1F104E1,VTS,1,,2013-01-18 21:52:00,2013-01-18 22:07:00,1,900,2.95,-73.947922,40.776112,-73.98848,40.778782
6FC04F89BE153CF9F982ECCB52431760,0BDE24681A08B6B72748AA1BC8A10BE7,CMT,1,N,2013-01-18 21:52:14,2013-01-18 21:59:33,2,438,1.90,-73.952972,40.783226,-73.957855,40.761513
6FC04F89BE153CF9F982ECCB52431760,0BDE24681A08B6B72748AA1BC8A10BE7,CMT,1,N,2013-01-18 22:02:11,2013-01-18 22:06:10,2,239,.90,-73.9599,40.762657,-73.965813,40.752735
B395FD78CE1C5433FF5AC2CBC53D7512,9CE27314187FEB6ED94B02126F2C8122,CMT,1,N,2013-01-18 22:04:36,2013-01-18 22:07:20,2,163,.50,-73.983833,40.743603,-73.984802,40.736713
6FC04F89BE153CF9F982ECCB52431760,0BDE24681A08B6B72748AA1BC8A10BE7,CMT,1,N,2013-01-18 22:08:46,2013-01-18 22:20:07,1,681,1.80,-73.969482,40.754337,-73.9944,40.751656
BD7DDBAFAF0C3619EAABB85DDB742879,E89F453D50A9FFE22DF4560F9659BC87,CMT,1,N,2013-01-18 22:08:55,2013-01-18 22:12:52,1,237,1.00,-73.973923,40.67923,-73.956383,40.675194
7DE03ADA92FBF31073DDF11CE229B9EC,8BF504A2DFD94D3FB000BF49719AAA9B,VTS,1,,2013-01-18 22:09:00,2013-01-18 22:24:00,1,900,4.20,-73.982277,40.774391,-73.926422,40.755268
B395FD78CE1C5433FF5AC2CBC53D7512,9CE27314187FEB6ED94B02126F2C8122,CMT,1,N,2013-01-18 22:09:37,2013-01-18 22:15:56,1,379,1.00,-73.986969,40.733845,-74.000511,40.730045
B3F5EED48959DD8A2BE31E218A170C5D,D90CB340C3357F8A4D216B23C1F104E1,VTS,1,,2013-01-18 22:16:00,2013-01-18 22:29:00,1,780,5.36,-73.982193,40.778435,-73.941658,40.830383
B395FD78CE1C5433FF5AC2CBC53D7512,9CE27314187FEB6ED94B02126F2C8122,CMT,1,N,2013-01-18 22:16:33,2013-01-18 22:23:39,3,425,.90,-74.000473,40.729923,-73.989243,40.729202
BD7DDBAFAF0C3619EAABB85DDB742879,E89F453D50A9FFE22DF4560F9659BC87,CMT,1,N,2013-01-18 22:20:30,2013-01-18 22:37:31,2,1021,6.10,-73.975655,40.683487,-73.982422,40.731346
6FC04F89BE153CF9F982ECCB52431760,0BDE24681A08B6B72748AA1BC8A10BE7,CMT,1,N,2013-01-18 22:27:53,2013-01-18 22:37:17,4,563,1.60,-74.000168,40.745968,-73.97757,40.746597
B395FD78CE1C5433FF5AC2CBC53D7512,9CE27314187FEB6ED94B02126F2C8122,CMT,1,N,2013-01-18 22:31:21,2013-01-18 22:33:43,2,141,.30,-73.985771,40.735409,-73.986427,40.731194
B3F5EED48959DD8A2BE31E218A170C5D,D90CB340C3357F8A4D216B23C1F104E1,VTS,1,,2013-01-18 22:35:00,2013-01-18 22:42:00,1,420,.88,-73.953697,40.822205,-73.947403,40.818668
B395FD78CE1C5433FF5AC2CBC53D7512,9CE27314187FEB6ED94B02126F2C8122,CMT,1,N,2013-01-18 22:37:47,2013-01-18 22:49:30,3,703,2.10,-73.991653,40.726341,-73.971321,40.752773
6FC04F89BE153CF9F982ECCB52431760,0BDE24681A08B6B72748AA1BC8A10BE7,CMT,1,N,2013-01-18 22:40:24,2013-01-18 22:49:51,1,566,2.20,-73.981026,40.744709,-73.960823,40.769623
7DE03ADA92FBF31073DDF11CE229B9EC,8BF504A2DFD94D3FB000BF49719AAA9B,VTS,1,,2013-01-18 22:49:00,2013-01-18 22:58:00,1,540,2.91,-73.885284,40.773079,-73.912888,40.777725
B3F5EED48959DD8A2BE31E218A170C5D,D90CB340C3357F8A4D216B23C1F104E1,VTS,1,,2013-01-18 22:52:00,2013-01-18 23:02:00,1,600,1.97,-73.971741,40.787151,-73.990196,40.761814
B395FD78CE1C5433FF5AC2CBC53D7512,9CE27314187FEB6ED94B02126F2C8122,CMT,1,N,2013-01-18 23:00:47,2013-01-18 23:19:32,3,1124,2.20,-73.985207,40.727692,-73.994987,40.750111
6FC04F89BE153CF9F982ECCB52431760,0BDE24681A08B6B72748AA1BC8A10BE7,CMT,1,N,2013-01-18 23:02:32,2013-01-18 23:12:16,1,583,1.60,-73.97673,40.75095,-73.958771,40.761593
BD7DDBAFAF0C3619EAABB85DDB742879,E89F453D50A9FFE22DF4560F9659BC87,CMT,1,N,2013-01-18 23:03:19,2013-01-18 23:08:17,1,298,1.80,-73.981628,40.732529,-73.966522,40.756508
B3F5EED48959DD8A2BE31E218A170C5D,D90CB340C3357F8A4D216B23C1F104E1,VTS,1,,2013-01-18 23:05:00,2013-01-18 23:23:00,1,1080,3.44,-73.991364,40.760231,-74.004868,40.721413
C49E9852F88C785A94E8E57705C90B5C,F1594D359481D3069D9D806D2D501682,CMT,1,N,2013-01-18 23:07:39,2013-01-18 23:32:37,1,1498,19.50,-73.782112,40.644588,-73.83802,40.883919
BD7DDBAFAF0C3619EAABB85DDB742879,E89F453D50A9FFE22DF4560F9659BC87,CMT,1,N,2013-01-18 23:09:21,2013-01-18 23:13:48,1,266,1.00,-73.966927,40.756672,-73.976341,40.744232
BD7DDBAFAF0C3619EAABB85DDB742879,E89F453D50A9FFE22DF4560F9659BC87,CMT,1,N,2013-01-18 23:19:10,2013-01-18 23:25:30,1,379,1.30,-73.990494,40.734943,-74.004539,40.721317
B395FD78CE1C5433FF5AC2CBC53D7512,9CE27314187FEB6ED94B02126F2C8122,CMT,1,N,2013-01-18 23:20:24,2013-01-18 23:32:32,2,728,2.00,-73.995003,40.750137,-73.981888,40.738316
B3F5EED48959DD8A2BE31E218A170C5D,D90CB340C3357F8A4D216B23C1F104E1,VTS,1,,2013-01-18 23:23:00,2013-01-18 23:31:00,1,480,.73,-74.004913,40.721363,-74.004929,40.720974
7DE03ADA92FBF31073DDF11CE229B9EC,8BF504A2DFD94D3FB000BF49719AAA9B,VTS,1,,2013-01-18 23:23:00,2013-01-18 23:42:00,1,1140,8.91,-73.873055,40.774174,-73.982147,40.757278
BD7DDBAFAF0C3619EAABB85DDB742879,E89F453D50A9FFE22DF4560F9659BC87,CMT,1,N,2013-01-18 23:30:17,2013-01-18 23:35:46,1,329,.90,-73.998001,40.735661,-73.988708,40.72728
B3F5EED48959DD8A2BE31E218A170C5D,D90CB340C3357F8A4D216B23C1F104E1,VTS,1,,2013-01-18 23:33:00,2013-01-19 00:01:00,1,1680,4.23,-74.002853,40.72337,-73.961945,40.762917
B395FD78CE1C5433FF5AC2CBC53D7512,9CE27314187FEB6ED94B02126F2C8122,CMT,1,N,2013-01-18 23:34:02,2013-01-18 23:38:36,3,273,.90,-73.982918,40.739025,-73.982994,40.731476
B395FD78CE1C5433FF5AC2CBC53D7512,9CE27314187FEB6ED94B02126F2C8122,CMT,1,N,2013-01-18 23:40:08,2013-01-18 23:59:08,2,1140,5.40,-73.982445,40.731251,-73.916367,40.754543
C12D2CAA4235AAE317E6E92C477D3153,E9D86653B8B64046875B88EFC2607111,VTS,1,,2013-01-18 23:45:00,2013-01-18 23:50:00,5,300,1.15,-73.991966,40.754925,-73.978737,40.746029
7DE03ADA92FBF31073DDF11CE229B9EC,8BF504A2DFD94D3FB000BF49719AAA9B,VTS,1,,2013-01-18 23:45:00,2013-01-18 23:53:00,1,480,1.99,-73.981522,40.759541,-73.976578,40.779881
6FC04F89BE153CF9F982ECCB52431760,0BDE24681A08B6B72748AA1BC8A10BE7,CMT,1,N,2013-01-18 23:51:44,2013-01-19 00:01:15,1,571,1.70,-73.98037,40.742847,-73.988091,40.734886
