0,0.0666666666667
1,0.566666666667
2,1.33333333333
3,0.3
4,0.466666666667
5,0.233333333333
6,0.0333333333333
7,5.26666666667
8,0.0666666666667
9,0.5
10,0.0
11,4.26666666667
12,0.166666666667
13,0.366666666667
14,0.0
15,0.433333333333
16,0.2
17,0.166666666667
18,0.766666666667
19,0.2
20,0.0
21,0.3
22,0.266666666667
23,0.466666666667
24,0.0666666666667
25,0.266666666667
26,0.333333333333
27,0.366666666667
28,1.23333333333
29,0.233333333333
30,0.166666666667
