0,228.0
1,226.0
2,194.0
3,340.0
4,246.0
5,167.0
6,142.0
7,251.0
8,265.0
9,205.0
10,264.0
11,205.0
12,198.0
13,214.0
14,319.0
15,209.0
16,253.0
17,278.0
18,238.0
19,213.0
20,158.0
21,273.0
22,193.0
23,270.0
24,217.0
25,222.0
26,196.0
27,140.0
28,258.0
29,335.0
30,178.0
